<?xml version="1.0" encoding="utf-8" standalone="no"?>
<!DOCTYPE svg PUBLIC "-//W3C//DTD SVG 1.1//EN"
  "http://www.w3.org/Graphics/SVG/1.1/DTD/svg11.dtd">
<svg height="648pt" version="1.1" viewBox="0 0 1152 648" width="1152pt" xmlns="http://www.w3.org/2000/svg" xmlns:xlink="http://www.w3.org/1999/xlink">
 <metadata>
  <rdf:RDF xmlns:cc="http://creativecommons.org/ns#" xmlns:dc="http://purl.org/dc/elements/1.1/" xmlns:rdf="http://www.w3.org/1999/02/22-rdf-syntax-ns#">
   <cc:Work>
    <dc:type rdf:resource="http://purl.org/dc/dcmitype/StillImage"/>
    <dc:date>2021-05-23T10:52:12.900577</dc:date>
    <dc:format>image/svg+xml</dc:format>
    <dc:creator>
     <cc:Agent>
      <dc:title>Matplotlib v3.4.2, https://matplotlib.org/</dc:title>
     </cc:Agent>
    </dc:creator>
   </cc:Work>
  </rdf:RDF>
 </metadata>
 <defs>
  <style type="text/css">*{stroke-linecap:butt;stroke-linejoin:round;}</style>
 </defs>
 <g id="figure_1">
  <g id="patch_1">
   <path d="M 0 648 
L 1152 648 
L 1152 0 
L 0 0 
z
" style="fill:#ffffff;"/>
  </g>
  <g id="axes_1">
   <g id="patch_2">
    <path d="M 144 567 
L 1036.8 567 
L 1036.8 77.76 
L 144 77.76 
z
" style="fill:#eaeaf2;"/>
   </g>
   <g id="matplotlib.axis_1">
    <g id="xtick_1">
     <g id="line2d_1">
      <path clip-path="url(#p8e3ba6c05f)" d="M 184.581818 567 
L 184.581818 77.76 
" style="fill:none;stroke:#ffffff;stroke-linecap:round;"/>
     </g>
     <g id="text_1">
      <!-- 1 -->
      <g style="fill:#262626;" transform="translate(181.082443 584.858281)scale(0.11 -0.11)">
       <defs>
        <path d="M 794 531 
L 1825 531 
L 1825 4091 
L 703 3866 
L 703 4441 
L 1819 4666 
L 2450 4666 
L 2450 531 
L 3481 531 
L 3481 0 
L 794 0 
L 794 531 
z
" id="DejaVuSans-31" transform="scale(0.015625)"/>
       </defs>
       <use xlink:href="#DejaVuSans-31"/>
      </g>
     </g>
    </g>
    <g id="xtick_2">
     <g id="line2d_2">
      <path clip-path="url(#p8e3ba6c05f)" d="M 212.569279 567 
L 212.569279 77.76 
" style="fill:none;stroke:#ffffff;stroke-linecap:round;"/>
     </g>
     <g id="text_2">
      <!-- 2 -->
      <g style="fill:#262626;" transform="translate(209.069904 584.858281)scale(0.11 -0.11)">
       <defs>
        <path d="M 1228 531 
L 3431 531 
L 3431 0 
L 469 0 
L 469 531 
Q 828 903 1448 1529 
Q 2069 2156 2228 2338 
Q 2531 2678 2651 2914 
Q 2772 3150 2772 3378 
Q 2772 3750 2511 3984 
Q 2250 4219 1831 4219 
Q 1534 4219 1204 4116 
Q 875 4013 500 3803 
L 500 4441 
Q 881 4594 1212 4672 
Q 1544 4750 1819 4750 
Q 2544 4750 2975 4387 
Q 3406 4025 3406 3419 
Q 3406 3131 3298 2873 
Q 3191 2616 2906 2266 
Q 2828 2175 2409 1742 
Q 1991 1309 1228 531 
z
" id="DejaVuSans-32" transform="scale(0.015625)"/>
       </defs>
       <use xlink:href="#DejaVuSans-32"/>
      </g>
     </g>
    </g>
    <g id="xtick_3">
     <g id="line2d_3">
      <path clip-path="url(#p8e3ba6c05f)" d="M 240.55674 567 
L 240.55674 77.76 
" style="fill:none;stroke:#ffffff;stroke-linecap:round;"/>
     </g>
     <g id="text_3">
      <!-- 3 -->
      <g style="fill:#262626;" transform="translate(237.057365 584.858281)scale(0.11 -0.11)">
       <defs>
        <path d="M 2597 2516 
Q 3050 2419 3304 2112 
Q 3559 1806 3559 1356 
Q 3559 666 3084 287 
Q 2609 -91 1734 -91 
Q 1441 -91 1130 -33 
Q 819 25 488 141 
L 488 750 
Q 750 597 1062 519 
Q 1375 441 1716 441 
Q 2309 441 2620 675 
Q 2931 909 2931 1356 
Q 2931 1769 2642 2001 
Q 2353 2234 1838 2234 
L 1294 2234 
L 1294 2753 
L 1863 2753 
Q 2328 2753 2575 2939 
Q 2822 3125 2822 3475 
Q 2822 3834 2567 4026 
Q 2313 4219 1838 4219 
Q 1578 4219 1281 4162 
Q 984 4106 628 3988 
L 628 4550 
Q 988 4650 1302 4700 
Q 1616 4750 1894 4750 
Q 2613 4750 3031 4423 
Q 3450 4097 3450 3541 
Q 3450 3153 3228 2886 
Q 3006 2619 2597 2516 
z
" id="DejaVuSans-33" transform="scale(0.015625)"/>
       </defs>
       <use xlink:href="#DejaVuSans-33"/>
      </g>
     </g>
    </g>
    <g id="xtick_4">
     <g id="line2d_4">
      <path clip-path="url(#p8e3ba6c05f)" d="M 268.544201 567 
L 268.544201 77.76 
" style="fill:none;stroke:#ffffff;stroke-linecap:round;"/>
     </g>
     <g id="text_4">
      <!-- 4 -->
      <g style="fill:#262626;" transform="translate(265.044826 584.858281)scale(0.11 -0.11)">
       <defs>
        <path d="M 2419 4116 
L 825 1625 
L 2419 1625 
L 2419 4116 
z
M 2253 4666 
L 3047 4666 
L 3047 1625 
L 3713 1625 
L 3713 1100 
L 3047 1100 
L 3047 0 
L 2419 0 
L 2419 1100 
L 313 1100 
L 313 1709 
L 2253 4666 
z
" id="DejaVuSans-34" transform="scale(0.015625)"/>
       </defs>
       <use xlink:href="#DejaVuSans-34"/>
      </g>
     </g>
    </g>
    <g id="xtick_5">
     <g id="line2d_5">
      <path clip-path="url(#p8e3ba6c05f)" d="M 296.531661 567 
L 296.531661 77.76 
" style="fill:none;stroke:#ffffff;stroke-linecap:round;"/>
     </g>
     <g id="text_5">
      <!-- 5 -->
      <g style="fill:#262626;" transform="translate(293.032286 584.858281)scale(0.11 -0.11)">
       <defs>
        <path d="M 691 4666 
L 3169 4666 
L 3169 4134 
L 1269 4134 
L 1269 2991 
Q 1406 3038 1543 3061 
Q 1681 3084 1819 3084 
Q 2600 3084 3056 2656 
Q 3513 2228 3513 1497 
Q 3513 744 3044 326 
Q 2575 -91 1722 -91 
Q 1428 -91 1123 -41 
Q 819 9 494 109 
L 494 744 
Q 775 591 1075 516 
Q 1375 441 1709 441 
Q 2250 441 2565 725 
Q 2881 1009 2881 1497 
Q 2881 1984 2565 2268 
Q 2250 2553 1709 2553 
Q 1456 2553 1204 2497 
Q 953 2441 691 2322 
L 691 4666 
z
" id="DejaVuSans-35" transform="scale(0.015625)"/>
       </defs>
       <use xlink:href="#DejaVuSans-35"/>
      </g>
     </g>
    </g>
    <g id="xtick_6">
     <g id="line2d_6">
      <path clip-path="url(#p8e3ba6c05f)" d="M 324.519122 567 
L 324.519122 77.76 
" style="fill:none;stroke:#ffffff;stroke-linecap:round;"/>
     </g>
     <g id="text_6">
      <!-- 6 -->
      <g style="fill:#262626;" transform="translate(321.019747 584.858281)scale(0.11 -0.11)">
       <defs>
        <path d="M 2113 2584 
Q 1688 2584 1439 2293 
Q 1191 2003 1191 1497 
Q 1191 994 1439 701 
Q 1688 409 2113 409 
Q 2538 409 2786 701 
Q 3034 994 3034 1497 
Q 3034 2003 2786 2293 
Q 2538 2584 2113 2584 
z
M 3366 4563 
L 3366 3988 
Q 3128 4100 2886 4159 
Q 2644 4219 2406 4219 
Q 1781 4219 1451 3797 
Q 1122 3375 1075 2522 
Q 1259 2794 1537 2939 
Q 1816 3084 2150 3084 
Q 2853 3084 3261 2657 
Q 3669 2231 3669 1497 
Q 3669 778 3244 343 
Q 2819 -91 2113 -91 
Q 1303 -91 875 529 
Q 447 1150 447 2328 
Q 447 3434 972 4092 
Q 1497 4750 2381 4750 
Q 2619 4750 2861 4703 
Q 3103 4656 3366 4563 
z
" id="DejaVuSans-36" transform="scale(0.015625)"/>
       </defs>
       <use xlink:href="#DejaVuSans-36"/>
      </g>
     </g>
    </g>
    <g id="xtick_7">
     <g id="line2d_7">
      <path clip-path="url(#p8e3ba6c05f)" d="M 352.506583 567 
L 352.506583 77.76 
" style="fill:none;stroke:#ffffff;stroke-linecap:round;"/>
     </g>
     <g id="text_7">
      <!-- 7 -->
      <g style="fill:#262626;" transform="translate(349.007208 584.858281)scale(0.11 -0.11)">
       <defs>
        <path d="M 525 4666 
L 3525 4666 
L 3525 4397 
L 1831 0 
L 1172 0 
L 2766 4134 
L 525 4134 
L 525 4666 
z
" id="DejaVuSans-37" transform="scale(0.015625)"/>
       </defs>
       <use xlink:href="#DejaVuSans-37"/>
      </g>
     </g>
    </g>
    <g id="xtick_8">
     <g id="line2d_8">
      <path clip-path="url(#p8e3ba6c05f)" d="M 380.494044 567 
L 380.494044 77.76 
" style="fill:none;stroke:#ffffff;stroke-linecap:round;"/>
     </g>
     <g id="text_8">
      <!-- 8 -->
      <g style="fill:#262626;" transform="translate(376.994669 584.858281)scale(0.11 -0.11)">
       <defs>
        <path d="M 2034 2216 
Q 1584 2216 1326 1975 
Q 1069 1734 1069 1313 
Q 1069 891 1326 650 
Q 1584 409 2034 409 
Q 2484 409 2743 651 
Q 3003 894 3003 1313 
Q 3003 1734 2745 1975 
Q 2488 2216 2034 2216 
z
M 1403 2484 
Q 997 2584 770 2862 
Q 544 3141 544 3541 
Q 544 4100 942 4425 
Q 1341 4750 2034 4750 
Q 2731 4750 3128 4425 
Q 3525 4100 3525 3541 
Q 3525 3141 3298 2862 
Q 3072 2584 2669 2484 
Q 3125 2378 3379 2068 
Q 3634 1759 3634 1313 
Q 3634 634 3220 271 
Q 2806 -91 2034 -91 
Q 1263 -91 848 271 
Q 434 634 434 1313 
Q 434 1759 690 2068 
Q 947 2378 1403 2484 
z
M 1172 3481 
Q 1172 3119 1398 2916 
Q 1625 2713 2034 2713 
Q 2441 2713 2670 2916 
Q 2900 3119 2900 3481 
Q 2900 3844 2670 4047 
Q 2441 4250 2034 4250 
Q 1625 4250 1398 4047 
Q 1172 3844 1172 3481 
z
" id="DejaVuSans-38" transform="scale(0.015625)"/>
       </defs>
       <use xlink:href="#DejaVuSans-38"/>
      </g>
     </g>
    </g>
    <g id="xtick_9">
     <g id="line2d_9">
      <path clip-path="url(#p8e3ba6c05f)" d="M 408.481505 567 
L 408.481505 77.76 
" style="fill:none;stroke:#ffffff;stroke-linecap:round;"/>
     </g>
     <g id="text_9">
      <!-- 9 -->
      <g style="fill:#262626;" transform="translate(404.98213 584.858281)scale(0.11 -0.11)">
       <defs>
        <path d="M 703 97 
L 703 672 
Q 941 559 1184 500 
Q 1428 441 1663 441 
Q 2288 441 2617 861 
Q 2947 1281 2994 2138 
Q 2813 1869 2534 1725 
Q 2256 1581 1919 1581 
Q 1219 1581 811 2004 
Q 403 2428 403 3163 
Q 403 3881 828 4315 
Q 1253 4750 1959 4750 
Q 2769 4750 3195 4129 
Q 3622 3509 3622 2328 
Q 3622 1225 3098 567 
Q 2575 -91 1691 -91 
Q 1453 -91 1209 -44 
Q 966 3 703 97 
z
M 1959 2075 
Q 2384 2075 2632 2365 
Q 2881 2656 2881 3163 
Q 2881 3666 2632 3958 
Q 2384 4250 1959 4250 
Q 1534 4250 1286 3958 
Q 1038 3666 1038 3163 
Q 1038 2656 1286 2365 
Q 1534 2075 1959 2075 
z
" id="DejaVuSans-39" transform="scale(0.015625)"/>
       </defs>
       <use xlink:href="#DejaVuSans-39"/>
      </g>
     </g>
    </g>
    <g id="xtick_10">
     <g id="line2d_10">
      <path clip-path="url(#p8e3ba6c05f)" d="M 436.468966 567 
L 436.468966 77.76 
" style="fill:none;stroke:#ffffff;stroke-linecap:round;"/>
     </g>
     <g id="text_10">
      <!-- 10 -->
      <g style="fill:#262626;" transform="translate(429.470216 584.858281)scale(0.11 -0.11)">
       <defs>
        <path d="M 2034 4250 
Q 1547 4250 1301 3770 
Q 1056 3291 1056 2328 
Q 1056 1369 1301 889 
Q 1547 409 2034 409 
Q 2525 409 2770 889 
Q 3016 1369 3016 2328 
Q 3016 3291 2770 3770 
Q 2525 4250 2034 4250 
z
M 2034 4750 
Q 2819 4750 3233 4129 
Q 3647 3509 3647 2328 
Q 3647 1150 3233 529 
Q 2819 -91 2034 -91 
Q 1250 -91 836 529 
Q 422 1150 422 2328 
Q 422 3509 836 4129 
Q 1250 4750 2034 4750 
z
" id="DejaVuSans-30" transform="scale(0.015625)"/>
       </defs>
       <use xlink:href="#DejaVuSans-31"/>
       <use x="63.623047" xlink:href="#DejaVuSans-30"/>
      </g>
     </g>
    </g>
    <g id="xtick_11">
     <g id="line2d_11">
      <path clip-path="url(#p8e3ba6c05f)" d="M 464.456426 567 
L 464.456426 77.76 
" style="fill:none;stroke:#ffffff;stroke-linecap:round;"/>
     </g>
     <g id="text_11">
      <!-- 11 -->
      <g style="fill:#262626;" transform="translate(457.457676 584.858281)scale(0.11 -0.11)">
       <use xlink:href="#DejaVuSans-31"/>
       <use x="63.623047" xlink:href="#DejaVuSans-31"/>
      </g>
     </g>
    </g>
    <g id="xtick_12">
     <g id="line2d_12">
      <path clip-path="url(#p8e3ba6c05f)" d="M 492.443887 567 
L 492.443887 77.76 
" style="fill:none;stroke:#ffffff;stroke-linecap:round;"/>
     </g>
     <g id="text_12">
      <!-- 12 -->
      <g style="fill:#262626;" transform="translate(485.445137 584.858281)scale(0.11 -0.11)">
       <use xlink:href="#DejaVuSans-31"/>
       <use x="63.623047" xlink:href="#DejaVuSans-32"/>
      </g>
     </g>
    </g>
    <g id="xtick_13">
     <g id="line2d_13">
      <path clip-path="url(#p8e3ba6c05f)" d="M 520.431348 567 
L 520.431348 77.76 
" style="fill:none;stroke:#ffffff;stroke-linecap:round;"/>
     </g>
     <g id="text_13">
      <!-- 13 -->
      <g style="fill:#262626;" transform="translate(513.432598 584.858281)scale(0.11 -0.11)">
       <use xlink:href="#DejaVuSans-31"/>
       <use x="63.623047" xlink:href="#DejaVuSans-33"/>
      </g>
     </g>
    </g>
    <g id="xtick_14">
     <g id="line2d_14">
      <path clip-path="url(#p8e3ba6c05f)" d="M 548.418809 567 
L 548.418809 77.76 
" style="fill:none;stroke:#ffffff;stroke-linecap:round;"/>
     </g>
     <g id="text_14">
      <!-- 14 -->
      <g style="fill:#262626;" transform="translate(541.420059 584.858281)scale(0.11 -0.11)">
       <use xlink:href="#DejaVuSans-31"/>
       <use x="63.623047" xlink:href="#DejaVuSans-34"/>
      </g>
     </g>
    </g>
    <g id="xtick_15">
     <g id="line2d_15">
      <path clip-path="url(#p8e3ba6c05f)" d="M 576.40627 567 
L 576.40627 77.76 
" style="fill:none;stroke:#ffffff;stroke-linecap:round;"/>
     </g>
     <g id="text_15">
      <!-- 15 -->
      <g style="fill:#262626;" transform="translate(569.40752 584.858281)scale(0.11 -0.11)">
       <use xlink:href="#DejaVuSans-31"/>
       <use x="63.623047" xlink:href="#DejaVuSans-35"/>
      </g>
     </g>
    </g>
    <g id="xtick_16">
     <g id="line2d_16">
      <path clip-path="url(#p8e3ba6c05f)" d="M 604.39373 567 
L 604.39373 77.76 
" style="fill:none;stroke:#ffffff;stroke-linecap:round;"/>
     </g>
     <g id="text_16">
      <!-- 16 -->
      <g style="fill:#262626;" transform="translate(597.39498 584.858281)scale(0.11 -0.11)">
       <use xlink:href="#DejaVuSans-31"/>
       <use x="63.623047" xlink:href="#DejaVuSans-36"/>
      </g>
     </g>
    </g>
    <g id="xtick_17">
     <g id="line2d_17">
      <path clip-path="url(#p8e3ba6c05f)" d="M 632.381191 567 
L 632.381191 77.76 
" style="fill:none;stroke:#ffffff;stroke-linecap:round;"/>
     </g>
     <g id="text_17">
      <!-- 17 -->
      <g style="fill:#262626;" transform="translate(625.382441 584.858281)scale(0.11 -0.11)">
       <use xlink:href="#DejaVuSans-31"/>
       <use x="63.623047" xlink:href="#DejaVuSans-37"/>
      </g>
     </g>
    </g>
    <g id="xtick_18">
     <g id="line2d_18">
      <path clip-path="url(#p8e3ba6c05f)" d="M 660.368652 567 
L 660.368652 77.76 
" style="fill:none;stroke:#ffffff;stroke-linecap:round;"/>
     </g>
     <g id="text_18">
      <!-- 18 -->
      <g style="fill:#262626;" transform="translate(653.369902 584.858281)scale(0.11 -0.11)">
       <use xlink:href="#DejaVuSans-31"/>
       <use x="63.623047" xlink:href="#DejaVuSans-38"/>
      </g>
     </g>
    </g>
    <g id="xtick_19">
     <g id="line2d_19">
      <path clip-path="url(#p8e3ba6c05f)" d="M 688.356113 567 
L 688.356113 77.76 
" style="fill:none;stroke:#ffffff;stroke-linecap:round;"/>
     </g>
     <g id="text_19">
      <!-- 19 -->
      <g style="fill:#262626;" transform="translate(681.357363 584.858281)scale(0.11 -0.11)">
       <use xlink:href="#DejaVuSans-31"/>
       <use x="63.623047" xlink:href="#DejaVuSans-39"/>
      </g>
     </g>
    </g>
    <g id="xtick_20">
     <g id="line2d_20">
      <path clip-path="url(#p8e3ba6c05f)" d="M 716.343574 567 
L 716.343574 77.76 
" style="fill:none;stroke:#ffffff;stroke-linecap:round;"/>
     </g>
     <g id="text_20">
      <!-- 20 -->
      <g style="fill:#262626;" transform="translate(709.344824 584.858281)scale(0.11 -0.11)">
       <use xlink:href="#DejaVuSans-32"/>
       <use x="63.623047" xlink:href="#DejaVuSans-30"/>
      </g>
     </g>
    </g>
    <g id="xtick_21">
     <g id="line2d_21">
      <path clip-path="url(#p8e3ba6c05f)" d="M 744.331034 567 
L 744.331034 77.76 
" style="fill:none;stroke:#ffffff;stroke-linecap:round;"/>
     </g>
     <g id="text_21">
      <!-- 21 -->
      <g style="fill:#262626;" transform="translate(737.332284 584.858281)scale(0.11 -0.11)">
       <use xlink:href="#DejaVuSans-32"/>
       <use x="63.623047" xlink:href="#DejaVuSans-31"/>
      </g>
     </g>
    </g>
    <g id="xtick_22">
     <g id="line2d_22">
      <path clip-path="url(#p8e3ba6c05f)" d="M 772.318495 567 
L 772.318495 77.76 
" style="fill:none;stroke:#ffffff;stroke-linecap:round;"/>
     </g>
     <g id="text_22">
      <!-- 22 -->
      <g style="fill:#262626;" transform="translate(765.319745 584.858281)scale(0.11 -0.11)">
       <use xlink:href="#DejaVuSans-32"/>
       <use x="63.623047" xlink:href="#DejaVuSans-32"/>
      </g>
     </g>
    </g>
    <g id="xtick_23">
     <g id="line2d_23">
      <path clip-path="url(#p8e3ba6c05f)" d="M 800.305956 567 
L 800.305956 77.76 
" style="fill:none;stroke:#ffffff;stroke-linecap:round;"/>
     </g>
     <g id="text_23">
      <!-- 23 -->
      <g style="fill:#262626;" transform="translate(793.307206 584.858281)scale(0.11 -0.11)">
       <use xlink:href="#DejaVuSans-32"/>
       <use x="63.623047" xlink:href="#DejaVuSans-33"/>
      </g>
     </g>
    </g>
    <g id="xtick_24">
     <g id="line2d_24">
      <path clip-path="url(#p8e3ba6c05f)" d="M 828.293417 567 
L 828.293417 77.76 
" style="fill:none;stroke:#ffffff;stroke-linecap:round;"/>
     </g>
     <g id="text_24">
      <!-- 24 -->
      <g style="fill:#262626;" transform="translate(821.294667 584.858281)scale(0.11 -0.11)">
       <use xlink:href="#DejaVuSans-32"/>
       <use x="63.623047" xlink:href="#DejaVuSans-34"/>
      </g>
     </g>
    </g>
    <g id="xtick_25">
     <g id="line2d_25">
      <path clip-path="url(#p8e3ba6c05f)" d="M 856.280878 567 
L 856.280878 77.76 
" style="fill:none;stroke:#ffffff;stroke-linecap:round;"/>
     </g>
     <g id="text_25">
      <!-- 25 -->
      <g style="fill:#262626;" transform="translate(849.282128 584.858281)scale(0.11 -0.11)">
       <use xlink:href="#DejaVuSans-32"/>
       <use x="63.623047" xlink:href="#DejaVuSans-35"/>
      </g>
     </g>
    </g>
    <g id="xtick_26">
     <g id="line2d_26">
      <path clip-path="url(#p8e3ba6c05f)" d="M 884.268339 567 
L 884.268339 77.76 
" style="fill:none;stroke:#ffffff;stroke-linecap:round;"/>
     </g>
     <g id="text_26">
      <!-- 26 -->
      <g style="fill:#262626;" transform="translate(877.269589 584.858281)scale(0.11 -0.11)">
       <use xlink:href="#DejaVuSans-32"/>
       <use x="63.623047" xlink:href="#DejaVuSans-36"/>
      </g>
     </g>
    </g>
    <g id="xtick_27">
     <g id="line2d_27">
      <path clip-path="url(#p8e3ba6c05f)" d="M 912.255799 567 
L 912.255799 77.76 
" style="fill:none;stroke:#ffffff;stroke-linecap:round;"/>
     </g>
     <g id="text_27">
      <!-- 27 -->
      <g style="fill:#262626;" transform="translate(905.257049 584.858281)scale(0.11 -0.11)">
       <use xlink:href="#DejaVuSans-32"/>
       <use x="63.623047" xlink:href="#DejaVuSans-37"/>
      </g>
     </g>
    </g>
    <g id="xtick_28">
     <g id="line2d_28">
      <path clip-path="url(#p8e3ba6c05f)" d="M 940.24326 567 
L 940.24326 77.76 
" style="fill:none;stroke:#ffffff;stroke-linecap:round;"/>
     </g>
     <g id="text_28">
      <!-- 28 -->
      <g style="fill:#262626;" transform="translate(933.24451 584.858281)scale(0.11 -0.11)">
       <use xlink:href="#DejaVuSans-32"/>
       <use x="63.623047" xlink:href="#DejaVuSans-38"/>
      </g>
     </g>
    </g>
    <g id="xtick_29">
     <g id="line2d_29">
      <path clip-path="url(#p8e3ba6c05f)" d="M 968.230721 567 
L 968.230721 77.76 
" style="fill:none;stroke:#ffffff;stroke-linecap:round;"/>
     </g>
     <g id="text_29">
      <!-- 29 -->
      <g style="fill:#262626;" transform="translate(961.231971 584.858281)scale(0.11 -0.11)">
       <use xlink:href="#DejaVuSans-32"/>
       <use x="63.623047" xlink:href="#DejaVuSans-39"/>
      </g>
     </g>
    </g>
    <g id="xtick_30">
     <g id="line2d_30">
      <path clip-path="url(#p8e3ba6c05f)" d="M 996.218182 567 
L 996.218182 77.76 
" style="fill:none;stroke:#ffffff;stroke-linecap:round;"/>
     </g>
     <g id="text_30">
      <!-- latest -->
      <g style="fill:#262626;" transform="translate(980.758026 584.858281)scale(0.11 -0.11)">
       <defs>
        <path d="M 603 4863 
L 1178 4863 
L 1178 0 
L 603 0 
L 603 4863 
z
" id="DejaVuSans-6c" transform="scale(0.015625)"/>
        <path d="M 2194 1759 
Q 1497 1759 1228 1600 
Q 959 1441 959 1056 
Q 959 750 1161 570 
Q 1363 391 1709 391 
Q 2188 391 2477 730 
Q 2766 1069 2766 1631 
L 2766 1759 
L 2194 1759 
z
M 3341 1997 
L 3341 0 
L 2766 0 
L 2766 531 
Q 2569 213 2275 61 
Q 1981 -91 1556 -91 
Q 1019 -91 701 211 
Q 384 513 384 1019 
Q 384 1609 779 1909 
Q 1175 2209 1959 2209 
L 2766 2209 
L 2766 2266 
Q 2766 2663 2505 2880 
Q 2244 3097 1772 3097 
Q 1472 3097 1187 3025 
Q 903 2953 641 2809 
L 641 3341 
Q 956 3463 1253 3523 
Q 1550 3584 1831 3584 
Q 2591 3584 2966 3190 
Q 3341 2797 3341 1997 
z
" id="DejaVuSans-61" transform="scale(0.015625)"/>
        <path d="M 1172 4494 
L 1172 3500 
L 2356 3500 
L 2356 3053 
L 1172 3053 
L 1172 1153 
Q 1172 725 1289 603 
Q 1406 481 1766 481 
L 2356 481 
L 2356 0 
L 1766 0 
Q 1100 0 847 248 
Q 594 497 594 1153 
L 594 3053 
L 172 3053 
L 172 3500 
L 594 3500 
L 594 4494 
L 1172 4494 
z
" id="DejaVuSans-74" transform="scale(0.015625)"/>
        <path d="M 3597 1894 
L 3597 1613 
L 953 1613 
Q 991 1019 1311 708 
Q 1631 397 2203 397 
Q 2534 397 2845 478 
Q 3156 559 3463 722 
L 3463 178 
Q 3153 47 2828 -22 
Q 2503 -91 2169 -91 
Q 1331 -91 842 396 
Q 353 884 353 1716 
Q 353 2575 817 3079 
Q 1281 3584 2069 3584 
Q 2775 3584 3186 3129 
Q 3597 2675 3597 1894 
z
M 3022 2063 
Q 3016 2534 2758 2815 
Q 2500 3097 2075 3097 
Q 1594 3097 1305 2825 
Q 1016 2553 972 2059 
L 3022 2063 
z
" id="DejaVuSans-65" transform="scale(0.015625)"/>
        <path d="M 2834 3397 
L 2834 2853 
Q 2591 2978 2328 3040 
Q 2066 3103 1784 3103 
Q 1356 3103 1142 2972 
Q 928 2841 928 2578 
Q 928 2378 1081 2264 
Q 1234 2150 1697 2047 
L 1894 2003 
Q 2506 1872 2764 1633 
Q 3022 1394 3022 966 
Q 3022 478 2636 193 
Q 2250 -91 1575 -91 
Q 1294 -91 989 -36 
Q 684 19 347 128 
L 347 722 
Q 666 556 975 473 
Q 1284 391 1588 391 
Q 1994 391 2212 530 
Q 2431 669 2431 922 
Q 2431 1156 2273 1281 
Q 2116 1406 1581 1522 
L 1381 1569 
Q 847 1681 609 1914 
Q 372 2147 372 2553 
Q 372 3047 722 3315 
Q 1072 3584 1716 3584 
Q 2034 3584 2315 3537 
Q 2597 3491 2834 3397 
z
" id="DejaVuSans-73" transform="scale(0.015625)"/>
       </defs>
       <use xlink:href="#DejaVuSans-6c"/>
       <use x="27.783203" xlink:href="#DejaVuSans-61"/>
       <use x="89.0625" xlink:href="#DejaVuSans-74"/>
       <use x="128.271484" xlink:href="#DejaVuSans-65"/>
       <use x="189.794922" xlink:href="#DejaVuSans-73"/>
       <use x="241.894531" xlink:href="#DejaVuSans-74"/>
      </g>
     </g>
    </g>
    <g id="text_31">
     <!-- layer -->
     <g style="fill:#262626;" transform="translate(575.346563 600.264063)scale(0.12 -0.12)">
      <defs>
       <path d="M 2059 -325 
Q 1816 -950 1584 -1140 
Q 1353 -1331 966 -1331 
L 506 -1331 
L 506 -850 
L 844 -850 
Q 1081 -850 1212 -737 
Q 1344 -625 1503 -206 
L 1606 56 
L 191 3500 
L 800 3500 
L 1894 763 
L 2988 3500 
L 3597 3500 
L 2059 -325 
z
" id="DejaVuSans-79" transform="scale(0.015625)"/>
       <path d="M 2631 2963 
Q 2534 3019 2420 3045 
Q 2306 3072 2169 3072 
Q 1681 3072 1420 2755 
Q 1159 2438 1159 1844 
L 1159 0 
L 581 0 
L 581 3500 
L 1159 3500 
L 1159 2956 
Q 1341 3275 1631 3429 
Q 1922 3584 2338 3584 
Q 2397 3584 2469 3576 
Q 2541 3569 2628 3553 
L 2631 2963 
z
" id="DejaVuSans-72" transform="scale(0.015625)"/>
      </defs>
      <use xlink:href="#DejaVuSans-6c"/>
      <use x="27.783203" xlink:href="#DejaVuSans-61"/>
      <use x="89.0625" xlink:href="#DejaVuSans-79"/>
      <use x="148.242188" xlink:href="#DejaVuSans-65"/>
      <use x="209.765625" xlink:href="#DejaVuSans-72"/>
     </g>
    </g>
   </g>
   <g id="matplotlib.axis_2">
    <g id="ytick_1">
     <g id="line2d_31">
      <path clip-path="url(#p8e3ba6c05f)" d="M 144 522.228801 
L 1036.8 522.228801 
" style="fill:none;stroke:#ffffff;stroke-linecap:round;"/>
     </g>
     <g id="text_32">
      <!-- 2.0 -->
      <g style="fill:#262626;" transform="translate(117.006563 526.407942)scale(0.11 -0.11)">
       <defs>
        <path d="M 684 794 
L 1344 794 
L 1344 0 
L 684 0 
L 684 794 
z
" id="DejaVuSans-2e" transform="scale(0.015625)"/>
       </defs>
       <use xlink:href="#DejaVuSans-32"/>
       <use x="63.623047" xlink:href="#DejaVuSans-2e"/>
       <use x="95.410156" xlink:href="#DejaVuSans-30"/>
      </g>
     </g>
    </g>
    <g id="ytick_2">
     <g id="line2d_32">
      <path clip-path="url(#p8e3ba6c05f)" d="M 144 446.257675 
L 1036.8 446.257675 
" style="fill:none;stroke:#ffffff;stroke-linecap:round;"/>
     </g>
     <g id="text_33">
      <!-- 2.5 -->
      <g style="fill:#262626;" transform="translate(117.006563 450.436816)scale(0.11 -0.11)">
       <use xlink:href="#DejaVuSans-32"/>
       <use x="63.623047" xlink:href="#DejaVuSans-2e"/>
       <use x="95.410156" xlink:href="#DejaVuSans-35"/>
      </g>
     </g>
    </g>
    <g id="ytick_3">
     <g id="line2d_33">
      <path clip-path="url(#p8e3ba6c05f)" d="M 144 370.286549 
L 1036.8 370.286549 
" style="fill:none;stroke:#ffffff;stroke-linecap:round;"/>
     </g>
     <g id="text_34">
      <!-- 3.0 -->
      <g style="fill:#262626;" transform="translate(117.006563 374.46569)scale(0.11 -0.11)">
       <use xlink:href="#DejaVuSans-33"/>
       <use x="63.623047" xlink:href="#DejaVuSans-2e"/>
       <use x="95.410156" xlink:href="#DejaVuSans-30"/>
      </g>
     </g>
    </g>
    <g id="ytick_4">
     <g id="line2d_34">
      <path clip-path="url(#p8e3ba6c05f)" d="M 144 294.315423 
L 1036.8 294.315423 
" style="fill:none;stroke:#ffffff;stroke-linecap:round;"/>
     </g>
     <g id="text_35">
      <!-- 3.5 -->
      <g style="fill:#262626;" transform="translate(117.006563 298.494564)scale(0.11 -0.11)">
       <use xlink:href="#DejaVuSans-33"/>
       <use x="63.623047" xlink:href="#DejaVuSans-2e"/>
       <use x="95.410156" xlink:href="#DejaVuSans-35"/>
      </g>
     </g>
    </g>
    <g id="ytick_5">
     <g id="line2d_35">
      <path clip-path="url(#p8e3ba6c05f)" d="M 144 218.344297 
L 1036.8 218.344297 
" style="fill:none;stroke:#ffffff;stroke-linecap:round;"/>
     </g>
     <g id="text_36">
      <!-- 4.0 -->
      <g style="fill:#262626;" transform="translate(117.006563 222.523438)scale(0.11 -0.11)">
       <use xlink:href="#DejaVuSans-34"/>
       <use x="63.623047" xlink:href="#DejaVuSans-2e"/>
       <use x="95.410156" xlink:href="#DejaVuSans-30"/>
      </g>
     </g>
    </g>
    <g id="ytick_6">
     <g id="line2d_36">
      <path clip-path="url(#p8e3ba6c05f)" d="M 144 142.373171 
L 1036.8 142.373171 
" style="fill:none;stroke:#ffffff;stroke-linecap:round;"/>
     </g>
     <g id="text_37">
      <!-- 4.5 -->
      <g style="fill:#262626;" transform="translate(117.006563 146.552312)scale(0.11 -0.11)">
       <use xlink:href="#DejaVuSans-34"/>
       <use x="63.623047" xlink:href="#DejaVuSans-2e"/>
       <use x="95.410156" xlink:href="#DejaVuSans-35"/>
      </g>
     </g>
    </g>
    <g id="text_38">
     <!-- conditioning -->
     <g style="fill:#262626;" transform="translate(110.510937 359.4)rotate(-90)scale(0.12 -0.12)">
      <defs>
       <path d="M 3122 3366 
L 3122 2828 
Q 2878 2963 2633 3030 
Q 2388 3097 2138 3097 
Q 1578 3097 1268 2742 
Q 959 2388 959 1747 
Q 959 1106 1268 751 
Q 1578 397 2138 397 
Q 2388 397 2633 464 
Q 2878 531 3122 666 
L 3122 134 
Q 2881 22 2623 -34 
Q 2366 -91 2075 -91 
Q 1284 -91 818 406 
Q 353 903 353 1747 
Q 353 2603 823 3093 
Q 1294 3584 2113 3584 
Q 2378 3584 2631 3529 
Q 2884 3475 3122 3366 
z
" id="DejaVuSans-63" transform="scale(0.015625)"/>
       <path d="M 1959 3097 
Q 1497 3097 1228 2736 
Q 959 2375 959 1747 
Q 959 1119 1226 758 
Q 1494 397 1959 397 
Q 2419 397 2687 759 
Q 2956 1122 2956 1747 
Q 2956 2369 2687 2733 
Q 2419 3097 1959 3097 
z
M 1959 3584 
Q 2709 3584 3137 3096 
Q 3566 2609 3566 1747 
Q 3566 888 3137 398 
Q 2709 -91 1959 -91 
Q 1206 -91 779 398 
Q 353 888 353 1747 
Q 353 2609 779 3096 
Q 1206 3584 1959 3584 
z
" id="DejaVuSans-6f" transform="scale(0.015625)"/>
       <path d="M 3513 2113 
L 3513 0 
L 2938 0 
L 2938 2094 
Q 2938 2591 2744 2837 
Q 2550 3084 2163 3084 
Q 1697 3084 1428 2787 
Q 1159 2491 1159 1978 
L 1159 0 
L 581 0 
L 581 3500 
L 1159 3500 
L 1159 2956 
Q 1366 3272 1645 3428 
Q 1925 3584 2291 3584 
Q 2894 3584 3203 3211 
Q 3513 2838 3513 2113 
z
" id="DejaVuSans-6e" transform="scale(0.015625)"/>
       <path d="M 2906 2969 
L 2906 4863 
L 3481 4863 
L 3481 0 
L 2906 0 
L 2906 525 
Q 2725 213 2448 61 
Q 2172 -91 1784 -91 
Q 1150 -91 751 415 
Q 353 922 353 1747 
Q 353 2572 751 3078 
Q 1150 3584 1784 3584 
Q 2172 3584 2448 3432 
Q 2725 3281 2906 2969 
z
M 947 1747 
Q 947 1113 1208 752 
Q 1469 391 1925 391 
Q 2381 391 2643 752 
Q 2906 1113 2906 1747 
Q 2906 2381 2643 2742 
Q 2381 3103 1925 3103 
Q 1469 3103 1208 2742 
Q 947 2381 947 1747 
z
" id="DejaVuSans-64" transform="scale(0.015625)"/>
       <path d="M 603 3500 
L 1178 3500 
L 1178 0 
L 603 0 
L 603 3500 
z
M 603 4863 
L 1178 4863 
L 1178 4134 
L 603 4134 
L 603 4863 
z
" id="DejaVuSans-69" transform="scale(0.015625)"/>
       <path d="M 2906 1791 
Q 2906 2416 2648 2759 
Q 2391 3103 1925 3103 
Q 1463 3103 1205 2759 
Q 947 2416 947 1791 
Q 947 1169 1205 825 
Q 1463 481 1925 481 
Q 2391 481 2648 825 
Q 2906 1169 2906 1791 
z
M 3481 434 
Q 3481 -459 3084 -895 
Q 2688 -1331 1869 -1331 
Q 1566 -1331 1297 -1286 
Q 1028 -1241 775 -1147 
L 775 -588 
Q 1028 -725 1275 -790 
Q 1522 -856 1778 -856 
Q 2344 -856 2625 -561 
Q 2906 -266 2906 331 
L 2906 616 
Q 2728 306 2450 153 
Q 2172 0 1784 0 
Q 1141 0 747 490 
Q 353 981 353 1791 
Q 353 2603 747 3093 
Q 1141 3584 1784 3584 
Q 2172 3584 2450 3431 
Q 2728 3278 2906 2969 
L 2906 3500 
L 3481 3500 
L 3481 434 
z
" id="DejaVuSans-67" transform="scale(0.015625)"/>
      </defs>
      <use xlink:href="#DejaVuSans-63"/>
      <use x="54.980469" xlink:href="#DejaVuSans-6f"/>
      <use x="116.162109" xlink:href="#DejaVuSans-6e"/>
      <use x="179.541016" xlink:href="#DejaVuSans-64"/>
      <use x="243.017578" xlink:href="#DejaVuSans-69"/>
      <use x="270.800781" xlink:href="#DejaVuSans-74"/>
      <use x="310.009766" xlink:href="#DejaVuSans-69"/>
      <use x="337.792969" xlink:href="#DejaVuSans-6f"/>
      <use x="398.974609" xlink:href="#DejaVuSans-6e"/>
      <use x="462.353516" xlink:href="#DejaVuSans-69"/>
      <use x="490.136719" xlink:href="#DejaVuSans-6e"/>
      <use x="553.515625" xlink:href="#DejaVuSans-67"/>
     </g>
    </g>
   </g>
   <g id="PolyCollection_1">
    <defs>
     <path d="M 184.581818 -548.001818 
L 184.581818 -532.226457 
L 212.569279 -506.19146 
L 240.55674 -499.185479 
L 268.544201 -489.262049 
L 296.531661 -468.788595 
L 324.519122 -451.427923 
L 352.506583 -439.808926 
L 380.494044 -426.256562 
L 408.481505 -418.308729 
L 436.468966 -402.422967 
L 464.456426 -384.209091 
L 492.443887 -371.044578 
L 520.431348 -360.053779 
L 548.418809 -343.884179 
L 576.40627 -328.855445 
L 604.39373 -301.814352 
L 632.381191 -294.12136 
L 660.368652 -274.737297 
L 688.356113 -264.411494 
L 716.343574 -250.737085 
L 744.331034 -252.645229 
L 772.318495 -236.482516 
L 800.305956 -229.719281 
L 828.293417 -221.062011 
L 856.280878 -207.194506 
L 884.268339 -202.07627 
L 912.255799 -199.797384 
L 940.24326 -197.048073 
L 968.230721 -191.886253 
L 996.218182 -183.298754 
L 996.218182 -204.693992 
L 996.218182 -204.693992 
L 968.230721 -210.932671 
L 940.24326 -216.836859 
L 912.255799 -210.713482 
L 884.268339 -227.721604 
L 856.280878 -235.564933 
L 828.293417 -241.755531 
L 800.305956 -243.867055 
L 772.318495 -259.570969 
L 744.331034 -265.581191 
L 716.343574 -281.140364 
L 688.356113 -294.964212 
L 660.368652 -307.92955 
L 632.381191 -306.731805 
L 604.39373 -321.681432 
L 576.40627 -332.573112 
L 548.418809 -348.943187 
L 520.431348 -369.76238 
L 492.443887 -381.919762 
L 464.456426 -399.552426 
L 436.468966 -419.831533 
L 408.481505 -431.937468 
L 380.494044 -439.7818 
L 352.506583 -460.283084 
L 324.519122 -481.310939 
L 296.531661 -497.532085 
L 268.544201 -516.069727 
L 240.55674 -520.762878 
L 212.569279 -530.249262 
L 184.581818 -548.001818 
z
" id="m1ba5693dc8" style="stroke:#023eff;stroke-opacity:0.2;"/>
    </defs>
    <g clip-path="url(#p8e3ba6c05f)">
     <use style="fill:#023eff;fill-opacity:0.2;stroke:#023eff;stroke-opacity:0.2;" x="0" xlink:href="#m1ba5693dc8" y="648"/>
    </g>
   </g>
   <g id="PolyCollection_2">
    <defs>
     <path d="M 184.581818 -547.869381 
L 184.581818 -531.930995 
L 212.569279 -504.022159 
L 240.55674 -497.388984 
L 268.544201 -486.908708 
L 296.531661 -466.152101 
L 324.519122 -449.108248 
L 352.506583 -437.88886 
L 380.494044 -424.744112 
L 408.481505 -418.884621 
L 436.468966 -402.375735 
L 464.456426 -384.145649 
L 492.443887 -370.36405 
L 520.431348 -359.898865 
L 548.418809 -344.551964 
L 576.40627 -329.580935 
L 604.39373 -302.269998 
L 632.381191 -293.53524 
L 660.368652 -274.669591 
L 688.356113 -263.66326 
L 716.343574 -251.423399 
L 744.331034 -251.352635 
L 772.318495 -234.263742 
L 800.305956 -230.267009 
L 828.293417 -220.878703 
L 856.280878 -208.627169 
L 884.268339 -203.76804 
L 912.255799 -199.425471 
L 940.24326 -198.524125 
L 968.230721 -191.685391 
L 996.218182 -183.54308 
L 996.218182 -204.63131 
L 996.218182 -204.63131 
L 968.230721 -211.597578 
L 940.24326 -217.406854 
L 912.255799 -216.982505 
L 884.268339 -229.154348 
L 856.280878 -235.569102 
L 828.293417 -242.858288 
L 800.305956 -246.050535 
L 772.318495 -261.873349 
L 744.331034 -267.65333 
L 716.343574 -282.303655 
L 688.356113 -292.885485 
L 660.368652 -305.887999 
L 632.381191 -302.965662 
L 604.39373 -320.821412 
L 576.40627 -332.60426 
L 548.418809 -346.6929 
L 520.431348 -367.05809 
L 492.443887 -379.941921 
L 464.456426 -400.849281 
L 436.468966 -420.551357 
L 408.481505 -431.504533 
L 380.494044 -439.597209 
L 352.506583 -462.190173 
L 324.519122 -484.038447 
L 296.531661 -499.534825 
L 268.544201 -517.880357 
L 240.55674 -522.331161 
L 212.569279 -530.413 
L 184.581818 -547.869381 
z
" id="me6d8a28ad8" style="stroke:#023eff;stroke-opacity:0.2;"/>
    </defs>
    <g clip-path="url(#p8e3ba6c05f)">
     <use style="fill:#023eff;fill-opacity:0.2;stroke:#023eff;stroke-opacity:0.2;" x="0" xlink:href="#me6d8a28ad8" y="648"/>
    </g>
   </g>
   <g id="PolyCollection_3">
    <defs>
     <path d="M 184.581818 -540.368142 
L 184.581818 -531.419468 
L 212.569279 -511.10096 
L 240.55674 -493.395019 
L 268.544201 -475.421232 
L 296.531661 -459.616431 
L 324.519122 -443.947221 
L 352.506583 -430.918775 
L 380.494044 -414.475029 
L 408.481505 -399.501981 
L 436.468966 -381.339896 
L 464.456426 -363.116636 
L 492.443887 -346.723932 
L 520.431348 -333.860492 
L 548.418809 -318.841906 
L 576.40627 -305.281156 
L 604.39373 -291.259933 
L 632.381191 -276.905581 
L 660.368652 -264.55344 
L 688.356113 -244.844235 
L 716.343574 -230.464487 
L 744.331034 -222.066969 
L 772.318495 -216.559716 
L 800.305956 -198.345583 
L 828.293417 -189.388577 
L 856.280878 -185.930976 
L 884.268339 -175.122546 
L 912.255799 -165.87953 
L 940.24326 -157.745267 
L 968.230721 -142.388742 
L 996.218182 -133.770091 
L 996.218182 -160.896496 
L 996.218182 -160.896496 
L 968.230721 -172.348181 
L 940.24326 -179.121255 
L 912.255799 -185.942231 
L 884.268339 -192.016083 
L 856.280878 -195.568887 
L 828.293417 -212.220748 
L 800.305956 -221.565855 
L 772.318495 -229.009601 
L 744.331034 -242.421812 
L 716.343574 -255.009691 
L 688.356113 -268.683931 
L 660.368652 -276.988883 
L 632.381191 -290.760055 
L 604.39373 -306.242882 
L 576.40627 -322.763422 
L 548.418809 -341.261847 
L 520.431348 -357.234126 
L 492.443887 -372.836845 
L 464.456426 -384.164936 
L 436.468966 -400.366065 
L 408.481505 -416.70966 
L 380.494044 -430.412505 
L 352.506583 -444.00971 
L 324.519122 -462.424124 
L 296.531661 -480.040015 
L 268.544201 -498.609916 
L 240.55674 -515.004188 
L 212.569279 -528.585041 
L 184.581818 -540.368142 
z
" id="m37aa8e9ab0" style="stroke:#ff7c00;stroke-opacity:0.2;"/>
    </defs>
    <g clip-path="url(#p8e3ba6c05f)">
     <use style="fill:#ff7c00;fill-opacity:0.2;stroke:#ff7c00;stroke-opacity:0.2;" x="0" xlink:href="#m37aa8e9ab0" y="648"/>
    </g>
   </g>
   <g id="PolyCollection_4">
    <defs>
     <path d="M 184.581818 -540.207143 
L 184.581818 -530.878139 
L 212.569279 -510.780185 
L 240.55674 -493.380519 
L 268.544201 -474.581562 
L 296.531661 -459.152588 
L 324.519122 -442.404135 
L 352.506583 -429.887034 
L 380.494044 -413.377196 
L 408.481505 -398.256089 
L 436.468966 -380.355098 
L 464.456426 -362.230569 
L 492.443887 -346.55686 
L 520.431348 -334.208307 
L 548.418809 -318.379683 
L 576.40627 -304.646777 
L 604.39373 -291.264726 
L 632.381191 -277.051997 
L 660.368652 -264.864614 
L 688.356113 -244.523557 
L 716.343574 -230.628521 
L 744.331034 -222.118702 
L 772.318495 -216.957269 
L 800.305956 -198.285446 
L 828.293417 -189.27527 
L 856.280878 -185.439025 
L 884.268339 -174.936536 
L 912.255799 -166.13325 
L 940.24326 -157.702025 
L 968.230721 -142.114641 
L 996.218182 -141.346131 
L 996.218182 -161.129446 
L 996.218182 -161.129446 
L 968.230721 -173.763259 
L 940.24326 -180.099684 
L 912.255799 -187.372685 
L 884.268339 -192.505044 
L 856.280878 -197.571709 
L 828.293417 -215.369487 
L 800.305956 -223.658994 
L 772.318495 -229.651393 
L 744.331034 -243.884879 
L 716.343574 -256.740823 
L 688.356113 -270.81809 
L 660.368652 -278.864354 
L 632.381191 -292.489199 
L 604.39373 -307.205974 
L 576.40627 -324.611248 
L 548.418809 -340.748289 
L 520.431348 -357.411707 
L 492.443887 -373.012894 
L 464.456426 -383.656002 
L 436.468966 -399.765733 
L 408.481505 -415.996646 
L 380.494044 -431.007278 
L 352.506583 -443.989466 
L 324.519122 -462.51504 
L 296.531661 -480.685137 
L 268.544201 -499.161113 
L 240.55674 -515.008766 
L 212.569279 -528.272045 
L 184.581818 -540.207143 
z
" id="m1df38cab2b" style="stroke:#ff7c00;stroke-opacity:0.2;"/>
    </defs>
    <g clip-path="url(#p8e3ba6c05f)">
     <use style="fill:#ff7c00;fill-opacity:0.2;stroke:#ff7c00;stroke-opacity:0.2;" x="0" xlink:href="#m1df38cab2b" y="648"/>
    </g>
   </g>
   <g id="PolyCollection_5">
    <defs>
     <path d="M 184.581818 -531.534845 
L 184.581818 -529.508609 
L 212.569279 -508.739781 
L 240.55674 -487.614869 
L 268.544201 -467.638098 
L 296.531661 -448.889979 
L 324.519122 -432.470729 
L 352.506583 -411.469492 
L 380.494044 -391.748895 
L 408.481505 -376.816622 
L 436.468966 -355.796452 
L 464.456426 -336.85882 
L 492.443887 -321.397697 
L 520.431348 -302.889463 
L 548.418809 -292.206667 
L 576.40627 -275.621746 
L 604.39373 -260.688403 
L 632.381191 -245.875483 
L 660.368652 -229.39232 
L 688.356113 -217.042059 
L 716.343574 -199.609608 
L 744.331034 -190.450727 
L 772.318495 -181.659259 
L 800.305956 -169.651301 
L 828.293417 -153.420562 
L 856.280878 -145.967141 
L 884.268339 -136.248721 
L 912.255799 -128.677861 
L 940.24326 -116.964624 
L 968.230721 -109.238809 
L 996.218182 -103.618735 
L 996.218182 -109.778227 
L 996.218182 -109.778227 
L 968.230721 -118.322445 
L 940.24326 -126.485989 
L 912.255799 -136.068703 
L 884.268339 -143.664829 
L 856.280878 -155.416443 
L 828.293417 -161.335775 
L 800.305956 -174.78444 
L 772.318495 -186.350509 
L 744.331034 -199.520685 
L 716.343574 -211.206894 
L 688.356113 -224.096646 
L 660.368652 -240.824858 
L 632.381191 -254.504648 
L 604.39373 -266.432695 
L 576.40627 -283.43289 
L 548.418809 -300.83164 
L 520.431348 -316.519729 
L 492.443887 -329.684079 
L 464.456426 -348.303702 
L 436.468966 -366.1992 
L 408.481505 -380.586197 
L 380.494044 -395.915693 
L 352.506583 -416.319396 
L 324.519122 -435.338657 
L 296.531661 -455.044615 
L 268.544201 -474.251242 
L 240.55674 -490.717577 
L 212.569279 -510.815078 
L 184.581818 -531.534845 
z
" id="m349f8b6e5d" style="stroke:#1ac938;stroke-opacity:0.2;"/>
    </defs>
    <g clip-path="url(#p8e3ba6c05f)">
     <use style="fill:#1ac938;fill-opacity:0.2;stroke:#1ac938;stroke-opacity:0.2;" x="0" xlink:href="#m349f8b6e5d" y="648"/>
    </g>
   </g>
   <g id="PolyCollection_6">
    <defs>
     <path d="M 184.581818 -531.439717 
L 184.581818 -528.96626 
L 212.569279 -508.6471 
L 240.55674 -487.111076 
L 268.544201 -468.751131 
L 296.531661 -448.013484 
L 324.519122 -432.525491 
L 352.506583 -410.549936 
L 380.494044 -391.454024 
L 408.481505 -375.673015 
L 436.468966 -354.188682 
L 464.456426 -335.230315 
L 492.443887 -320.15588 
L 520.431348 -301.640594 
L 548.418809 -291.548645 
L 576.40627 -276.499602 
L 604.39373 -260.750132 
L 632.381191 -245.684153 
L 660.368652 -230.500573 
L 688.356113 -216.828302 
L 716.343574 -198.868778 
L 744.331034 -190.692981 
L 772.318495 -181.564113 
L 800.305956 -170.052621 
L 828.293417 -152.565149 
L 856.280878 -145.67168 
L 884.268339 -136.448265 
L 912.255799 -128.54014 
L 940.24326 -116.563483 
L 968.230721 -108.577895 
L 996.218182 -103.238182 
L 996.218182 -109.897638 
L 996.218182 -109.897638 
L 968.230721 -117.942495 
L 940.24326 -126.46817 
L 912.255799 -135.594575 
L 884.268339 -142.968339 
L 856.280878 -154.788477 
L 828.293417 -160.566163 
L 800.305956 -174.538923 
L 772.318495 -184.145395 
L 744.331034 -197.601918 
L 716.343574 -210.518198 
L 688.356113 -223.583995 
L 660.368652 -241.135391 
L 632.381191 -254.060353 
L 604.39373 -266.176877 
L 576.40627 -283.681901 
L 548.418809 -299.339518 
L 520.431348 -316.937914 
L 492.443887 -329.658834 
L 464.456426 -348.103213 
L 436.468966 -367.566372 
L 408.481505 -380.676216 
L 380.494044 -396.571983 
L 352.506583 -416.532195 
L 324.519122 -434.350461 
L 296.531661 -453.760288 
L 268.544201 -474.245545 
L 240.55674 -490.389983 
L 212.569279 -510.860965 
L 184.581818 -531.439717 
z
" id="m1a012ef465" style="stroke:#1ac938;stroke-opacity:0.2;"/>
    </defs>
    <g clip-path="url(#p8e3ba6c05f)">
     <use style="fill:#1ac938;fill-opacity:0.2;stroke:#1ac938;stroke-opacity:0.2;" x="0" xlink:href="#m1a012ef465" y="648"/>
    </g>
   </g>
   <g id="line2d_37">
    <path clip-path="url(#p8e3ba6c05f)" d="M 184.581818 107.888115 
L 212.569279 128.985713 
L 240.55674 138.530888 
L 268.544201 148.864272 
L 296.531661 169.567535 
L 324.519122 185.148783 
L 352.506583 198.609367 
L 380.494044 213.088383 
L 408.481505 221.111405 
L 436.468966 234.485332 
L 464.456426 254.187883 
L 492.443887 270.529689 
L 520.431348 284.42687 
L 548.418809 301.9284 
L 576.40627 317.056265 
L 604.39373 333.80913 
L 632.381191 347.710991 
L 660.368652 355.724543 
L 688.356113 367.373818 
L 716.343574 378.698678 
L 744.331034 388.179225 
L 772.318495 400.079575 
L 800.305956 410.046614 
L 828.293417 418.173084 
L 856.280878 427.669406 
L 884.268339 434.927213 
L 912.255799 442.544185 
L 940.24326 441.892363 
L 968.230721 448.922798 
L 996.218182 453.564455 
" style="fill:none;stroke:#023eff;stroke-linecap:round;stroke-width:1.5;"/>
   </g>
   <g id="line2d_38">
    <path clip-path="url(#p8e3ba6c05f)" d="M 184.581818 107.877892 
L 212.569279 130.280804 
L 240.55674 139.169263 
L 268.544201 149.474165 
L 296.531661 170.102708 
L 324.519122 185.709348 
L 352.506583 198.883433 
L 380.494044 213.880282 
L 408.481505 220.926767 
L 436.468966 233.810476 
L 464.456426 253.659714 
L 492.443887 271.580516 
L 520.431348 285.216321 
L 548.418809 302.564335 
L 576.40627 316.897821 
L 604.39373 333.989599 
L 632.381191 348.305247 
L 660.368652 355.086195 
L 688.356113 367.613256 
L 716.343574 378.908252 
L 744.331034 388.829886 
L 772.318495 400.002394 
L 800.305956 408.756333 
L 828.293417 417.799121 
L 856.280878 427.302193 
L 884.268339 433.988535 
L 912.255799 441.973103 
L 940.24326 441.684417 
L 968.230721 448.437704 
L 996.218182 453.863907 
" style="fill:none;stroke:#023eff;stroke-dasharray:6,2.25;stroke-dashoffset:0;stroke-width:1.5;"/>
   </g>
   <g id="line2d_39">
    <path clip-path="url(#p8e3ba6c05f)" d="M 184.581818 111.237744 
L 212.569279 127.612009 
L 240.55674 141.469971 
L 268.544201 161.338564 
L 296.531661 178.325951 
L 324.519122 192.591092 
L 352.506583 208.695046 
L 380.494044 226.181039 
L 408.481505 240.28982 
L 436.468966 259.451932 
L 464.456426 273.130141 
L 492.443887 287.958434 
L 520.431348 303.010473 
L 548.418809 318.470352 
L 576.40627 331.238386 
L 604.39373 346.791827 
L 632.381191 363.11039 
L 660.368652 375.536837 
L 688.356113 389.904377 
L 716.343574 404.237656 
L 744.331034 416.942408 
L 772.318495 425.891198 
L 800.305956 437.997566 
L 828.293417 447.669982 
L 856.280878 455.909279 
L 884.268339 464.264168 
L 912.255799 471.399588 
L 940.24326 478.719081 
L 968.230721 488.619034 
L 996.218182 498.694087 
" style="fill:none;stroke:#ff7c00;stroke-linecap:round;stroke-width:1.5;"/>
   </g>
   <g id="line2d_40">
    <path clip-path="url(#p8e3ba6c05f)" d="M 184.581818 111.336618 
L 212.569279 127.654987 
L 240.55674 141.586552 
L 268.544201 161.500673 
L 296.531661 178.253108 
L 324.519122 192.989214 
L 352.506583 208.85039 
L 380.494044 225.777882 
L 408.481505 240.390898 
L 436.468966 259.264767 
L 464.456426 272.903951 
L 492.443887 287.240147 
L 520.431348 301.871456 
L 548.418809 318.266631 
L 576.40627 330.423071 
L 604.39373 346.19134 
L 632.381191 362.801814 
L 660.368652 374.687937 
L 688.356113 389.276017 
L 716.343574 403.52274 
L 744.331034 416.423169 
L 772.318495 425.1379 
L 800.305956 437.248094 
L 828.293417 446.551236 
L 856.280878 455.074318 
L 884.268339 463.558812 
L 912.255799 470.451392 
L 940.24326 478.083884 
L 968.230721 487.654597 
L 996.218182 497.921353 
" style="fill:none;stroke:#ff7c00;stroke-dasharray:6,2.25;stroke-dashoffset:0;stroke-width:1.5;"/>
   </g>
   <g id="line2d_41">
    <path clip-path="url(#p8e3ba6c05f)" d="M 184.581818 117.478326 
L 212.569279 137.889875 
L 240.55674 158.466131 
L 268.544201 176.035446 
L 296.531661 195.811054 
L 324.519122 214.319138 
L 352.506583 234.562027 
L 380.494044 254.360343 
L 408.481505 268.877804 
L 436.468966 285.590712 
L 464.456426 303.861896 
L 492.443887 321.774994 
L 520.431348 338.183432 
L 548.418809 351.949085 
L 576.40627 368.311007 
L 604.39373 383.686805 
L 632.381191 397.116898 
L 660.368652 412.091814 
L 688.356113 426.952719 
L 716.343574 440.690367 
L 744.331034 452.309109 
L 772.318495 464.192829 
L 800.305956 475.174199 
L 828.293417 490.250807 
L 856.280878 498.802201 
L 884.268339 509.034347 
L 912.255799 516.839086 
L 940.24326 526.881434 
L 968.230721 534.470591 
L 996.218182 541.076318 
" style="fill:none;stroke:#1ac938;stroke-linecap:round;stroke-width:1.5;"/>
   </g>
   <g id="line2d_42">
    <path clip-path="url(#p8e3ba6c05f)" d="M 184.581818 117.651886 
L 212.569279 138.012873 
L 240.55674 158.830939 
L 268.544201 176.69479 
L 296.531661 196.532338 
L 324.519122 214.647643 
L 352.506583 235.250107 
L 380.494044 254.712856 
L 408.481505 269.144933 
L 436.468966 285.917745 
L 464.456426 304.24785 
L 492.443887 322.074355 
L 520.431348 338.310557 
L 548.418809 351.774404 
L 576.40627 368.369105 
L 604.39373 384.189045 
L 632.381191 397.907272 
L 660.368652 412.312553 
L 688.356113 427.664081 
L 716.343574 441.555541 
L 744.331034 453.122389 
L 772.318495 465.243172 
L 800.305956 475.601225 
L 828.293417 490.946677 
L 856.280878 499.169536 
L 884.268339 509.313556 
L 912.255799 517.072104 
L 940.24326 526.999875 
L 968.230721 534.883862 
L 996.218182 541.196469 
" style="fill:none;stroke:#1ac938;stroke-dasharray:6,2.25;stroke-dashoffset:0;stroke-width:1.5;"/>
   </g>
   <g id="line2d_43"/>
   <g id="line2d_44"/>
   <g id="line2d_45"/>
   <g id="line2d_46"/>
   <g id="line2d_47"/>
   <g id="patch_3">
    <path d="M 144 567 
L 144 77.76 
" style="fill:none;stroke:#ffffff;stroke-linecap:square;stroke-linejoin:miter;stroke-width:1.25;"/>
   </g>
   <g id="patch_4">
    <path d="M 1036.8 567 
L 1036.8 77.76 
" style="fill:none;stroke:#ffffff;stroke-linecap:square;stroke-linejoin:miter;stroke-width:1.25;"/>
   </g>
   <g id="patch_5">
    <path d="M 144 567 
L 1036.8 567 
" style="fill:none;stroke:#ffffff;stroke-linecap:square;stroke-linejoin:miter;stroke-width:1.25;"/>
   </g>
   <g id="patch_6">
    <path d="M 144 77.76 
L 1036.8 77.76 
" style="fill:none;stroke:#ffffff;stroke-linecap:square;stroke-linejoin:miter;stroke-width:1.25;"/>
   </g>
   <g id="legend_1">
    <g id="patch_7">
     <path d="M 944.790625 201.517187 
L 1029.1 201.517187 
Q 1031.3 201.517187 1031.3 199.317187 
L 1031.3 85.46 
Q 1031.3 83.26 1029.1 83.26 
L 944.790625 83.26 
Q 942.590625 83.26 942.590625 85.46 
L 942.590625 199.317187 
Q 942.590625 201.517187 944.790625 201.517187 
z
" style="fill:#eaeaf2;opacity:0.8;stroke:#cccccc;stroke-linejoin:miter;"/>
    </g>
    <g id="text_39">
     <!-- width -->
     <g style="fill:#262626;" transform="translate(955.790625 96.778125)scale(0.12 -0.12)">
      <defs>
       <path d="M 269 3500 
L 844 3500 
L 1563 769 
L 2278 3500 
L 2956 3500 
L 3675 769 
L 4391 3500 
L 4966 3500 
L 4050 0 
L 3372 0 
L 2619 2869 
L 1863 0 
L 1184 0 
L 269 3500 
z
" id="DejaVuSans-77" transform="scale(0.015625)"/>
       <path d="M 3513 2113 
L 3513 0 
L 2938 0 
L 2938 2094 
Q 2938 2591 2744 2837 
Q 2550 3084 2163 3084 
Q 1697 3084 1428 2787 
Q 1159 2491 1159 1978 
L 1159 0 
L 581 0 
L 581 4863 
L 1159 4863 
L 1159 2956 
Q 1366 3272 1645 3428 
Q 1925 3584 2291 3584 
Q 2894 3584 3203 3211 
Q 3513 2838 3513 2113 
z
" id="DejaVuSans-68" transform="scale(0.015625)"/>
      </defs>
      <use xlink:href="#DejaVuSans-77"/>
      <use x="81.787109" xlink:href="#DejaVuSans-69"/>
      <use x="109.570312" xlink:href="#DejaVuSans-64"/>
      <use x="173.046875" xlink:href="#DejaVuSans-74"/>
      <use x="212.255859" xlink:href="#DejaVuSans-68"/>
     </g>
    </g>
    <g id="line2d_48">
     <path d="M 946.990625 109.282031 
L 968.990625 109.282031 
" style="fill:none;stroke:#023eff;stroke-linecap:round;stroke-width:1.5;"/>
    </g>
    <g id="line2d_49"/>
    <g id="text_40">
     <!-- 1000 -->
     <g style="fill:#262626;" transform="translate(977.790625 113.132031)scale(0.11 -0.11)">
      <use xlink:href="#DejaVuSans-31"/>
      <use x="63.623047" xlink:href="#DejaVuSans-30"/>
      <use x="127.246094" xlink:href="#DejaVuSans-30"/>
      <use x="190.869141" xlink:href="#DejaVuSans-30"/>
     </g>
    </g>
    <g id="line2d_50">
     <path d="M 946.990625 125.427969 
L 968.990625 125.427969 
" style="fill:none;stroke:#ff7c00;stroke-linecap:round;stroke-width:1.5;"/>
    </g>
    <g id="line2d_51"/>
    <g id="text_41">
     <!-- 2000 -->
     <g style="fill:#262626;" transform="translate(977.790625 129.277969)scale(0.11 -0.11)">
      <use xlink:href="#DejaVuSans-32"/>
      <use x="63.623047" xlink:href="#DejaVuSans-30"/>
      <use x="127.246094" xlink:href="#DejaVuSans-30"/>
      <use x="190.869141" xlink:href="#DejaVuSans-30"/>
     </g>
    </g>
    <g id="line2d_52">
     <path d="M 946.990625 141.573906 
L 968.990625 141.573906 
" style="fill:none;stroke:#1ac938;stroke-linecap:round;stroke-width:1.5;"/>
    </g>
    <g id="line2d_53"/>
    <g id="text_42">
     <!-- 5000 -->
     <g style="fill:#262626;" transform="translate(977.790625 145.423906)scale(0.11 -0.11)">
      <use xlink:href="#DejaVuSans-35"/>
      <use x="63.623047" xlink:href="#DejaVuSans-30"/>
      <use x="127.246094" xlink:href="#DejaVuSans-30"/>
      <use x="190.869141" xlink:href="#DejaVuSans-30"/>
     </g>
    </g>
    <g id="text_43">
     <!-- renormalize -->
     <g style="fill:#262626;" transform="translate(955.790625 162.329687)scale(0.12 -0.12)">
      <defs>
       <path d="M 3328 2828 
Q 3544 3216 3844 3400 
Q 4144 3584 4550 3584 
Q 5097 3584 5394 3201 
Q 5691 2819 5691 2113 
L 5691 0 
L 5113 0 
L 5113 2094 
Q 5113 2597 4934 2840 
Q 4756 3084 4391 3084 
Q 3944 3084 3684 2787 
Q 3425 2491 3425 1978 
L 3425 0 
L 2847 0 
L 2847 2094 
Q 2847 2600 2669 2842 
Q 2491 3084 2119 3084 
Q 1678 3084 1418 2786 
Q 1159 2488 1159 1978 
L 1159 0 
L 581 0 
L 581 3500 
L 1159 3500 
L 1159 2956 
Q 1356 3278 1631 3431 
Q 1906 3584 2284 3584 
Q 2666 3584 2933 3390 
Q 3200 3197 3328 2828 
z
" id="DejaVuSans-6d" transform="scale(0.015625)"/>
       <path d="M 353 3500 
L 3084 3500 
L 3084 2975 
L 922 459 
L 3084 459 
L 3084 0 
L 275 0 
L 275 525 
L 2438 3041 
L 353 3041 
L 353 3500 
z
" id="DejaVuSans-7a" transform="scale(0.015625)"/>
      </defs>
      <use xlink:href="#DejaVuSans-72"/>
      <use x="38.863281" xlink:href="#DejaVuSans-65"/>
      <use x="100.386719" xlink:href="#DejaVuSans-6e"/>
      <use x="163.765625" xlink:href="#DejaVuSans-6f"/>
      <use x="224.947266" xlink:href="#DejaVuSans-72"/>
      <use x="264.310547" xlink:href="#DejaVuSans-6d"/>
      <use x="361.722656" xlink:href="#DejaVuSans-61"/>
      <use x="423.001953" xlink:href="#DejaVuSans-6c"/>
      <use x="450.785156" xlink:href="#DejaVuSans-69"/>
      <use x="478.568359" xlink:href="#DejaVuSans-7a"/>
      <use x="531.058594" xlink:href="#DejaVuSans-65"/>
     </g>
    </g>
    <g id="line2d_54">
     <path d="M 946.990625 174.833594 
L 968.990625 174.833594 
" style="fill:none;stroke:#333333;stroke-linecap:round;stroke-width:1.5;"/>
    </g>
    <g id="line2d_55"/>
    <g id="text_44">
     <!-- False -->
     <g style="fill:#262626;" transform="translate(977.790625 178.683594)scale(0.11 -0.11)">
      <defs>
       <path d="M 628 4666 
L 3309 4666 
L 3309 4134 
L 1259 4134 
L 1259 2759 
L 3109 2759 
L 3109 2228 
L 1259 2228 
L 1259 0 
L 628 0 
L 628 4666 
z
" id="DejaVuSans-46" transform="scale(0.015625)"/>
      </defs>
      <use xlink:href="#DejaVuSans-46"/>
      <use x="48.394531" xlink:href="#DejaVuSans-61"/>
      <use x="109.673828" xlink:href="#DejaVuSans-6c"/>
      <use x="137.457031" xlink:href="#DejaVuSans-73"/>
      <use x="189.556641" xlink:href="#DejaVuSans-65"/>
     </g>
    </g>
    <g id="line2d_56">
     <path d="M 946.990625 190.979531 
L 968.990625 190.979531 
" style="fill:none;stroke:#333333;stroke-dasharray:6,2.25;stroke-dashoffset:0;stroke-width:1.5;"/>
    </g>
    <g id="line2d_57"/>
    <g id="text_45">
     <!-- True -->
     <g style="fill:#262626;" transform="translate(977.790625 194.829531)scale(0.11 -0.11)">
      <defs>
       <path d="M -19 4666 
L 3928 4666 
L 3928 4134 
L 2272 4134 
L 2272 0 
L 1638 0 
L 1638 4134 
L -19 4134 
L -19 4666 
z
" id="DejaVuSans-54" transform="scale(0.015625)"/>
       <path d="M 544 1381 
L 544 3500 
L 1119 3500 
L 1119 1403 
Q 1119 906 1312 657 
Q 1506 409 1894 409 
Q 2359 409 2629 706 
Q 2900 1003 2900 1516 
L 2900 3500 
L 3475 3500 
L 3475 0 
L 2900 0 
L 2900 538 
Q 2691 219 2414 64 
Q 2138 -91 1772 -91 
Q 1169 -91 856 284 
Q 544 659 544 1381 
z
M 1991 3584 
L 1991 3584 
z
" id="DejaVuSans-75" transform="scale(0.015625)"/>
      </defs>
      <use xlink:href="#DejaVuSans-54"/>
      <use x="46.333984" xlink:href="#DejaVuSans-72"/>
      <use x="87.447266" xlink:href="#DejaVuSans-75"/>
      <use x="150.826172" xlink:href="#DejaVuSans-65"/>
     </g>
    </g>
   </g>
  </g>
 </g>
 <defs>
  <clipPath id="p8e3ba6c05f">
   <rect height="489.24" width="892.8" x="144" y="77.76"/>
  </clipPath>
 </defs>
</svg>
