epoch,batch,dataset,n_layers,width,examples,batch_size,epochs,lr,seed,train_loss,test_loss,correct,taken_time,network,loss_function,activation,kernel_size,renormalize
0,0,CIFAR10,9,500,100,100,80,0.005,2,,1.221915522813797,0.0981,,FCN,PMSE,Tanh,,False
1,0,CIFAR10,9,500,100,100,80,0.005,2,1.197265625,3.0068949031829835,0.0946,0.01664423942565918,FCN,PMSE,Tanh,,False
2,0,CIFAR10,9,500,100,100,80,0.005,2,2.91804838180542,3.7080955338478088,0.0998,0.006197690963745117,FCN,PMSE,Tanh,,False
3,0,CIFAR10,9,500,100,100,80,0.005,2,3.6399147510528564,3.4602127718925475,0.1061,0.005524396896362305,FCN,PMSE,Tanh,,False
4,0,CIFAR10,9,500,100,100,80,0.005,2,3.5070626735687256,2.809184787273407,0.1005,0.006131172180175781,FCN,PMSE,Tanh,,False
5,0,CIFAR10,9,500,100,100,80,0.005,2,2.806612730026245,1.8157547914981842,0.1002,0.0074846744537353516,FCN,PMSE,Tanh,,False
6,0,CIFAR10,9,500,100,100,80,0.005,2,1.808941125869751,2.0492147314548492,0.1,0.006466865539550781,FCN,PMSE,Tanh,,False
7,0,CIFAR10,9,500,100,100,80,0.005,2,2.0213394165039062,2.7601961207389833,0.0999,0.006500959396362305,FCN,PMSE,Tanh,,False
8,0,CIFAR10,9,500,100,100,80,0.005,2,2.76682186126709,2.0160526394844056,0.1,0.006711244583129883,FCN,PMSE,Tanh,,False
9,0,CIFAR10,9,500,100,100,80,0.005,2,2.0103325843811035,0.9378614395856857,0.1075,0.013239145278930664,FCN,PMSE,Tanh,,False
10,0,CIFAR10,9,500,100,100,80,0.005,2,0.9273113012313843,0.6315894091129303,0.1,0.006699562072753906,FCN,PMSE,Tanh,,False
11,0,CIFAR10,9,500,100,100,80,0.005,2,0.6296318769454956,0.6205385214090348,0.1,0.0059664249420166016,FCN,PMSE,Tanh,,False
12,0,CIFAR10,9,500,100,100,80,0.005,2,0.6165323853492737,0.5381753748655319,0.1026,0.006302595138549805,FCN,PMSE,Tanh,,False
13,0,CIFAR10,9,500,100,100,80,0.005,2,0.5324609875679016,0.39917927742004394,0.1,0.006842136383056641,FCN,PMSE,Tanh,,False
14,0,CIFAR10,9,500,100,100,80,0.005,2,0.39935779571533203,0.25685924977064134,0.097,0.0067882537841796875,FCN,PMSE,Tanh,,False
15,0,CIFAR10,9,500,100,100,80,0.005,2,0.2511451840400696,0.1911625997722149,0.1208,0.005838155746459961,FCN,PMSE,Tanh,,False
16,0,CIFAR10,9,500,100,100,80,0.005,2,0.19294485449790955,0.18885746255517005,0.0995,0.006729602813720703,FCN,PMSE,Tanh,,False
17,0,CIFAR10,9,500,100,100,80,0.005,2,0.18228279054164886,0.19273315370082855,0.1013,0.005700826644897461,FCN,PMSE,Tanh,,False
18,0,CIFAR10,9,500,100,100,80,0.005,2,0.1944306641817093,0.21774441227316857,0.1,0.0058362483978271484,FCN,PMSE,Tanh,,False
19,0,CIFAR10,9,500,100,100,80,0.005,2,0.2104206383228302,0.23268176034092902,0.1131,0.006203413009643555,FCN,PMSE,Tanh,,False
20,0,CIFAR10,9,500,100,100,80,0.005,2,0.2334122359752655,0.23689658254384993,0.0998,0.0054073333740234375,FCN,PMSE,Tanh,,False
21,0,CIFAR10,9,500,100,100,80,0.005,2,0.23014067113399506,0.2358587157726288,0.1028,0.006146907806396484,FCN,PMSE,Tanh,,False
22,0,CIFAR10,9,500,100,100,80,0.005,2,0.2352585792541504,0.21489094629883765,0.0994,0.007825613021850586,FCN,PMSE,Tanh,,False
23,0,CIFAR10,9,500,100,100,80,0.005,2,0.20944565534591675,0.19838418304920197,0.1,0.0057523250579833984,FCN,PMSE,Tanh,,False
24,0,CIFAR10,9,500,100,100,80,0.005,2,0.19662244617938995,0.1741757346689701,0.1085,0.006009578704833984,FCN,PMSE,Tanh,,False
25,0,CIFAR10,9,500,100,100,80,0.005,2,0.16975413262844086,0.15706547915935518,0.1,0.006644248962402344,FCN,PMSE,Tanh,,False
26,0,CIFAR10,9,500,100,100,80,0.005,2,0.15446339547634125,0.14087243348360062,0.1069,0.006845712661743164,FCN,PMSE,Tanh,,False
27,0,CIFAR10,9,500,100,100,80,0.005,2,0.13693833351135254,0.12992947064340116,0.1004,0.006495237350463867,FCN,PMSE,Tanh,,False
28,0,CIFAR10,9,500,100,100,80,0.005,2,0.1267184317111969,0.12082707397639751,0.1063,0.006931304931640625,FCN,PMSE,Tanh,,False
29,0,CIFAR10,9,500,100,100,80,0.005,2,0.11699508875608444,0.11484112337231636,0.1026,0.007881402969360352,FCN,PMSE,Tanh,,False
30,0,CIFAR10,9,500,100,100,80,0.005,2,0.11122800409793854,0.10985736608505249,0.109,0.006081819534301758,FCN,PMSE,Tanh,,False
31,0,CIFAR10,9,500,100,100,80,0.005,2,0.1058720052242279,0.10654597893357277,0.1052,0.0062122344970703125,FCN,PMSE,Tanh,,False
32,0,CIFAR10,9,500,100,100,80,0.005,2,0.10261992365121841,0.10370183505117893,0.1111,0.0061419010162353516,FCN,PMSE,Tanh,,False
33,0,CIFAR10,9,500,100,100,80,0.005,2,0.09945964813232422,0.10170658491551876,0.1069,0.005463361740112305,FCN,PMSE,Tanh,,False
34,0,CIFAR10,9,500,100,100,80,0.005,2,0.09751276671886444,0.10004885599017144,0.1117,0.0056743621826171875,FCN,PMSE,Tanh,,False
35,0,CIFAR10,9,500,100,100,80,0.005,2,0.09551943838596344,0.09869746513664722,0.1087,0.007787466049194336,FCN,PMSE,Tanh,,False
36,0,CIFAR10,9,500,100,100,80,0.005,2,0.09425102919340134,0.09774772711098194,0.1114,0.0063512325286865234,FCN,PMSE,Tanh,,False
37,0,CIFAR10,9,500,100,100,80,0.005,2,0.09291469305753708,0.09667598687112332,0.1109,0.006433725357055664,FCN,PMSE,Tanh,,False
38,0,CIFAR10,9,500,100,100,80,0.005,2,0.09197873622179031,0.09619948521256447,0.1157,0.006734132766723633,FCN,PMSE,Tanh,,False
39,0,CIFAR10,9,500,100,100,80,0.005,2,0.091031514108181,0.09532904677093029,0.113,0.0058863162994384766,FCN,PMSE,Tanh,,False
40,0,CIFAR10,9,500,100,100,80,0.005,2,0.09038607776165009,0.09510292686522007,0.1198,0.006431102752685547,FCN,PMSE,Tanh,,False
41,0,CIFAR10,9,500,100,100,80,0.005,2,0.08964156359434128,0.09430372208356858,0.1153,0.006731510162353516,FCN,PMSE,Tanh,,False
42,0,CIFAR10,9,500,100,100,80,0.005,2,0.08909796923398972,0.0942690496146679,0.1233,0.0057179927825927734,FCN,PMSE,Tanh,,False
43,0,CIFAR10,9,500,100,100,80,0.005,2,0.08853796124458313,0.09354431420564652,0.1167,0.007274150848388672,FCN,PMSE,Tanh,,False
44,0,CIFAR10,9,500,100,100,80,0.005,2,0.0880538821220398,0.09360209785401821,0.1263,0.006570339202880859,FCN,PMSE,Tanh,,False
45,0,CIFAR10,9,500,100,100,80,0.005,2,0.08757651597261429,0.09294885918498039,0.1194,0.0064046382904052734,FCN,PMSE,Tanh,,False
46,0,CIFAR10,9,500,100,100,80,0.005,2,0.08719836920499802,0.09311323493719101,0.1277,0.006866455078125,FCN,PMSE,Tanh,,False
47,0,CIFAR10,9,500,100,100,80,0.005,2,0.08681364357471466,0.09250339545309544,0.1215,0.0062220096588134766,FCN,PMSE,Tanh,,False
48,0,CIFAR10,9,500,100,100,80,0.005,2,0.08648388832807541,0.09273360759019851,0.1297,0.006490468978881836,FCN,PMSE,Tanh,,False
49,0,CIFAR10,9,500,100,100,80,0.005,2,0.086162269115448,0.09215201832354068,0.123,0.006490468978881836,FCN,PMSE,Tanh,,False
50,0,CIFAR10,9,500,100,100,80,0.005,2,0.0858655497431755,0.09241050347685814,0.1338,0.00652003288269043,FCN,PMSE,Tanh,,False
51,0,CIFAR10,9,500,100,100,80,0.005,2,0.08556389063596725,0.09186862275004387,0.1248,0.005631208419799805,FCN,PMSE,Tanh,,False
52,0,CIFAR10,9,500,100,100,80,0.005,2,0.08531373739242554,0.09215349264442921,0.135,0.006436824798583984,FCN,PMSE,Tanh,,False
53,0,CIFAR10,9,500,100,100,80,0.005,2,0.08502952754497528,0.091639768704772,0.1266,0.005527973175048828,FCN,PMSE,Tanh,,False
54,0,CIFAR10,9,500,100,100,80,0.005,2,0.08479589968919754,0.09193371199071407,0.1372,0.0059430599212646484,FCN,PMSE,Tanh,,False
55,0,CIFAR10,9,500,100,100,80,0.005,2,0.0845552384853363,0.09143700994551182,0.1316,0.0063571929931640625,FCN,PMSE,Tanh,,False
56,0,CIFAR10,9,500,100,100,80,0.005,2,0.08432794362306595,0.09175435103476047,0.1396,0.00615692138671875,FCN,PMSE,Tanh,,False
57,0,CIFAR10,9,500,100,100,80,0.005,2,0.0840991660952568,0.09128440245985985,0.1332,0.006606578826904297,FCN,PMSE,Tanh,,False
58,0,CIFAR10,9,500,100,100,80,0.005,2,0.08389096707105637,0.09161067023873329,0.1409,0.007209062576293945,FCN,PMSE,Tanh,,False
59,0,CIFAR10,9,500,100,100,80,0.005,2,0.0836852490901947,0.09114832997322082,0.1347,0.00592803955078125,FCN,PMSE,Tanh,,False
60,0,CIFAR10,9,500,100,100,80,0.005,2,0.08349745720624924,0.09147845812141896,0.1409,0.005633354187011719,FCN,PMSE,Tanh,,False
61,0,CIFAR10,9,500,100,100,80,0.005,2,0.08328329771757126,0.09102915361523628,0.1362,0.006155967712402344,FCN,PMSE,Tanh,,False
62,0,CIFAR10,9,500,100,100,80,0.005,2,0.08310556411743164,0.09137320779263973,0.1434,0.013891458511352539,FCN,PMSE,Tanh,,False
63,0,CIFAR10,9,500,100,100,80,0.005,2,0.08291345834732056,0.09094200320541859,0.1394,0.006140470504760742,FCN,PMSE,Tanh,,False
64,0,CIFAR10,9,500,100,100,80,0.005,2,0.08273454755544662,0.09128541320562363,0.1455,0.006720781326293945,FCN,PMSE,Tanh,,False
65,0,CIFAR10,9,500,100,100,80,0.005,2,0.08255879580974579,0.09085824236273765,0.1405,0.0059430599212646484,FCN,PMSE,Tanh,,False
66,0,CIFAR10,9,500,100,100,80,0.005,2,0.08237851411104202,0.0911968357115984,0.1467,0.006063938140869141,FCN,PMSE,Tanh,,False
67,0,CIFAR10,9,500,100,100,80,0.005,2,0.08221687376499176,0.09077940084040165,0.1431,0.006300926208496094,FCN,PMSE,Tanh,,False
68,0,CIFAR10,9,500,100,100,80,0.005,2,0.08203266561031342,0.09111743740737438,0.1483,0.006756305694580078,FCN,PMSE,Tanh,,False
69,0,CIFAR10,9,500,100,100,80,0.005,2,0.08184642344713211,0.09071367733180523,0.1454,0.006148576736450195,FCN,PMSE,Tanh,,False
70,0,CIFAR10,9,500,100,100,80,0.005,2,0.08169233798980713,0.09106288984417915,0.1492,0.006277561187744141,FCN,PMSE,Tanh,,False
71,0,CIFAR10,9,500,100,100,80,0.005,2,0.08154864609241486,0.09065838195383549,0.1475,0.006180763244628906,FCN,PMSE,Tanh,,False
72,0,CIFAR10,9,500,100,100,80,0.005,2,0.08137771487236023,0.09102860361337661,0.149,0.0074536800384521484,FCN,PMSE,Tanh,,False
73,0,CIFAR10,9,500,100,100,80,0.005,2,0.08122438937425613,0.09061169967055321,0.1477,0.00633549690246582,FCN,PMSE,Tanh,,False
74,0,CIFAR10,9,500,100,100,80,0.005,2,0.08106906712055206,0.09102117687463761,0.1495,0.006241321563720703,FCN,PMSE,Tanh,,False
75,0,CIFAR10,9,500,100,100,80,0.005,2,0.08092956990003586,0.09057559929788113,0.1489,0.007048130035400391,FCN,PMSE,Tanh,,False
76,0,CIFAR10,9,500,100,100,80,0.005,2,0.08078602701425552,0.09102307222783565,0.1515,0.007399559020996094,FCN,PMSE,Tanh,,False
77,0,CIFAR10,9,500,100,100,80,0.005,2,0.08065048605203629,0.09055999889969826,0.1494,0.007426261901855469,FCN,PMSE,Tanh,,False
78,0,CIFAR10,9,500,100,100,80,0.005,2,0.08050340414047241,0.09104457907378674,0.1528,0.0066149234771728516,FCN,PMSE,Tanh,,False
79,0,CIFAR10,9,500,100,100,80,0.005,2,0.0803811177611351,0.09055733554065228,0.1515,0.00789785385131836,FCN,PMSE,Tanh,,False
80,0,CIFAR10,9,500,100,100,80,0.005,2,0.08026476949453354,0.09109193347394466,0.1551,0.006890296936035156,FCN,PMSE,Tanh,,False
