epoch,batch,dataset,n_layers,width,examples,batch_size,epochs,lr,seed,layer,lowest,highest,network,loss_function,activation,kernel_size,renormalize
0,0,CIFAR10,6,500,100,100,80,0.005,2,0,0.6045432366498806,1.3999765138727691,FCN,MSE,ReLU,,False
0,0,CIFAR10,6,500,100,100,80,0.005,2,1,0.0,2.943074321161506,FCN,MSE,ReLU,,False
0,0,CIFAR10,6,500,100,100,80,0.005,2,2,0.0,2.9537186606185815,FCN,MSE,ReLU,,False
0,0,CIFAR10,6,500,100,100,80,0.005,2,3,0.0,2.9835544276936283,FCN,MSE,ReLU,,False
0,0,CIFAR10,6,500,100,100,80,0.005,2,4,0.0,3.0387025016925087,FCN,MSE,ReLU,,False
0,0,CIFAR10,6,500,100,100,80,0.005,2,5,0.0,2.962537815628651,FCN,MSE,ReLU,,False
0,0,CIFAR10,6,500,100,100,80,0.005,2,latest,0.9037880784250527,1.4490880285275347,FCN,MSE,ReLU,,False
1,0,CIFAR10,6,500,100,100,80,0.005,2,0,0.6046722912451314,1.3994801646111805,FCN,MSE,ReLU,,False
1,0,CIFAR10,6,500,100,100,80,0.005,2,1,0.0,2.9465031734121268,FCN,MSE,ReLU,,False
1,0,CIFAR10,6,500,100,100,80,0.005,2,2,0.0,2.957447420815323,FCN,MSE,ReLU,,False
1,0,CIFAR10,6,500,100,100,80,0.005,2,3,0.0,2.9829095657580287,FCN,MSE,ReLU,,False
1,0,CIFAR10,6,500,100,100,80,0.005,2,4,0.0,3.039269471897881,FCN,MSE,ReLU,,False
1,0,CIFAR10,6,500,100,100,80,0.005,2,5,0.0,2.9553830833432615,FCN,MSE,ReLU,,False
1,0,CIFAR10,6,500,100,100,80,0.005,2,latest,0.9037881053600375,1.4616871043263897,FCN,MSE,ReLU,,False
2,0,CIFAR10,6,500,100,100,80,0.005,2,0,0.6046388683363181,1.3993021709129099,FCN,MSE,ReLU,,False
2,0,CIFAR10,6,500,100,100,80,0.005,2,1,0.0,2.943363911119597,FCN,MSE,ReLU,,False
2,0,CIFAR10,6,500,100,100,80,0.005,2,2,0.0,2.961340401245,FCN,MSE,ReLU,,False
2,0,CIFAR10,6,500,100,100,80,0.005,2,3,0.0,2.990870571916161,FCN,MSE,ReLU,,False
2,0,CIFAR10,6,500,100,100,80,0.005,2,4,0.0,3.039740690446104,FCN,MSE,ReLU,,False
2,0,CIFAR10,6,500,100,100,80,0.005,2,5,0.0,2.9546388356861426,FCN,MSE,ReLU,,False
2,0,CIFAR10,6,500,100,100,80,0.005,2,latest,0.9184638423310993,1.4599919650758142,FCN,MSE,ReLU,,False
3,0,CIFAR10,6,500,100,100,80,0.005,2,0,0.6046770449665733,1.3999017893821706,FCN,MSE,ReLU,,False
3,0,CIFAR10,6,500,100,100,80,0.005,2,1,0.0,2.9492756475914237,FCN,MSE,ReLU,,False
3,0,CIFAR10,6,500,100,100,80,0.005,2,2,0.0,2.9699900396417642,FCN,MSE,ReLU,,False
3,0,CIFAR10,6,500,100,100,80,0.005,2,3,0.0,2.9427986110003497,FCN,MSE,ReLU,,False
3,0,CIFAR10,6,500,100,100,80,0.005,2,4,0.0,3.0405213451065967,FCN,MSE,ReLU,,False
3,0,CIFAR10,6,500,100,100,80,0.005,2,5,0.0,2.9652560906035297,FCN,MSE,ReLU,,False
3,0,CIFAR10,6,500,100,100,80,0.005,2,latest,0.8973546829576824,1.4540086652428992,FCN,MSE,ReLU,,False
4,0,CIFAR10,6,500,100,100,80,0.005,2,0,0.6046798914415343,1.3997017023031784,FCN,MSE,ReLU,,False
4,0,CIFAR10,6,500,100,100,80,0.005,2,1,0.0,2.9552334976768795,FCN,MSE,ReLU,,False
4,0,CIFAR10,6,500,100,100,80,0.005,2,2,0.0,2.9591651785726913,FCN,MSE,ReLU,,False
4,0,CIFAR10,6,500,100,100,80,0.005,2,3,0.0,2.981398309036344,FCN,MSE,ReLU,,False
4,0,CIFAR10,6,500,100,100,80,0.005,2,4,0.0,3.033628494099098,FCN,MSE,ReLU,,False
4,0,CIFAR10,6,500,100,100,80,0.005,2,5,0.0,2.953743213443147,FCN,MSE,ReLU,,False
4,0,CIFAR10,6,500,100,100,80,0.005,2,latest,0.8956649309229231,1.4672988865570147,FCN,MSE,ReLU,,False
5,0,CIFAR10,6,500,100,100,80,0.005,2,0,0.6046810247714576,1.3996950600810198,FCN,MSE,ReLU,,False
5,0,CIFAR10,6,500,100,100,80,0.005,2,1,0.0,2.9575125430462585,FCN,MSE,ReLU,,False
5,0,CIFAR10,6,500,100,100,80,0.005,2,2,0.0,2.9510153041586245,FCN,MSE,ReLU,,False
5,0,CIFAR10,6,500,100,100,80,0.005,2,3,0.0,2.9842423813997385,FCN,MSE,ReLU,,False
5,0,CIFAR10,6,500,100,100,80,0.005,2,4,0.0,3.0292861249003944,FCN,MSE,ReLU,,False
5,0,CIFAR10,6,500,100,100,80,0.005,2,5,0.0,2.963603093434719,FCN,MSE,ReLU,,False
5,0,CIFAR10,6,500,100,100,80,0.005,2,latest,0.8848307741855851,1.4697463531682489,FCN,MSE,ReLU,,False
6,0,CIFAR10,6,500,100,100,80,0.005,2,0,0.6045856628576547,1.3993602688271192,FCN,MSE,ReLU,,False
6,0,CIFAR10,6,500,100,100,80,0.005,2,1,0.0,2.957000933835679,FCN,MSE,ReLU,,False
6,0,CIFAR10,6,500,100,100,80,0.005,2,2,0.0,2.950846135044806,FCN,MSE,ReLU,,False
6,0,CIFAR10,6,500,100,100,80,0.005,2,3,0.0,2.9778225225252717,FCN,MSE,ReLU,,False
6,0,CIFAR10,6,500,100,100,80,0.005,2,4,0.0,2.9750092856743047,FCN,MSE,ReLU,,False
6,0,CIFAR10,6,500,100,100,80,0.005,2,5,0.0,2.968113592486904,FCN,MSE,ReLU,,False
6,0,CIFAR10,6,500,100,100,80,0.005,2,latest,0.8848532938421797,1.4463615940202292,FCN,MSE,ReLU,,False
7,0,CIFAR10,6,500,100,100,80,0.005,2,0,0.6047393603323703,1.3996349727366968,FCN,MSE,ReLU,,False
7,0,CIFAR10,6,500,100,100,80,0.005,2,1,0.0,2.9574327335622703,FCN,MSE,ReLU,,False
7,0,CIFAR10,6,500,100,100,80,0.005,2,2,0.0,2.9489589006482753,FCN,MSE,ReLU,,False
7,0,CIFAR10,6,500,100,100,80,0.005,2,3,0.0,2.9875472834081656,FCN,MSE,ReLU,,False
7,0,CIFAR10,6,500,100,100,80,0.005,2,4,0.0,3.0222981424797064,FCN,MSE,ReLU,,False
7,0,CIFAR10,6,500,100,100,80,0.005,2,5,0.0,2.9444528771160794,FCN,MSE,ReLU,,False
7,0,CIFAR10,6,500,100,100,80,0.005,2,latest,0.889360339563704,1.447528600223295,FCN,MSE,ReLU,,False
8,0,CIFAR10,6,500,100,100,80,0.005,2,0,0.6047753506954697,1.3996196843331066,FCN,MSE,ReLU,,False
8,0,CIFAR10,6,500,100,100,80,0.005,2,1,0.0,2.9602221504311497,FCN,MSE,ReLU,,False
8,0,CIFAR10,6,500,100,100,80,0.005,2,2,0.0,2.961624459213741,FCN,MSE,ReLU,,False
8,0,CIFAR10,6,500,100,100,80,0.005,2,3,0.0,2.9734485587928217,FCN,MSE,ReLU,,False
8,0,CIFAR10,6,500,100,100,80,0.005,2,4,0.0,3.0227782754252,FCN,MSE,ReLU,,False
8,0,CIFAR10,6,500,100,100,80,0.005,2,5,0.0,2.960605557132349,FCN,MSE,ReLU,,False
8,0,CIFAR10,6,500,100,100,80,0.005,2,latest,0.8890594582861544,1.4481391278443345,FCN,MSE,ReLU,,False
9,0,CIFAR10,6,500,100,100,80,0.005,2,0,0.6047026730263416,1.3998306818960444,FCN,MSE,ReLU,,False
9,0,CIFAR10,6,500,100,100,80,0.005,2,1,0.0,2.9656713564016925,FCN,MSE,ReLU,,False
9,0,CIFAR10,6,500,100,100,80,0.005,2,2,0.0,2.9630781257426744,FCN,MSE,ReLU,,False
9,0,CIFAR10,6,500,100,100,80,0.005,2,3,0.0,2.9634506152638354,FCN,MSE,ReLU,,False
9,0,CIFAR10,6,500,100,100,80,0.005,2,4,0.0,3.026557987743474,FCN,MSE,ReLU,,False
9,0,CIFAR10,6,500,100,100,80,0.005,2,5,0.0,2.9522456866420796,FCN,MSE,ReLU,,False
9,0,CIFAR10,6,500,100,100,80,0.005,2,latest,0.8904922818629427,1.4435972225376987,FCN,MSE,ReLU,,False
10,0,CIFAR10,6,500,100,100,80,0.005,2,0,0.6046380764488877,1.3997654922808058,FCN,MSE,ReLU,,False
10,0,CIFAR10,6,500,100,100,80,0.005,2,1,0.0,2.9579254370648616,FCN,MSE,ReLU,,False
10,0,CIFAR10,6,500,100,100,80,0.005,2,2,0.0,2.9746764863256523,FCN,MSE,ReLU,,False
10,0,CIFAR10,6,500,100,100,80,0.005,2,3,0.0,2.966920485745869,FCN,MSE,ReLU,,False
10,0,CIFAR10,6,500,100,100,80,0.005,2,4,0.0,3.0279735442940314,FCN,MSE,ReLU,,False
10,0,CIFAR10,6,500,100,100,80,0.005,2,5,0.0,2.9637648796290095,FCN,MSE,ReLU,,False
10,0,CIFAR10,6,500,100,100,80,0.005,2,latest,0.892627407820608,1.4501183691709216,FCN,MSE,ReLU,,False
11,0,CIFAR10,6,500,100,100,80,0.005,2,0,0.6046861810432638,1.3995917474316428,FCN,MSE,ReLU,,False
11,0,CIFAR10,6,500,100,100,80,0.005,2,1,0.0,2.954468774166469,FCN,MSE,ReLU,,False
11,0,CIFAR10,6,500,100,100,80,0.005,2,2,0.0,2.972446196980295,FCN,MSE,ReLU,,False
11,0,CIFAR10,6,500,100,100,80,0.005,2,3,0.0,2.9567836976822734,FCN,MSE,ReLU,,False
11,0,CIFAR10,6,500,100,100,80,0.005,2,4,0.0,2.9992514707826645,FCN,MSE,ReLU,,False
11,0,CIFAR10,6,500,100,100,80,0.005,2,5,0.0,2.9561503419752437,FCN,MSE,ReLU,,False
11,0,CIFAR10,6,500,100,100,80,0.005,2,latest,0.8971757385533132,1.444385540608893,FCN,MSE,ReLU,,False
12,0,CIFAR10,6,500,100,100,80,0.005,2,0,0.6046307953818076,1.3994011560034931,FCN,MSE,ReLU,,False
12,0,CIFAR10,6,500,100,100,80,0.005,2,1,0.0,2.958723770519171,FCN,MSE,ReLU,,False
12,0,CIFAR10,6,500,100,100,80,0.005,2,2,0.0,2.9753173637313006,FCN,MSE,ReLU,,False
12,0,CIFAR10,6,500,100,100,80,0.005,2,3,0.0,2.9590111103776935,FCN,MSE,ReLU,,False
12,0,CIFAR10,6,500,100,100,80,0.005,2,4,0.0,3.018230812378501,FCN,MSE,ReLU,,False
12,0,CIFAR10,6,500,100,100,80,0.005,2,5,0.0,2.9599629588622665,FCN,MSE,ReLU,,False
12,0,CIFAR10,6,500,100,100,80,0.005,2,latest,0.9006661336504741,1.4440091021410215,FCN,MSE,ReLU,,False
13,0,CIFAR10,6,500,100,100,80,0.005,2,0,0.6047532450712804,1.399560060466195,FCN,MSE,ReLU,,False
13,0,CIFAR10,6,500,100,100,80,0.005,2,1,0.0,2.961557449218977,FCN,MSE,ReLU,,False
13,0,CIFAR10,6,500,100,100,80,0.005,2,2,0.0,2.9741778095093987,FCN,MSE,ReLU,,False
13,0,CIFAR10,6,500,100,100,80,0.005,2,3,0.0,2.9480848140860743,FCN,MSE,ReLU,,False
13,0,CIFAR10,6,500,100,100,80,0.005,2,4,0.0,3.0177152830883758,FCN,MSE,ReLU,,False
13,0,CIFAR10,6,500,100,100,80,0.005,2,5,0.0,2.958587453743087,FCN,MSE,ReLU,,False
13,0,CIFAR10,6,500,100,100,80,0.005,2,latest,0.9011578382492346,1.4384510805967292,FCN,MSE,ReLU,,False
14,0,CIFAR10,6,500,100,100,80,0.005,2,0,0.6046473965758083,1.3996882874646648,FCN,MSE,ReLU,,False
14,0,CIFAR10,6,500,100,100,80,0.005,2,1,0.0,2.9643518738488583,FCN,MSE,ReLU,,False
14,0,CIFAR10,6,500,100,100,80,0.005,2,2,0.0,2.9663977529779175,FCN,MSE,ReLU,,False
14,0,CIFAR10,6,500,100,100,80,0.005,2,3,0.0,2.9368245649435427,FCN,MSE,ReLU,,False
14,0,CIFAR10,6,500,100,100,80,0.005,2,4,0.0,3.027878246034658,FCN,MSE,ReLU,,False
14,0,CIFAR10,6,500,100,100,80,0.005,2,5,0.0,2.964509493783965,FCN,MSE,ReLU,,False
14,0,CIFAR10,6,500,100,100,80,0.005,2,latest,0.9058745883086511,1.4383588767302833,FCN,MSE,ReLU,,False
15,0,CIFAR10,6,500,100,100,80,0.005,2,0,0.6046433910832059,1.3995951526489505,FCN,MSE,ReLU,,False
15,0,CIFAR10,6,500,100,100,80,0.005,2,1,0.0,2.966369799072778,FCN,MSE,ReLU,,False
15,0,CIFAR10,6,500,100,100,80,0.005,2,2,0.0,2.9528312593689896,FCN,MSE,ReLU,,False
15,0,CIFAR10,6,500,100,100,80,0.005,2,3,0.0,2.946759179793335,FCN,MSE,ReLU,,False
15,0,CIFAR10,6,500,100,100,80,0.005,2,4,0.0,3.028581526191926,FCN,MSE,ReLU,,False
15,0,CIFAR10,6,500,100,100,80,0.005,2,5,0.0,2.9625738694674246,FCN,MSE,ReLU,,False
15,0,CIFAR10,6,500,100,100,80,0.005,2,latest,0.904071870936894,1.437334299903455,FCN,MSE,ReLU,,False
16,0,CIFAR10,6,500,100,100,80,0.005,2,0,0.6046544687727302,1.3999248246036735,FCN,MSE,ReLU,,False
16,0,CIFAR10,6,500,100,100,80,0.005,2,1,0.0,2.9635302784214312,FCN,MSE,ReLU,,False
16,0,CIFAR10,6,500,100,100,80,0.005,2,2,0.0,2.985523121132478,FCN,MSE,ReLU,,False
16,0,CIFAR10,6,500,100,100,80,0.005,2,3,0.0,2.9389654263160474,FCN,MSE,ReLU,,False
16,0,CIFAR10,6,500,100,100,80,0.005,2,4,0.0,3.0226861944535584,FCN,MSE,ReLU,,False
16,0,CIFAR10,6,500,100,100,80,0.005,2,5,0.0,2.941721067843,FCN,MSE,ReLU,,False
16,0,CIFAR10,6,500,100,100,80,0.005,2,latest,0.90098725653428,1.4365565506073474,FCN,MSE,ReLU,,False
17,0,CIFAR10,6,500,100,100,80,0.005,2,0,0.6047908395232743,1.3996600121204397,FCN,MSE,ReLU,,False
17,0,CIFAR10,6,500,100,100,80,0.005,2,1,0.0,2.9619805659922744,FCN,MSE,ReLU,,False
17,0,CIFAR10,6,500,100,100,80,0.005,2,2,0.0,2.986686410611605,FCN,MSE,ReLU,,False
17,0,CIFAR10,6,500,100,100,80,0.005,2,3,0.0,2.947127129781102,FCN,MSE,ReLU,,False
17,0,CIFAR10,6,500,100,100,80,0.005,2,4,0.0,3.008574154021566,FCN,MSE,ReLU,,False
17,0,CIFAR10,6,500,100,100,80,0.005,2,5,0.0,2.956193570975546,FCN,MSE,ReLU,,False
17,0,CIFAR10,6,500,100,100,80,0.005,2,latest,0.8906268714988442,1.4380864744089337,FCN,MSE,ReLU,,False
18,0,CIFAR10,6,500,100,100,80,0.005,2,0,0.6047216443598915,1.3997861869210058,FCN,MSE,ReLU,,False
18,0,CIFAR10,6,500,100,100,80,0.005,2,1,0.0,2.961347164107442,FCN,MSE,ReLU,,False
18,0,CIFAR10,6,500,100,100,80,0.005,2,2,0.0,2.9694002023450943,FCN,MSE,ReLU,,False
18,0,CIFAR10,6,500,100,100,80,0.005,2,3,0.0,2.9430332554784058,FCN,MSE,ReLU,,False
18,0,CIFAR10,6,500,100,100,80,0.005,2,4,0.0,3.0083078952385853,FCN,MSE,ReLU,,False
18,0,CIFAR10,6,500,100,100,80,0.005,2,5,0.0,2.9581678239775138,FCN,MSE,ReLU,,False
18,0,CIFAR10,6,500,100,100,80,0.005,2,latest,0.8865163758523928,1.4381838263204625,FCN,MSE,ReLU,,False
19,0,CIFAR10,6,500,100,100,80,0.005,2,0,0.604592853564987,1.3999556909036046,FCN,MSE,ReLU,,False
19,0,CIFAR10,6,500,100,100,80,0.005,2,1,0.0,2.966001036917953,FCN,MSE,ReLU,,False
19,0,CIFAR10,6,500,100,100,80,0.005,2,2,0.0,2.98238893901673,FCN,MSE,ReLU,,False
19,0,CIFAR10,6,500,100,100,80,0.005,2,3,0.0,2.9388501801612796,FCN,MSE,ReLU,,False
19,0,CIFAR10,6,500,100,100,80,0.005,2,4,0.0,3.0091426137721573,FCN,MSE,ReLU,,False
19,0,CIFAR10,6,500,100,100,80,0.005,2,5,0.0,2.9582516282413756,FCN,MSE,ReLU,,False
19,0,CIFAR10,6,500,100,100,80,0.005,2,latest,0.8867087430492984,1.441702956243784,FCN,MSE,ReLU,,False
20,0,CIFAR10,6,500,100,100,80,0.005,2,0,0.6047689791967348,1.3996929291383435,FCN,MSE,ReLU,,False
20,0,CIFAR10,6,500,100,100,80,0.005,2,1,0.0,2.963660766854265,FCN,MSE,ReLU,,False
20,0,CIFAR10,6,500,100,100,80,0.005,2,2,0.0,2.9732347676852964,FCN,MSE,ReLU,,False
20,0,CIFAR10,6,500,100,100,80,0.005,2,3,0.0,2.9478208348813446,FCN,MSE,ReLU,,False
20,0,CIFAR10,6,500,100,100,80,0.005,2,4,0.0,3.0056571279474595,FCN,MSE,ReLU,,False
20,0,CIFAR10,6,500,100,100,80,0.005,2,5,0.0,2.943719002789297,FCN,MSE,ReLU,,False
20,0,CIFAR10,6,500,100,100,80,0.005,2,latest,0.8775923208823266,1.4393955300055572,FCN,MSE,ReLU,,False
21,0,CIFAR10,6,500,100,100,80,0.005,2,0,0.6046337993060581,1.399215651333623,FCN,MSE,ReLU,,False
21,0,CIFAR10,6,500,100,100,80,0.005,2,1,0.0,2.9688058390277363,FCN,MSE,ReLU,,False
21,0,CIFAR10,6,500,100,100,80,0.005,2,2,0.0,2.9508247166994765,FCN,MSE,ReLU,,False
21,0,CIFAR10,6,500,100,100,80,0.005,2,3,0.0,2.934797564084677,FCN,MSE,ReLU,,False
21,0,CIFAR10,6,500,100,100,80,0.005,2,4,0.0,3.0089765401770645,FCN,MSE,ReLU,,False
21,0,CIFAR10,6,500,100,100,80,0.005,2,5,0.0,2.9527298597353524,FCN,MSE,ReLU,,False
21,0,CIFAR10,6,500,100,100,80,0.005,2,latest,0.875614428308712,1.4329507365171068,FCN,MSE,ReLU,,False
22,0,CIFAR10,6,500,100,100,80,0.005,2,0,0.6046557073726316,1.3995671744216813,FCN,MSE,ReLU,,False
22,0,CIFAR10,6,500,100,100,80,0.005,2,1,0.0,2.96678210441114,FCN,MSE,ReLU,,False
22,0,CIFAR10,6,500,100,100,80,0.005,2,2,0.0,2.9451790938785933,FCN,MSE,ReLU,,False
22,0,CIFAR10,6,500,100,100,80,0.005,2,3,0.0,2.9377022403717383,FCN,MSE,ReLU,,False
22,0,CIFAR10,6,500,100,100,80,0.005,2,4,0.0,3.008463682554278,FCN,MSE,ReLU,,False
22,0,CIFAR10,6,500,100,100,80,0.005,2,5,0.0,2.949796473033679,FCN,MSE,ReLU,,False
22,0,CIFAR10,6,500,100,100,80,0.005,2,latest,0.8756225496488456,1.436272266633535,FCN,MSE,ReLU,,False
23,0,CIFAR10,6,500,100,100,80,0.005,2,0,0.6045964475804242,1.3995638099725265,FCN,MSE,ReLU,,False
23,0,CIFAR10,6,500,100,100,80,0.005,2,1,0.0,2.9677868616668155,FCN,MSE,ReLU,,False
23,0,CIFAR10,6,500,100,100,80,0.005,2,2,0.0,2.962375760102319,FCN,MSE,ReLU,,False
23,0,CIFAR10,6,500,100,100,80,0.005,2,3,0.0,2.940799389160921,FCN,MSE,ReLU,,False
23,0,CIFAR10,6,500,100,100,80,0.005,2,4,0.0,3.007515077624495,FCN,MSE,ReLU,,False
23,0,CIFAR10,6,500,100,100,80,0.005,2,5,0.0,2.951116865180263,FCN,MSE,ReLU,,False
23,0,CIFAR10,6,500,100,100,80,0.005,2,latest,0.8757354698342517,1.4351339331368964,FCN,MSE,ReLU,,False
24,0,CIFAR10,6,500,100,100,80,0.005,2,0,0.6047383751777248,1.4000249622026921,FCN,MSE,ReLU,,False
24,0,CIFAR10,6,500,100,100,80,0.005,2,1,0.0,2.963698239312766,FCN,MSE,ReLU,,False
24,0,CIFAR10,6,500,100,100,80,0.005,2,2,0.0,2.9566303419815565,FCN,MSE,ReLU,,False
24,0,CIFAR10,6,500,100,100,80,0.005,2,3,0.0,2.939520607614087,FCN,MSE,ReLU,,False
24,0,CIFAR10,6,500,100,100,80,0.005,2,4,0.0,2.988174496408114,FCN,MSE,ReLU,,False
24,0,CIFAR10,6,500,100,100,80,0.005,2,5,0.0,2.9527502219484085,FCN,MSE,ReLU,,False
24,0,CIFAR10,6,500,100,100,80,0.005,2,latest,0.8787064002603332,1.4341356440633883,FCN,MSE,ReLU,,False
25,0,CIFAR10,6,500,100,100,80,0.005,2,0,0.6046474853199844,1.3993797741703256,FCN,MSE,ReLU,,False
25,0,CIFAR10,6,500,100,100,80,0.005,2,1,0.0,2.962286729821699,FCN,MSE,ReLU,,False
25,0,CIFAR10,6,500,100,100,80,0.005,2,2,0.0,2.947711469697655,FCN,MSE,ReLU,,False
25,0,CIFAR10,6,500,100,100,80,0.005,2,3,0.0,2.9379224954001457,FCN,MSE,ReLU,,False
25,0,CIFAR10,6,500,100,100,80,0.005,2,4,0.0,3.0064733711958596,FCN,MSE,ReLU,,False
25,0,CIFAR10,6,500,100,100,80,0.005,2,5,0.0,2.9426249174375116,FCN,MSE,ReLU,,False
25,0,CIFAR10,6,500,100,100,80,0.005,2,latest,0.8787134916052984,1.442507647770675,FCN,MSE,ReLU,,False
26,0,CIFAR10,6,500,100,100,80,0.005,2,0,0.6046461580268309,1.3997711122122662,FCN,MSE,ReLU,,False
26,0,CIFAR10,6,500,100,100,80,0.005,2,1,0.0,2.968966666898238,FCN,MSE,ReLU,,False
26,0,CIFAR10,6,500,100,100,80,0.005,2,2,0.0,2.974267590549867,FCN,MSE,ReLU,,False
26,0,CIFAR10,6,500,100,100,80,0.005,2,3,0.0,2.939439647751531,FCN,MSE,ReLU,,False
26,0,CIFAR10,6,500,100,100,80,0.005,2,4,0.0,2.993387723597085,FCN,MSE,ReLU,,False
26,0,CIFAR10,6,500,100,100,80,0.005,2,5,0.0,2.9497242737904092,FCN,MSE,ReLU,,False
26,0,CIFAR10,6,500,100,100,80,0.005,2,latest,0.8863948636592399,1.443956801230629,FCN,MSE,ReLU,,False
27,0,CIFAR10,6,500,100,100,80,0.005,2,0,0.6046790480373551,1.3997137100207713,FCN,MSE,ReLU,,False
27,0,CIFAR10,6,500,100,100,80,0.005,2,1,0.0,2.954878997648985,FCN,MSE,ReLU,,False
27,0,CIFAR10,6,500,100,100,80,0.005,2,2,0.0,2.94382025491252,FCN,MSE,ReLU,,False
27,0,CIFAR10,6,500,100,100,80,0.005,2,3,0.0,2.9435421102863972,FCN,MSE,ReLU,,False
27,0,CIFAR10,6,500,100,100,80,0.005,2,4,0.0,2.9854932357719126,FCN,MSE,ReLU,,False
27,0,CIFAR10,6,500,100,100,80,0.005,2,5,0.0,2.94450840990495,FCN,MSE,ReLU,,False
27,0,CIFAR10,6,500,100,100,80,0.005,2,latest,0.879581777536915,1.443730985658323,FCN,MSE,ReLU,,False
28,0,CIFAR10,6,500,100,100,80,0.005,2,0,0.6046063343594043,1.3997139663902238,FCN,MSE,ReLU,,False
28,0,CIFAR10,6,500,100,100,80,0.005,2,1,0.0,2.974629573039601,FCN,MSE,ReLU,,False
28,0,CIFAR10,6,500,100,100,80,0.005,2,2,0.0,2.940638549643747,FCN,MSE,ReLU,,False
28,0,CIFAR10,6,500,100,100,80,0.005,2,3,0.0,2.9393145861248087,FCN,MSE,ReLU,,False
28,0,CIFAR10,6,500,100,100,80,0.005,2,4,0.0,3.0005125561594324,FCN,MSE,ReLU,,False
28,0,CIFAR10,6,500,100,100,80,0.005,2,5,0.0,2.9545904489572385,FCN,MSE,ReLU,,False
28,0,CIFAR10,6,500,100,100,80,0.005,2,latest,0.879480728778781,1.4328749942177774,FCN,MSE,ReLU,,False
29,0,CIFAR10,6,500,100,100,80,0.005,2,0,0.604667204708414,1.3994758221333816,FCN,MSE,ReLU,,False
29,0,CIFAR10,6,500,100,100,80,0.005,2,1,0.0,2.969637912303937,FCN,MSE,ReLU,,False
29,0,CIFAR10,6,500,100,100,80,0.005,2,2,0.0,2.9547268191605633,FCN,MSE,ReLU,,False
29,0,CIFAR10,6,500,100,100,80,0.005,2,3,0.0,2.93975095827278,FCN,MSE,ReLU,,False
29,0,CIFAR10,6,500,100,100,80,0.005,2,4,0.0,3.004702200370386,FCN,MSE,ReLU,,False
29,0,CIFAR10,6,500,100,100,80,0.005,2,5,0.0,2.9600543715664065,FCN,MSE,ReLU,,False
29,0,CIFAR10,6,500,100,100,80,0.005,2,latest,0.8794707949238587,1.4432132563060538,FCN,MSE,ReLU,,False
30,0,CIFAR10,6,500,100,100,80,0.005,2,0,0.6045993095718432,1.3997232504194865,FCN,MSE,ReLU,,False
30,0,CIFAR10,6,500,100,100,80,0.005,2,1,0.0,2.97436440580686,FCN,MSE,ReLU,,False
30,0,CIFAR10,6,500,100,100,80,0.005,2,2,0.0,2.950777207519878,FCN,MSE,ReLU,,False
30,0,CIFAR10,6,500,100,100,80,0.005,2,3,0.0,2.9487110231418145,FCN,MSE,ReLU,,False
30,0,CIFAR10,6,500,100,100,80,0.005,2,4,0.0,2.980414442643726,FCN,MSE,ReLU,,False
30,0,CIFAR10,6,500,100,100,80,0.005,2,5,0.0,2.971375245110584,FCN,MSE,ReLU,,False
30,0,CIFAR10,6,500,100,100,80,0.005,2,latest,0.9062720016407266,1.4428165242256854,FCN,MSE,ReLU,,False
31,0,CIFAR10,6,500,100,100,80,0.005,2,0,0.6046466060117527,1.3994287133823033,FCN,MSE,ReLU,,False
31,0,CIFAR10,6,500,100,100,80,0.005,2,1,0.0,2.964523664273865,FCN,MSE,ReLU,,False
31,0,CIFAR10,6,500,100,100,80,0.005,2,2,0.0,2.948610261823631,FCN,MSE,ReLU,,False
31,0,CIFAR10,6,500,100,100,80,0.005,2,3,0.0,2.938944522288628,FCN,MSE,ReLU,,False
31,0,CIFAR10,6,500,100,100,80,0.005,2,4,0.0,2.994515332727801,FCN,MSE,ReLU,,False
31,0,CIFAR10,6,500,100,100,80,0.005,2,5,0.0,2.950162824889395,FCN,MSE,ReLU,,False
31,0,CIFAR10,6,500,100,100,80,0.005,2,latest,0.9058868446241589,1.4426315202948607,FCN,MSE,ReLU,,False
32,0,CIFAR10,6,500,100,100,80,0.005,2,0,0.6046491441601127,1.399529229836655,FCN,MSE,ReLU,,False
32,0,CIFAR10,6,500,100,100,80,0.005,2,1,0.0,2.9691209899453965,FCN,MSE,ReLU,,False
32,0,CIFAR10,6,500,100,100,80,0.005,2,2,0.0,2.9485513966559633,FCN,MSE,ReLU,,False
32,0,CIFAR10,6,500,100,100,80,0.005,2,3,0.0,2.951284740519828,FCN,MSE,ReLU,,False
32,0,CIFAR10,6,500,100,100,80,0.005,2,4,0.0,2.999794138386533,FCN,MSE,ReLU,,False
32,0,CIFAR10,6,500,100,100,80,0.005,2,5,0.0,2.965363347657479,FCN,MSE,ReLU,,False
32,0,CIFAR10,6,500,100,100,80,0.005,2,latest,0.9058970361011294,1.4434460969730702,FCN,MSE,ReLU,,False
33,0,CIFAR10,6,500,100,100,80,0.005,2,0,0.6046591236401249,1.3998161212192846,FCN,MSE,ReLU,,False
33,0,CIFAR10,6,500,100,100,80,0.005,2,1,0.0,2.963469311768603,FCN,MSE,ReLU,,False
33,0,CIFAR10,6,500,100,100,80,0.005,2,2,0.0,2.950971015477471,FCN,MSE,ReLU,,False
33,0,CIFAR10,6,500,100,100,80,0.005,2,3,0.0,2.9491099497399618,FCN,MSE,ReLU,,False
33,0,CIFAR10,6,500,100,100,80,0.005,2,4,0.0,2.9854085840052362,FCN,MSE,ReLU,,False
33,0,CIFAR10,6,500,100,100,80,0.005,2,5,0.0,2.9577958241036453,FCN,MSE,ReLU,,False
33,0,CIFAR10,6,500,100,100,80,0.005,2,latest,0.90591029521844,1.4371165690798942,FCN,MSE,ReLU,,False
34,0,CIFAR10,6,500,100,100,80,0.005,2,0,0.6046323320193202,1.3993531103110768,FCN,MSE,ReLU,,False
34,0,CIFAR10,6,500,100,100,80,0.005,2,1,0.0,2.972394773836127,FCN,MSE,ReLU,,False
34,0,CIFAR10,6,500,100,100,80,0.005,2,2,0.0,2.956146470690645,FCN,MSE,ReLU,,False
34,0,CIFAR10,6,500,100,100,80,0.005,2,3,0.0,2.9410888176366825,FCN,MSE,ReLU,,False
34,0,CIFAR10,6,500,100,100,80,0.005,2,4,0.0,2.999235781004096,FCN,MSE,ReLU,,False
34,0,CIFAR10,6,500,100,100,80,0.005,2,5,0.0,2.9603771222103186,FCN,MSE,ReLU,,False
34,0,CIFAR10,6,500,100,100,80,0.005,2,latest,0.9059651949061173,1.4400736947540678,FCN,MSE,ReLU,,False
35,0,CIFAR10,6,500,100,100,80,0.005,2,0,0.6046199297778865,1.3995553757635766,FCN,MSE,ReLU,,False
35,0,CIFAR10,6,500,100,100,80,0.005,2,1,0.0,2.972162722888013,FCN,MSE,ReLU,,False
35,0,CIFAR10,6,500,100,100,80,0.005,2,2,0.0,2.9483940537753583,FCN,MSE,ReLU,,False
35,0,CIFAR10,6,500,100,100,80,0.005,2,3,0.0,2.944456426328196,FCN,MSE,ReLU,,False
35,0,CIFAR10,6,500,100,100,80,0.005,2,4,0.0,3.0009665321845334,FCN,MSE,ReLU,,False
35,0,CIFAR10,6,500,100,100,80,0.005,2,5,0.0,2.9557532892179883,FCN,MSE,ReLU,,False
35,0,CIFAR10,6,500,100,100,80,0.005,2,latest,0.9298204475553492,1.4384318109764889,FCN,MSE,ReLU,,False
36,0,CIFAR10,6,500,100,100,80,0.005,2,0,0.604690355218127,1.3997384933747092,FCN,MSE,ReLU,,False
36,0,CIFAR10,6,500,100,100,80,0.005,2,1,0.0,2.9644408581851667,FCN,MSE,ReLU,,False
36,0,CIFAR10,6,500,100,100,80,0.005,2,2,0.0,2.951824567962889,FCN,MSE,ReLU,,False
36,0,CIFAR10,6,500,100,100,80,0.005,2,3,0.0,2.9468415437419333,FCN,MSE,ReLU,,False
36,0,CIFAR10,6,500,100,100,80,0.005,2,4,0.0,3.0160468187651874,FCN,MSE,ReLU,,False
36,0,CIFAR10,6,500,100,100,80,0.005,2,5,0.0,2.9619713015060527,FCN,MSE,ReLU,,False
36,0,CIFAR10,6,500,100,100,80,0.005,2,latest,0.9061157213032315,1.4442007306067977,FCN,MSE,ReLU,,False
37,0,CIFAR10,6,500,100,100,80,0.005,2,0,0.6047099233407511,1.399787977060864,FCN,MSE,ReLU,,False
37,0,CIFAR10,6,500,100,100,80,0.005,2,1,0.0,2.963248349469681,FCN,MSE,ReLU,,False
37,0,CIFAR10,6,500,100,100,80,0.005,2,2,0.0,2.9548522977008114,FCN,MSE,ReLU,,False
37,0,CIFAR10,6,500,100,100,80,0.005,2,3,0.0,2.933502874367473,FCN,MSE,ReLU,,False
37,0,CIFAR10,6,500,100,100,80,0.005,2,4,0.0,3.016107798227851,FCN,MSE,ReLU,,False
37,0,CIFAR10,6,500,100,100,80,0.005,2,5,0.0,2.960198835657998,FCN,MSE,ReLU,,False
37,0,CIFAR10,6,500,100,100,80,0.005,2,latest,0.9087748903033716,1.444219636465114,FCN,MSE,ReLU,,False
38,0,CIFAR10,6,500,100,100,80,0.005,2,0,0.6046535187087975,1.3997854187294732,FCN,MSE,ReLU,,False
38,0,CIFAR10,6,500,100,100,80,0.005,2,1,0.0,2.9722062002963785,FCN,MSE,ReLU,,False
38,0,CIFAR10,6,500,100,100,80,0.005,2,2,0.0,2.955435505284006,FCN,MSE,ReLU,,False
38,0,CIFAR10,6,500,100,100,80,0.005,2,3,0.0,2.936426019605536,FCN,MSE,ReLU,,False
38,0,CIFAR10,6,500,100,100,80,0.005,2,4,0.0,3.0136522122763467,FCN,MSE,ReLU,,False
38,0,CIFAR10,6,500,100,100,80,0.005,2,5,0.0,2.9619184092141695,FCN,MSE,ReLU,,False
38,0,CIFAR10,6,500,100,100,80,0.005,2,latest,0.9261161300078058,1.439216089961344,FCN,MSE,ReLU,,False
39,0,CIFAR10,6,500,100,100,80,0.005,2,0,0.6046160135647218,1.3994586988040065,FCN,MSE,ReLU,,False
39,0,CIFAR10,6,500,100,100,80,0.005,2,1,0.0,2.9722759155789977,FCN,MSE,ReLU,,False
39,0,CIFAR10,6,500,100,100,80,0.005,2,2,0.0,2.955927412243927,FCN,MSE,ReLU,,False
39,0,CIFAR10,6,500,100,100,80,0.005,2,3,0.0,2.941888756600599,FCN,MSE,ReLU,,False
39,0,CIFAR10,6,500,100,100,80,0.005,2,4,0.0,2.98363874153382,FCN,MSE,ReLU,,False
39,0,CIFAR10,6,500,100,100,80,0.005,2,5,0.0,2.9506926173358488,FCN,MSE,ReLU,,False
39,0,CIFAR10,6,500,100,100,80,0.005,2,latest,0.9304819170511084,1.438304098579508,FCN,MSE,ReLU,,False
40,0,CIFAR10,6,500,100,100,80,0.005,2,0,0.6046682519197003,1.3999390452603055,FCN,MSE,ReLU,,False
40,0,CIFAR10,6,500,100,100,80,0.005,2,1,0.0,2.9699646723537465,FCN,MSE,ReLU,,False
40,0,CIFAR10,6,500,100,100,80,0.005,2,2,0.0,2.9456827487915507,FCN,MSE,ReLU,,False
40,0,CIFAR10,6,500,100,100,80,0.005,2,3,0.0,2.9307073420246463,FCN,MSE,ReLU,,False
40,0,CIFAR10,6,500,100,100,80,0.005,2,4,0.0,3.0033147301417036,FCN,MSE,ReLU,,False
40,0,CIFAR10,6,500,100,100,80,0.005,2,5,0.0,2.9583948486471585,FCN,MSE,ReLU,,False
40,0,CIFAR10,6,500,100,100,80,0.005,2,latest,0.9286097910556764,1.4425666913990185,FCN,MSE,ReLU,,False
41,0,CIFAR10,6,500,100,100,80,0.005,2,0,0.6046954950554457,1.3995580197467024,FCN,MSE,ReLU,,False
41,0,CIFAR10,6,500,100,100,80,0.005,2,1,0.0,2.9559310927563636,FCN,MSE,ReLU,,False
41,0,CIFAR10,6,500,100,100,80,0.005,2,2,0.0,2.95864932741113,FCN,MSE,ReLU,,False
41,0,CIFAR10,6,500,100,100,80,0.005,2,3,0.0,2.9362551709645595,FCN,MSE,ReLU,,False
41,0,CIFAR10,6,500,100,100,80,0.005,2,4,0.0,2.9561151776206853,FCN,MSE,ReLU,,False
41,0,CIFAR10,6,500,100,100,80,0.005,2,5,0.0,2.9509687818750825,FCN,MSE,ReLU,,False
41,0,CIFAR10,6,500,100,100,80,0.005,2,latest,0.9286637769568659,1.4437075389876866,FCN,MSE,ReLU,,False
42,0,CIFAR10,6,500,100,100,80,0.005,2,0,0.604610585932543,1.3997391764322324,FCN,MSE,ReLU,,False
42,0,CIFAR10,6,500,100,100,80,0.005,2,1,0.0,2.9715317725489743,FCN,MSE,ReLU,,False
42,0,CIFAR10,6,500,100,100,80,0.005,2,2,0.0,2.957220880230737,FCN,MSE,ReLU,,False
42,0,CIFAR10,6,500,100,100,80,0.005,2,3,0.0,2.9384591863026808,FCN,MSE,ReLU,,False
42,0,CIFAR10,6,500,100,100,80,0.005,2,4,0.0,2.9969699180297416,FCN,MSE,ReLU,,False
42,0,CIFAR10,6,500,100,100,80,0.005,2,5,0.0,2.955032297851862,FCN,MSE,ReLU,,False
42,0,CIFAR10,6,500,100,100,80,0.005,2,latest,0.9134258864879188,1.467462421696442,FCN,MSE,ReLU,,False
43,0,CIFAR10,6,500,100,100,80,0.005,2,0,0.6048566360923984,1.3996325470883977,FCN,MSE,ReLU,,False
43,0,CIFAR10,6,500,100,100,80,0.005,2,1,0.0,2.9703653859623143,FCN,MSE,ReLU,,False
43,0,CIFAR10,6,500,100,100,80,0.005,2,2,0.0,2.959001134440987,FCN,MSE,ReLU,,False
43,0,CIFAR10,6,500,100,100,80,0.005,2,3,0.0,2.9376847229360865,FCN,MSE,ReLU,,False
43,0,CIFAR10,6,500,100,100,80,0.005,2,4,0.0,2.976828415574449,FCN,MSE,ReLU,,False
43,0,CIFAR10,6,500,100,100,80,0.005,2,5,0.0,2.9585646556062786,FCN,MSE,ReLU,,False
43,0,CIFAR10,6,500,100,100,80,0.005,2,latest,0.9309893259843954,1.46702530618812,FCN,MSE,ReLU,,False
44,0,CIFAR10,6,500,100,100,80,0.005,2,0,0.6046632778844502,1.3998062425458129,FCN,MSE,ReLU,,False
44,0,CIFAR10,6,500,100,100,80,0.005,2,1,0.0,2.9731663915560644,FCN,MSE,ReLU,,False
44,0,CIFAR10,6,500,100,100,80,0.005,2,2,0.0,2.948472504713553,FCN,MSE,ReLU,,False
44,0,CIFAR10,6,500,100,100,80,0.005,2,3,0.0,2.9439208151898084,FCN,MSE,ReLU,,False
44,0,CIFAR10,6,500,100,100,80,0.005,2,4,0.0,2.970762940418917,FCN,MSE,ReLU,,False
44,0,CIFAR10,6,500,100,100,80,0.005,2,5,0.0,2.950735736142594,FCN,MSE,ReLU,,False
44,0,CIFAR10,6,500,100,100,80,0.005,2,latest,0.9301006209216839,1.4603844886242314,FCN,MSE,ReLU,,False
45,0,CIFAR10,6,500,100,100,80,0.005,2,0,0.6046878859361527,1.3997766061070958,FCN,MSE,ReLU,,False
45,0,CIFAR10,6,500,100,100,80,0.005,2,1,0.0,2.973333574845286,FCN,MSE,ReLU,,False
45,0,CIFAR10,6,500,100,100,80,0.005,2,2,0.0,2.9505894993296997,FCN,MSE,ReLU,,False
45,0,CIFAR10,6,500,100,100,80,0.005,2,3,0.0,2.946178697055213,FCN,MSE,ReLU,,False
45,0,CIFAR10,6,500,100,100,80,0.005,2,4,0.0,2.986397582120246,FCN,MSE,ReLU,,False
45,0,CIFAR10,6,500,100,100,80,0.005,2,5,0.0,2.9533746200098228,FCN,MSE,ReLU,,False
45,0,CIFAR10,6,500,100,100,80,0.005,2,latest,0.9287418770235149,1.4704224824056233,FCN,MSE,ReLU,,False
46,0,CIFAR10,6,500,100,100,80,0.005,2,0,0.6046101727035289,1.3998151844515163,FCN,MSE,ReLU,,False
46,0,CIFAR10,6,500,100,100,80,0.005,2,1,0.0,2.9649941226585765,FCN,MSE,ReLU,,False
46,0,CIFAR10,6,500,100,100,80,0.005,2,2,0.0,2.9541291643855128,FCN,MSE,ReLU,,False
46,0,CIFAR10,6,500,100,100,80,0.005,2,3,0.0,2.9387087797409954,FCN,MSE,ReLU,,False
46,0,CIFAR10,6,500,100,100,80,0.005,2,4,0.0,2.985274272500691,FCN,MSE,ReLU,,False
46,0,CIFAR10,6,500,100,100,80,0.005,2,5,0.0,2.9572792503541487,FCN,MSE,ReLU,,False
46,0,CIFAR10,6,500,100,100,80,0.005,2,latest,0.9135149427644005,1.4731875878295408,FCN,MSE,ReLU,,False
47,0,CIFAR10,6,500,100,100,80,0.005,2,0,0.6045444121939674,1.399677430185018,FCN,MSE,ReLU,,False
47,0,CIFAR10,6,500,100,100,80,0.005,2,1,0.0,2.9710178913629988,FCN,MSE,ReLU,,False
47,0,CIFAR10,6,500,100,100,80,0.005,2,2,0.0,2.9566998516515586,FCN,MSE,ReLU,,False
47,0,CIFAR10,6,500,100,100,80,0.005,2,3,0.0,2.935461107779015,FCN,MSE,ReLU,,False
47,0,CIFAR10,6,500,100,100,80,0.005,2,4,0.0,2.9768631923255247,FCN,MSE,ReLU,,False
47,0,CIFAR10,6,500,100,100,80,0.005,2,5,0.0,2.953038950487681,FCN,MSE,ReLU,,False
47,0,CIFAR10,6,500,100,100,80,0.005,2,latest,0.9174293879324487,1.4718571526160102,FCN,MSE,ReLU,,False
48,0,CIFAR10,6,500,100,100,80,0.005,2,0,0.6045737126766756,1.3994947322709563,FCN,MSE,ReLU,,False
48,0,CIFAR10,6,500,100,100,80,0.005,2,1,0.0,2.969207551406536,FCN,MSE,ReLU,,False
48,0,CIFAR10,6,500,100,100,80,0.005,2,2,0.0,2.972267429598366,FCN,MSE,ReLU,,False
48,0,CIFAR10,6,500,100,100,80,0.005,2,3,0.0,2.946827877430396,FCN,MSE,ReLU,,False
48,0,CIFAR10,6,500,100,100,80,0.005,2,4,0.0,2.982406686120868,FCN,MSE,ReLU,,False
48,0,CIFAR10,6,500,100,100,80,0.005,2,5,0.0,2.9636395601862935,FCN,MSE,ReLU,,False
48,0,CIFAR10,6,500,100,100,80,0.005,2,latest,0.9215373571714994,1.4717995658706955,FCN,MSE,ReLU,,False
49,0,CIFAR10,6,500,100,100,80,0.005,2,0,0.6047271624117619,1.399798618863375,FCN,MSE,ReLU,,False
49,0,CIFAR10,6,500,100,100,80,0.005,2,1,0.0,2.971675692650191,FCN,MSE,ReLU,,False
49,0,CIFAR10,6,500,100,100,80,0.005,2,2,0.0,2.9715343067461686,FCN,MSE,ReLU,,False
49,0,CIFAR10,6,500,100,100,80,0.005,2,3,0.0,2.9374426978183434,FCN,MSE,ReLU,,False
49,0,CIFAR10,6,500,100,100,80,0.005,2,4,0.0,2.9741323652963003,FCN,MSE,ReLU,,False
49,0,CIFAR10,6,500,100,100,80,0.005,2,5,0.0,2.959905826911784,FCN,MSE,ReLU,,False
49,0,CIFAR10,6,500,100,100,80,0.005,2,latest,0.9137450045645682,1.4781688853033688,FCN,MSE,ReLU,,False
50,0,CIFAR10,6,500,100,100,80,0.005,2,0,0.6047805454396759,1.399646344858002,FCN,MSE,ReLU,,False
50,0,CIFAR10,6,500,100,100,80,0.005,2,1,0.0,2.965948288624307,FCN,MSE,ReLU,,False
50,0,CIFAR10,6,500,100,100,80,0.005,2,2,0.0,2.962265466206359,FCN,MSE,ReLU,,False
50,0,CIFAR10,6,500,100,100,80,0.005,2,3,0.0,2.9449559813028654,FCN,MSE,ReLU,,False
50,0,CIFAR10,6,500,100,100,80,0.005,2,4,0.0,2.985549278043603,FCN,MSE,ReLU,,False
50,0,CIFAR10,6,500,100,100,80,0.005,2,5,0.0,2.9637796498478366,FCN,MSE,ReLU,,False
50,0,CIFAR10,6,500,100,100,80,0.005,2,latest,0.9242071579422915,1.4760307542410438,FCN,MSE,ReLU,,False
51,0,CIFAR10,6,500,100,100,80,0.005,2,0,0.6046344220283388,1.3997265293192767,FCN,MSE,ReLU,,False
51,0,CIFAR10,6,500,100,100,80,0.005,2,1,0.0,2.9495944762734574,FCN,MSE,ReLU,,False
51,0,CIFAR10,6,500,100,100,80,0.005,2,2,0.0,2.938247436095547,FCN,MSE,ReLU,,False
51,0,CIFAR10,6,500,100,100,80,0.005,2,3,0.0,2.9399862797021368,FCN,MSE,ReLU,,False
51,0,CIFAR10,6,500,100,100,80,0.005,2,4,0.0,2.9842952516692,FCN,MSE,ReLU,,False
51,0,CIFAR10,6,500,100,100,80,0.005,2,5,0.0,2.968085894961273,FCN,MSE,ReLU,,False
51,0,CIFAR10,6,500,100,100,80,0.005,2,latest,0.9323680205667394,1.4842193440426164,FCN,MSE,ReLU,,False
52,0,CIFAR10,6,500,100,100,80,0.005,2,0,0.604773679781724,1.39944783800232,FCN,MSE,ReLU,,False
52,0,CIFAR10,6,500,100,100,80,0.005,2,1,0.0,2.9620906627516232,FCN,MSE,ReLU,,False
52,0,CIFAR10,6,500,100,100,80,0.005,2,2,0.0,2.9604022341317933,FCN,MSE,ReLU,,False
52,0,CIFAR10,6,500,100,100,80,0.005,2,3,0.0,2.930038715926985,FCN,MSE,ReLU,,False
52,0,CIFAR10,6,500,100,100,80,0.005,2,4,0.0,2.974500510662068,FCN,MSE,ReLU,,False
52,0,CIFAR10,6,500,100,100,80,0.005,2,5,0.0,2.9725587204762984,FCN,MSE,ReLU,,False
52,0,CIFAR10,6,500,100,100,80,0.005,2,latest,0.9295095502046508,1.4846858894496018,FCN,MSE,ReLU,,False
53,0,CIFAR10,6,500,100,100,80,0.005,2,0,0.604799621238587,1.3996086535589947,FCN,MSE,ReLU,,False
53,0,CIFAR10,6,500,100,100,80,0.005,2,1,0.0,2.9599564114841264,FCN,MSE,ReLU,,False
53,0,CIFAR10,6,500,100,100,80,0.005,2,2,0.0,2.958811441947841,FCN,MSE,ReLU,,False
53,0,CIFAR10,6,500,100,100,80,0.005,2,3,0.0,2.9368850388957095,FCN,MSE,ReLU,,False
53,0,CIFAR10,6,500,100,100,80,0.005,2,4,0.0,2.9925310429649175,FCN,MSE,ReLU,,False
53,0,CIFAR10,6,500,100,100,80,0.005,2,5,0.0,2.9679964414199924,FCN,MSE,ReLU,,False
53,0,CIFAR10,6,500,100,100,80,0.005,2,latest,0.9322033251525728,1.4841818514310838,FCN,MSE,ReLU,,False
54,0,CIFAR10,6,500,100,100,80,0.005,2,0,0.6046226797401713,1.3996809203730025,FCN,MSE,ReLU,,False
54,0,CIFAR10,6,500,100,100,80,0.005,2,1,0.0,2.963620044479904,FCN,MSE,ReLU,,False
54,0,CIFAR10,6,500,100,100,80,0.005,2,2,0.0,2.965667409161502,FCN,MSE,ReLU,,False
54,0,CIFAR10,6,500,100,100,80,0.005,2,3,0.0,2.9312993612789824,FCN,MSE,ReLU,,False
54,0,CIFAR10,6,500,100,100,80,0.005,2,4,0.0,3.002285066940552,FCN,MSE,ReLU,,False
54,0,CIFAR10,6,500,100,100,80,0.005,2,5,0.0,2.966714245318816,FCN,MSE,ReLU,,False
54,0,CIFAR10,6,500,100,100,80,0.005,2,latest,0.929149261343899,1.484942759300111,FCN,MSE,ReLU,,False
55,0,CIFAR10,6,500,100,100,80,0.005,2,0,0.6046292407368388,1.3998097358797892,FCN,MSE,ReLU,,False
55,0,CIFAR10,6,500,100,100,80,0.005,2,1,0.0,2.959108955733429,FCN,MSE,ReLU,,False
55,0,CIFAR10,6,500,100,100,80,0.005,2,2,0.0,2.964551490812196,FCN,MSE,ReLU,,False
55,0,CIFAR10,6,500,100,100,80,0.005,2,3,0.0,2.9547186181781266,FCN,MSE,ReLU,,False
55,0,CIFAR10,6,500,100,100,80,0.005,2,4,0.0,2.9871468179620075,FCN,MSE,ReLU,,False
55,0,CIFAR10,6,500,100,100,80,0.005,2,5,0.0,2.9731416042875436,FCN,MSE,ReLU,,False
55,0,CIFAR10,6,500,100,100,80,0.005,2,latest,0.9396889231432102,1.4858003063708907,FCN,MSE,ReLU,,False
56,0,CIFAR10,6,500,100,100,80,0.005,2,0,0.6047076466792348,1.3995915344958014,FCN,MSE,ReLU,,False
56,0,CIFAR10,6,500,100,100,80,0.005,2,1,0.0,2.9544934675359364,FCN,MSE,ReLU,,False
56,0,CIFAR10,6,500,100,100,80,0.005,2,2,0.0,2.9576409087636883,FCN,MSE,ReLU,,False
56,0,CIFAR10,6,500,100,100,80,0.005,2,3,0.0,2.9572299099384165,FCN,MSE,ReLU,,False
56,0,CIFAR10,6,500,100,100,80,0.005,2,4,0.0,2.9830156196187856,FCN,MSE,ReLU,,False
56,0,CIFAR10,6,500,100,100,80,0.005,2,5,0.0,2.9643245596703225,FCN,MSE,ReLU,,False
56,0,CIFAR10,6,500,100,100,80,0.005,2,latest,0.9318418254408694,1.4820909294053157,FCN,MSE,ReLU,,False
57,0,CIFAR10,6,500,100,100,80,0.005,2,0,0.604564834063039,1.399732021656158,FCN,MSE,ReLU,,False
57,0,CIFAR10,6,500,100,100,80,0.005,2,1,0.0,2.964461109664846,FCN,MSE,ReLU,,False
57,0,CIFAR10,6,500,100,100,80,0.005,2,2,0.0,2.9566985764232094,FCN,MSE,ReLU,,False
57,0,CIFAR10,6,500,100,100,80,0.005,2,3,0.0,2.960478815065753,FCN,MSE,ReLU,,False
57,0,CIFAR10,6,500,100,100,80,0.005,2,4,0.0,2.9799562490027163,FCN,MSE,ReLU,,False
57,0,CIFAR10,6,500,100,100,80,0.005,2,5,0.0,2.9674772325604986,FCN,MSE,ReLU,,False
57,0,CIFAR10,6,500,100,100,80,0.005,2,latest,0.9352859204963312,1.4817368123690686,FCN,MSE,ReLU,,False
58,0,CIFAR10,6,500,100,100,80,0.005,2,0,0.6046386214886096,1.3997097063008919,FCN,MSE,ReLU,,False
58,0,CIFAR10,6,500,100,100,80,0.005,2,1,0.0,2.9490329568347535,FCN,MSE,ReLU,,False
58,0,CIFAR10,6,500,100,100,80,0.005,2,2,0.0,2.9418294673837693,FCN,MSE,ReLU,,False
58,0,CIFAR10,6,500,100,100,80,0.005,2,3,0.0,2.9598376966776114,FCN,MSE,ReLU,,False
58,0,CIFAR10,6,500,100,100,80,0.005,2,4,0.0,2.982779990369264,FCN,MSE,ReLU,,False
58,0,CIFAR10,6,500,100,100,80,0.005,2,5,0.0,2.9511809518738983,FCN,MSE,ReLU,,False
58,0,CIFAR10,6,500,100,100,80,0.005,2,latest,0.9299836508070355,1.4918071891501505,FCN,MSE,ReLU,,False
59,0,CIFAR10,6,500,100,100,80,0.005,2,0,0.6046740223770334,1.399774095524126,FCN,MSE,ReLU,,False
59,0,CIFAR10,6,500,100,100,80,0.005,2,1,0.0,2.9708980702120202,FCN,MSE,ReLU,,False
59,0,CIFAR10,6,500,100,100,80,0.005,2,2,0.0,2.9528504905069455,FCN,MSE,ReLU,,False
59,0,CIFAR10,6,500,100,100,80,0.005,2,3,0.0,2.931979496883124,FCN,MSE,ReLU,,False
59,0,CIFAR10,6,500,100,100,80,0.005,2,4,0.0,2.9851939091407274,FCN,MSE,ReLU,,False
59,0,CIFAR10,6,500,100,100,80,0.005,2,5,0.0,2.979938273686977,FCN,MSE,ReLU,,False
59,0,CIFAR10,6,500,100,100,80,0.005,2,latest,0.9290726358280725,1.4933723511072872,FCN,MSE,ReLU,,False
60,0,CIFAR10,6,500,100,100,80,0.005,2,0,0.6046043153550262,1.3992889607345929,FCN,MSE,ReLU,,False
60,0,CIFAR10,6,500,100,100,80,0.005,2,1,0.0,2.9589404691990713,FCN,MSE,ReLU,,False
60,0,CIFAR10,6,500,100,100,80,0.005,2,2,0.0,2.942607902681038,FCN,MSE,ReLU,,False
60,0,CIFAR10,6,500,100,100,80,0.005,2,3,0.0,2.94882227777934,FCN,MSE,ReLU,,False
60,0,CIFAR10,6,500,100,100,80,0.005,2,4,0.0,2.9863104012002664,FCN,MSE,ReLU,,False
60,0,CIFAR10,6,500,100,100,80,0.005,2,5,0.0,2.97226160396166,FCN,MSE,ReLU,,False
60,0,CIFAR10,6,500,100,100,80,0.005,2,latest,0.9284294290165404,1.4769084868184215,FCN,MSE,ReLU,,False
61,0,CIFAR10,6,500,100,100,80,0.005,2,0,0.6046500581642563,1.3994860438610977,FCN,MSE,ReLU,,False
61,0,CIFAR10,6,500,100,100,80,0.005,2,1,0.0,2.961840780265331,FCN,MSE,ReLU,,False
61,0,CIFAR10,6,500,100,100,80,0.005,2,2,0.0,2.9543608721280514,FCN,MSE,ReLU,,False
61,0,CIFAR10,6,500,100,100,80,0.005,2,3,0.0,2.932171635630059,FCN,MSE,ReLU,,False
61,0,CIFAR10,6,500,100,100,80,0.005,2,4,0.0,2.9673521426109395,FCN,MSE,ReLU,,False
61,0,CIFAR10,6,500,100,100,80,0.005,2,5,0.0,2.9884469671319356,FCN,MSE,ReLU,,False
61,0,CIFAR10,6,500,100,100,80,0.005,2,latest,0.9237185311172074,1.4888244598755114,FCN,MSE,ReLU,,False
62,0,CIFAR10,6,500,100,100,80,0.005,2,0,0.6048327736837369,1.3997801386410582,FCN,MSE,ReLU,,False
62,0,CIFAR10,6,500,100,100,80,0.005,2,1,0.0,2.9696956616013477,FCN,MSE,ReLU,,False
62,0,CIFAR10,6,500,100,100,80,0.005,2,2,0.0,2.954932396812023,FCN,MSE,ReLU,,False
62,0,CIFAR10,6,500,100,100,80,0.005,2,3,0.0,2.9564706881437726,FCN,MSE,ReLU,,False
62,0,CIFAR10,6,500,100,100,80,0.005,2,4,0.0,2.9865887006165397,FCN,MSE,ReLU,,False
62,0,CIFAR10,6,500,100,100,80,0.005,2,5,0.0,2.976361605855961,FCN,MSE,ReLU,,False
62,0,CIFAR10,6,500,100,100,80,0.005,2,latest,0.9215829533581376,1.4905005700981435,FCN,MSE,ReLU,,False
63,0,CIFAR10,6,500,100,100,80,0.005,2,0,0.6046830542386382,1.399589916182347,FCN,MSE,ReLU,,False
63,0,CIFAR10,6,500,100,100,80,0.005,2,1,0.0,2.963773889400209,FCN,MSE,ReLU,,False
63,0,CIFAR10,6,500,100,100,80,0.005,2,2,0.0,2.935644971882103,FCN,MSE,ReLU,,False
63,0,CIFAR10,6,500,100,100,80,0.005,2,3,0.0,2.952388273579306,FCN,MSE,ReLU,,False
63,0,CIFAR10,6,500,100,100,80,0.005,2,4,0.0,2.9426509798351517,FCN,MSE,ReLU,,False
63,0,CIFAR10,6,500,100,100,80,0.005,2,5,0.0,2.9822242179215808,FCN,MSE,ReLU,,False
63,0,CIFAR10,6,500,100,100,80,0.005,2,latest,0.9302767486013106,1.4801695754027346,FCN,MSE,ReLU,,False
64,0,CIFAR10,6,500,100,100,80,0.005,2,0,0.604628766440761,1.399684624345366,FCN,MSE,ReLU,,False
64,0,CIFAR10,6,500,100,100,80,0.005,2,1,0.0,2.9644960141720533,FCN,MSE,ReLU,,False
64,0,CIFAR10,6,500,100,100,80,0.005,2,2,0.0,2.946161850916279,FCN,MSE,ReLU,,False
64,0,CIFAR10,6,500,100,100,80,0.005,2,3,0.0,2.958066474377561,FCN,MSE,ReLU,,False
64,0,CIFAR10,6,500,100,100,80,0.005,2,4,0.0,2.969592165704785,FCN,MSE,ReLU,,False
64,0,CIFAR10,6,500,100,100,80,0.005,2,5,0.0,2.991456939069135,FCN,MSE,ReLU,,False
64,0,CIFAR10,6,500,100,100,80,0.005,2,latest,0.9163832438676472,1.4901651077108067,FCN,MSE,ReLU,,False
65,0,CIFAR10,6,500,100,100,80,0.005,2,0,0.6047077090826868,1.3995167920139975,FCN,MSE,ReLU,,False
65,0,CIFAR10,6,500,100,100,80,0.005,2,1,0.0,2.96560882612695,FCN,MSE,ReLU,,False
65,0,CIFAR10,6,500,100,100,80,0.005,2,2,0.0,2.9654654393823017,FCN,MSE,ReLU,,False
65,0,CIFAR10,6,500,100,100,80,0.005,2,3,0.0,2.9482915165941934,FCN,MSE,ReLU,,False
65,0,CIFAR10,6,500,100,100,80,0.005,2,4,0.0,2.987006979127999,FCN,MSE,ReLU,,False
65,0,CIFAR10,6,500,100,100,80,0.005,2,5,0.0,2.9890451689006836,FCN,MSE,ReLU,,False
65,0,CIFAR10,6,500,100,100,80,0.005,2,latest,0.923948070987541,1.4872578426192116,FCN,MSE,ReLU,,False
66,0,CIFAR10,6,500,100,100,80,0.005,2,0,0.6046700537475831,1.3997624263821626,FCN,MSE,ReLU,,False
66,0,CIFAR10,6,500,100,100,80,0.005,2,1,0.0,2.9677758313526237,FCN,MSE,ReLU,,False
66,0,CIFAR10,6,500,100,100,80,0.005,2,2,0.0,2.9663922313259765,FCN,MSE,ReLU,,False
66,0,CIFAR10,6,500,100,100,80,0.005,2,3,0.0,2.9330519540916926,FCN,MSE,ReLU,,False
66,0,CIFAR10,6,500,100,100,80,0.005,2,4,0.0,2.982808286045429,FCN,MSE,ReLU,,False
66,0,CIFAR10,6,500,100,100,80,0.005,2,5,0.0,2.9836277850163353,FCN,MSE,ReLU,,False
66,0,CIFAR10,6,500,100,100,80,0.005,2,latest,0.9148980182155665,1.4943800039213906,FCN,MSE,ReLU,,False
67,0,CIFAR10,6,500,100,100,80,0.005,2,0,0.6047056946985626,1.3995868046826416,FCN,MSE,ReLU,,False
67,0,CIFAR10,6,500,100,100,80,0.005,2,1,0.0,2.9599504509265833,FCN,MSE,ReLU,,False
67,0,CIFAR10,6,500,100,100,80,0.005,2,2,0.0,2.9641038375972246,FCN,MSE,ReLU,,False
67,0,CIFAR10,6,500,100,100,80,0.005,2,3,0.0,2.9349458019444863,FCN,MSE,ReLU,,False
67,0,CIFAR10,6,500,100,100,80,0.005,2,4,0.0,2.9882724551447226,FCN,MSE,ReLU,,False
67,0,CIFAR10,6,500,100,100,80,0.005,2,5,0.0,2.957892228314982,FCN,MSE,ReLU,,False
67,0,CIFAR10,6,500,100,100,80,0.005,2,latest,0.9145715080570779,1.4921223890868611,FCN,MSE,ReLU,,False
68,0,CIFAR10,6,500,100,100,80,0.005,2,0,0.6047164080935807,1.3995130015481745,FCN,MSE,ReLU,,False
68,0,CIFAR10,6,500,100,100,80,0.005,2,1,0.0,2.967030237900717,FCN,MSE,ReLU,,False
68,0,CIFAR10,6,500,100,100,80,0.005,2,2,0.0,2.957996850734889,FCN,MSE,ReLU,,False
68,0,CIFAR10,6,500,100,100,80,0.005,2,3,0.0,2.9537609712278274,FCN,MSE,ReLU,,False
68,0,CIFAR10,6,500,100,100,80,0.005,2,4,0.0,2.9883371171934177,FCN,MSE,ReLU,,False
68,0,CIFAR10,6,500,100,100,80,0.005,2,5,0.0,2.9701681027117184,FCN,MSE,ReLU,,False
68,0,CIFAR10,6,500,100,100,80,0.005,2,latest,0.9141910679056416,1.4944342736465552,FCN,MSE,ReLU,,False
69,0,CIFAR10,6,500,100,100,80,0.005,2,0,0.6047177428370669,1.3996081008074894,FCN,MSE,ReLU,,False
69,0,CIFAR10,6,500,100,100,80,0.005,2,1,0.0,2.9676745505353623,FCN,MSE,ReLU,,False
69,0,CIFAR10,6,500,100,100,80,0.005,2,2,0.0,2.9598795830229467,FCN,MSE,ReLU,,False
69,0,CIFAR10,6,500,100,100,80,0.005,2,3,0.0,2.921542551639883,FCN,MSE,ReLU,,False
69,0,CIFAR10,6,500,100,100,80,0.005,2,4,0.0,2.984566088245898,FCN,MSE,ReLU,,False
69,0,CIFAR10,6,500,100,100,80,0.005,2,5,0.0,2.9879413486224284,FCN,MSE,ReLU,,False
69,0,CIFAR10,6,500,100,100,80,0.005,2,latest,0.9143855026696032,1.5019665139366254,FCN,MSE,ReLU,,False
70,0,CIFAR10,6,500,100,100,80,0.005,2,0,0.6046721067571004,1.3995086982337064,FCN,MSE,ReLU,,False
70,0,CIFAR10,6,500,100,100,80,0.005,2,1,0.0,2.9522511637560456,FCN,MSE,ReLU,,False
70,0,CIFAR10,6,500,100,100,80,0.005,2,2,0.0,2.964556010360069,FCN,MSE,ReLU,,False
70,0,CIFAR10,6,500,100,100,80,0.005,2,3,0.0,2.934224189238512,FCN,MSE,ReLU,,False
70,0,CIFAR10,6,500,100,100,80,0.005,2,4,0.0,2.989085688802662,FCN,MSE,ReLU,,False
70,0,CIFAR10,6,500,100,100,80,0.005,2,5,0.0,2.9426579000524353,FCN,MSE,ReLU,,False
70,0,CIFAR10,6,500,100,100,80,0.005,2,latest,0.9143987273099975,1.4981854209667282,FCN,MSE,ReLU,,False
71,0,CIFAR10,6,500,100,100,80,0.005,2,0,0.6046387005417437,1.3994492435225805,FCN,MSE,ReLU,,False
71,0,CIFAR10,6,500,100,100,80,0.005,2,1,0.0,2.965751338152924,FCN,MSE,ReLU,,False
71,0,CIFAR10,6,500,100,100,80,0.005,2,2,0.0,2.95196470762477,FCN,MSE,ReLU,,False
71,0,CIFAR10,6,500,100,100,80,0.005,2,3,0.0,2.936416575875057,FCN,MSE,ReLU,,False
71,0,CIFAR10,6,500,100,100,80,0.005,2,4,0.0,2.9889534387468437,FCN,MSE,ReLU,,False
71,0,CIFAR10,6,500,100,100,80,0.005,2,5,0.0,2.992363410056913,FCN,MSE,ReLU,,False
71,0,CIFAR10,6,500,100,100,80,0.005,2,latest,0.9216547805507936,1.4957904206864003,FCN,MSE,ReLU,,False
72,0,CIFAR10,6,500,100,100,80,0.005,2,0,0.6047912878298052,1.3995739875939905,FCN,MSE,ReLU,,False
72,0,CIFAR10,6,500,100,100,80,0.005,2,1,0.0,2.969096113407556,FCN,MSE,ReLU,,False
72,0,CIFAR10,6,500,100,100,80,0.005,2,2,0.0,2.963930357254771,FCN,MSE,ReLU,,False
72,0,CIFAR10,6,500,100,100,80,0.005,2,3,0.0,2.926656135056767,FCN,MSE,ReLU,,False
72,0,CIFAR10,6,500,100,100,80,0.005,2,4,0.0,2.983793849243826,FCN,MSE,ReLU,,False
72,0,CIFAR10,6,500,100,100,80,0.005,2,5,0.0,2.961294832031143,FCN,MSE,ReLU,,False
72,0,CIFAR10,6,500,100,100,80,0.005,2,latest,0.9230931233784455,1.4977146762859894,FCN,MSE,ReLU,,False
73,0,CIFAR10,6,500,100,100,80,0.005,2,0,0.6046319811360317,1.399892380528942,FCN,MSE,ReLU,,False
73,0,CIFAR10,6,500,100,100,80,0.005,2,1,0.0,2.9661146975160024,FCN,MSE,ReLU,,False
73,0,CIFAR10,6,500,100,100,80,0.005,2,2,0.0,2.9678849415545328,FCN,MSE,ReLU,,False
73,0,CIFAR10,6,500,100,100,80,0.005,2,3,0.0,2.940482377812003,FCN,MSE,ReLU,,False
73,0,CIFAR10,6,500,100,100,80,0.005,2,4,0.0,2.9851827277352303,FCN,MSE,ReLU,,False
73,0,CIFAR10,6,500,100,100,80,0.005,2,5,0.0,2.989307703549927,FCN,MSE,ReLU,,False
73,0,CIFAR10,6,500,100,100,80,0.005,2,latest,0.9215090989851317,1.500342250561581,FCN,MSE,ReLU,,False
74,0,CIFAR10,6,500,100,100,80,0.005,2,0,0.6048033911545329,1.3995842946579131,FCN,MSE,ReLU,,False
74,0,CIFAR10,6,500,100,100,80,0.005,2,1,0.0,2.9651468839798274,FCN,MSE,ReLU,,False
74,0,CIFAR10,6,500,100,100,80,0.005,2,2,0.0,2.9597075230208425,FCN,MSE,ReLU,,False
74,0,CIFAR10,6,500,100,100,80,0.005,2,3,0.0,2.9325684199428323,FCN,MSE,ReLU,,False
74,0,CIFAR10,6,500,100,100,80,0.005,2,4,0.0,2.9772845643641714,FCN,MSE,ReLU,,False
74,0,CIFAR10,6,500,100,100,80,0.005,2,5,0.0,2.969689150382973,FCN,MSE,ReLU,,False
74,0,CIFAR10,6,500,100,100,80,0.005,2,latest,0.9230068704993202,1.4974786611366722,FCN,MSE,ReLU,,False
75,0,CIFAR10,6,500,100,100,80,0.005,2,0,0.6046978409734756,1.3997157123105446,FCN,MSE,ReLU,,False
75,0,CIFAR10,6,500,100,100,80,0.005,2,1,0.0,2.9639014712560043,FCN,MSE,ReLU,,False
75,0,CIFAR10,6,500,100,100,80,0.005,2,2,0.0,2.9619167993207767,FCN,MSE,ReLU,,False
75,0,CIFAR10,6,500,100,100,80,0.005,2,3,0.0,2.952104429622207,FCN,MSE,ReLU,,False
75,0,CIFAR10,6,500,100,100,80,0.005,2,4,0.0,2.991564653476126,FCN,MSE,ReLU,,False
75,0,CIFAR10,6,500,100,100,80,0.005,2,5,0.0,2.9761726601977863,FCN,MSE,ReLU,,False
75,0,CIFAR10,6,500,100,100,80,0.005,2,latest,0.9357087467451092,1.494437048935438,FCN,MSE,ReLU,,False
76,0,CIFAR10,6,500,100,100,80,0.005,2,0,0.6046405187723881,1.3994960508001226,FCN,MSE,ReLU,,False
76,0,CIFAR10,6,500,100,100,80,0.005,2,1,0.0,2.963048483787434,FCN,MSE,ReLU,,False
76,0,CIFAR10,6,500,100,100,80,0.005,2,2,0.0,2.938855784342007,FCN,MSE,ReLU,,False
76,0,CIFAR10,6,500,100,100,80,0.005,2,3,0.0,2.9368496438681495,FCN,MSE,ReLU,,False
76,0,CIFAR10,6,500,100,100,80,0.005,2,4,0.0,2.970483302260598,FCN,MSE,ReLU,,False
76,0,CIFAR10,6,500,100,100,80,0.005,2,5,0.0,2.960346824929153,FCN,MSE,ReLU,,False
76,0,CIFAR10,6,500,100,100,80,0.005,2,latest,0.9337780094130086,1.4972962011832391,FCN,MSE,ReLU,,False
77,0,CIFAR10,6,500,100,100,80,0.005,2,0,0.604848775138546,1.3994175124941117,FCN,MSE,ReLU,,False
77,0,CIFAR10,6,500,100,100,80,0.005,2,1,0.0,2.963403967869083,FCN,MSE,ReLU,,False
77,0,CIFAR10,6,500,100,100,80,0.005,2,2,0.0,2.943114886807733,FCN,MSE,ReLU,,False
77,0,CIFAR10,6,500,100,100,80,0.005,2,3,0.0,2.9463391594644563,FCN,MSE,ReLU,,False
77,0,CIFAR10,6,500,100,100,80,0.005,2,4,0.0,2.9921210648213328,FCN,MSE,ReLU,,False
77,0,CIFAR10,6,500,100,100,80,0.005,2,5,0.0,2.958538427146427,FCN,MSE,ReLU,,False
77,0,CIFAR10,6,500,100,100,80,0.005,2,latest,0.935426877892738,1.495324308534321,FCN,MSE,ReLU,,False
78,0,CIFAR10,6,500,100,100,80,0.005,2,0,0.6046490207305255,1.3998982545680292,FCN,MSE,ReLU,,False
78,0,CIFAR10,6,500,100,100,80,0.005,2,1,0.0,2.953301479980131,FCN,MSE,ReLU,,False
78,0,CIFAR10,6,500,100,100,80,0.005,2,2,0.0,2.9502754651760283,FCN,MSE,ReLU,,False
78,0,CIFAR10,6,500,100,100,80,0.005,2,3,0.0,2.931786833381091,FCN,MSE,ReLU,,False
78,0,CIFAR10,6,500,100,100,80,0.005,2,4,0.0,2.9883962970602966,FCN,MSE,ReLU,,False
78,0,CIFAR10,6,500,100,100,80,0.005,2,5,0.0,2.9587888948940475,FCN,MSE,ReLU,,False
78,0,CIFAR10,6,500,100,100,80,0.005,2,latest,0.9368560130129354,1.5002976658278608,FCN,MSE,ReLU,,False
79,0,CIFAR10,6,500,100,100,80,0.005,2,0,0.6047421382745859,1.3993088114025303,FCN,MSE,ReLU,,False
79,0,CIFAR10,6,500,100,100,80,0.005,2,1,0.0,2.9619443439351025,FCN,MSE,ReLU,,False
79,0,CIFAR10,6,500,100,100,80,0.005,2,2,0.0,2.970198428528637,FCN,MSE,ReLU,,False
79,0,CIFAR10,6,500,100,100,80,0.005,2,3,0.0,2.9413172623819412,FCN,MSE,ReLU,,False
79,0,CIFAR10,6,500,100,100,80,0.005,2,4,0.0,2.9719172865893717,FCN,MSE,ReLU,,False
79,0,CIFAR10,6,500,100,100,80,0.005,2,5,0.0,2.963198246944126,FCN,MSE,ReLU,,False
79,0,CIFAR10,6,500,100,100,80,0.005,2,latest,0.938735598221932,1.491394125103695,FCN,MSE,ReLU,,False
80,0,CIFAR10,6,500,100,100,80,0.005,2,0,0.6046364177018284,1.3996649102689571,FCN,MSE,ReLU,,False
80,0,CIFAR10,6,500,100,100,80,0.005,2,1,0.0,2.962734351566414,FCN,MSE,ReLU,,False
80,0,CIFAR10,6,500,100,100,80,0.005,2,2,0.0,2.9563258498032803,FCN,MSE,ReLU,,False
80,0,CIFAR10,6,500,100,100,80,0.005,2,3,0.0,2.9325036920262453,FCN,MSE,ReLU,,False
80,0,CIFAR10,6,500,100,100,80,0.005,2,4,0.0,2.96051859849069,FCN,MSE,ReLU,,False
80,0,CIFAR10,6,500,100,100,80,0.005,2,5,0.0,2.9612168957786955,FCN,MSE,ReLU,,False
80,0,CIFAR10,6,500,100,100,80,0.005,2,latest,0.9341087998744507,1.4994049133247258,FCN,MSE,ReLU,,False
