epoch,batch,dataset,n_layers,width,examples,batch_size,epochs,lr,seed,layer,matrix_norm_2,matrix_norm_inf,vector_norm_2,vector_norm_inf,network,loss_function,activation,kernel_size,renormalize
0,0,CIFAR10,6,500,250,250,80,0.0005,2,0,1.3997875086676967,46.05881881713867,22.352954864501953,0.08803857862949371,FCN,MSE,Tanh,,False
0,0,CIFAR10,6,500,250,250,80,0.0005,2,1,1.974730656763931,19.484024047851562,22.326519012451172,0.20243537425994873,FCN,MSE,Tanh,,False
0,0,CIFAR10,6,500,250,250,80,0.0005,2,2,1.9660358187651934,19.373554229736328,22.296131134033203,0.1977321207523346,FCN,MSE,Tanh,,False
0,0,CIFAR10,6,500,250,250,80,0.0005,2,3,1.9911772936565955,19.856651306152344,22.355052947998047,0.19747672975063324,FCN,MSE,Tanh,,False
0,0,CIFAR10,6,500,250,250,80,0.0005,2,4,1.9915467073181612,19.806415557861328,22.373191833496094,0.21551865339279175,FCN,MSE,Tanh,,False
0,0,CIFAR10,6,500,250,250,80,0.0005,2,5,1.9876155075960684,19.942066192626953,22.327730178833008,0.2328999638557434,FCN,MSE,Tanh,,False
0,0,CIFAR10,6,500,250,250,80,0.0005,2,latest,1.0780173911838147,18.996225357055664,3.15806245803833,0.204608753323555,FCN,MSE,Tanh,,False
1,0,CIFAR10,6,500,250,250,80,0.0005,2,0,1.396652275609156,46.058815002441406,22.352956771850586,0.0880386233329773,FCN,MSE,Tanh,,False
1,0,CIFAR10,6,500,250,250,80,0.0005,2,1,1.9743123873509203,19.48402214050293,22.326519012451172,0.20243549346923828,FCN,MSE,Tanh,,False
1,0,CIFAR10,6,500,250,250,80,0.0005,2,2,1.9608236917370445,19.373554229736328,22.296131134033203,0.1977321058511734,FCN,MSE,Tanh,,False
1,0,CIFAR10,6,500,250,250,80,0.0005,2,3,1.9874331705952788,19.856653213500977,22.355052947998047,0.19747668504714966,FCN,MSE,Tanh,,False
1,0,CIFAR10,6,500,250,250,80,0.0005,2,4,1.9880269598427336,19.806415557861328,22.373191833496094,0.21551862359046936,FCN,MSE,Tanh,,False
1,0,CIFAR10,6,500,250,250,80,0.0005,2,5,1.9890936083734068,19.942068099975586,22.327730178833008,0.2328999787569046,FCN,MSE,Tanh,,False
1,0,CIFAR10,6,500,250,250,80,0.0005,2,latest,1.087845542612332,18.9962215423584,3.158060312271118,0.2046084851026535,FCN,MSE,Tanh,,False
2,0,CIFAR10,6,500,250,250,80,0.0005,2,0,1.4007091276847146,46.058799743652344,22.352954864501953,0.08803867548704147,FCN,MSE,Tanh,,False
2,0,CIFAR10,6,500,250,250,80,0.0005,2,1,1.9747913838888291,19.48402214050293,22.326519012451172,0.20243561267852783,FCN,MSE,Tanh,,False
2,0,CIFAR10,6,500,250,250,80,0.0005,2,2,1.9640097089787745,19.373554229736328,22.296131134033203,0.1977320909500122,FCN,MSE,Tanh,,False
2,0,CIFAR10,6,500,250,250,80,0.0005,2,3,1.9914344112160498,19.85665512084961,22.355052947998047,0.19747664034366608,FCN,MSE,Tanh,,False
2,0,CIFAR10,6,500,250,250,80,0.0005,2,4,1.9891748118972068,19.806415557861328,22.373191833496094,0.21551859378814697,FCN,MSE,Tanh,,False
2,0,CIFAR10,6,500,250,250,80,0.0005,2,5,1.9890399676872386,19.942068099975586,22.327730178833008,0.2328999936580658,FCN,MSE,Tanh,,False
2,0,CIFAR10,6,500,250,250,80,0.0005,2,latest,1.0878319788929953,18.996217727661133,3.158057928085327,0.20460821688175201,FCN,MSE,Tanh,,False
3,0,CIFAR10,6,500,250,250,80,0.0005,2,0,1.3977746977258947,46.05879211425781,22.352954864501953,0.08803872764110565,FCN,MSE,Tanh,,False
3,0,CIFAR10,6,500,250,250,80,0.0005,2,1,1.9699611268831332,19.484020233154297,22.326519012451172,0.20243573188781738,FCN,MSE,Tanh,,False
3,0,CIFAR10,6,500,250,250,80,0.0005,2,2,1.9553378577628184,19.373554229736328,22.296131134033203,0.197732076048851,FCN,MSE,Tanh,,False
3,0,CIFAR10,6,500,250,250,80,0.0005,2,3,1.9913846660894479,19.85665512084961,22.355052947998047,0.1974765956401825,FCN,MSE,Tanh,,False
3,0,CIFAR10,6,500,250,250,80,0.0005,2,4,1.987629182084126,19.806415557861328,22.373191833496094,0.21551856398582458,FCN,MSE,Tanh,,False
3,0,CIFAR10,6,500,250,250,80,0.0005,2,5,1.9890284005693544,19.94207000732422,22.327730178833008,0.232900008559227,FCN,MSE,Tanh,,False
3,0,CIFAR10,6,500,250,250,80,0.0005,2,latest,1.0858084287432601,18.996213912963867,3.1580557823181152,0.20460796356201172,FCN,MSE,Tanh,,False
4,0,CIFAR10,6,500,250,250,80,0.0005,2,0,1.400368066496958,46.05878448486328,22.352954864501953,0.08803877979516983,FCN,MSE,Tanh,,False
4,0,CIFAR10,6,500,250,250,80,0.0005,2,1,1.9705301138903042,19.484020233154297,22.326519012451172,0.20243585109710693,FCN,MSE,Tanh,,False
4,0,CIFAR10,6,500,250,250,80,0.0005,2,2,1.964812378543433,19.373554229736328,22.296131134033203,0.19773206114768982,FCN,MSE,Tanh,,False
4,0,CIFAR10,6,500,250,250,80,0.0005,2,3,1.9883936021928215,19.85665512084961,22.355051040649414,0.1974765509366989,FCN,MSE,Tanh,,False
4,0,CIFAR10,6,500,250,250,80,0.0005,2,4,1.9922831203717635,19.806415557861328,22.373191833496094,0.2155185341835022,FCN,MSE,Tanh,,False
4,0,CIFAR10,6,500,250,250,80,0.0005,2,5,1.989102056736659,19.94207000732422,22.327730178833008,0.23290002346038818,FCN,MSE,Tanh,,False
4,0,CIFAR10,6,500,250,250,80,0.0005,2,latest,1.0828955328125385,18.9962100982666,3.1580536365509033,0.20460771024227142,FCN,MSE,Tanh,,False
5,0,CIFAR10,6,500,250,250,80,0.0005,2,0,1.3990925368270766,46.05877685546875,22.352954864501953,0.08803883194923401,FCN,MSE,Tanh,,False
5,0,CIFAR10,6,500,250,250,80,0.0005,2,1,1.9753641710250684,19.484018325805664,22.326519012451172,0.20243597030639648,FCN,MSE,Tanh,,False
5,0,CIFAR10,6,500,250,250,80,0.0005,2,2,1.9611506298062584,19.373554229736328,22.296131134033203,0.19773204624652863,FCN,MSE,Tanh,,False
5,0,CIFAR10,6,500,250,250,80,0.0005,2,3,1.9909110363431113,19.85665512084961,22.355052947998047,0.19747650623321533,FCN,MSE,Tanh,,False
5,0,CIFAR10,6,500,250,250,80,0.0005,2,4,1.9921179665791215,19.806413650512695,22.373191833496094,0.2155185043811798,FCN,MSE,Tanh,,False
5,0,CIFAR10,6,500,250,250,80,0.0005,2,5,1.9873013860216824,19.94207000732422,22.327730178833008,0.23290003836154938,FCN,MSE,Tanh,,False
5,0,CIFAR10,6,500,250,250,80,0.0005,2,latest,1.0878466831831914,18.99620819091797,3.1580514907836914,0.20460745692253113,FCN,MSE,Tanh,,False
6,0,CIFAR10,6,500,250,250,80,0.0005,2,0,1.3989076303632682,46.05876159667969,22.352954864501953,0.08803888410329819,FCN,MSE,Tanh,,False
6,0,CIFAR10,6,500,250,250,80,0.0005,2,1,1.957915326581101,19.484018325805664,22.326519012451172,0.20243608951568604,FCN,MSE,Tanh,,False
6,0,CIFAR10,6,500,250,250,80,0.0005,2,2,1.966508406666959,19.373554229736328,22.296131134033203,0.19773203134536743,FCN,MSE,Tanh,,False
6,0,CIFAR10,6,500,250,250,80,0.0005,2,3,1.9887477111778498,19.85665512084961,22.355052947998047,0.19747646152973175,FCN,MSE,Tanh,,False
6,0,CIFAR10,6,500,250,250,80,0.0005,2,4,1.994204887228974,19.806413650512695,22.373191833496094,0.21551847457885742,FCN,MSE,Tanh,,False
6,0,CIFAR10,6,500,250,250,80,0.0005,2,5,1.983070846092327,19.94207000732422,22.327728271484375,0.23290005326271057,FCN,MSE,Tanh,,False
6,0,CIFAR10,6,500,250,250,80,0.0005,2,latest,1.0872822176849362,18.99620246887207,3.1580493450164795,0.20460721850395203,FCN,MSE,Tanh,,False
7,0,CIFAR10,6,500,250,250,80,0.0005,2,0,1.3995204121122216,46.05875778198242,22.352954864501953,0.08803893625736237,FCN,MSE,Tanh,,False
7,0,CIFAR10,6,500,250,250,80,0.0005,2,1,1.9722743538340959,19.484018325805664,22.326519012451172,0.20243620872497559,FCN,MSE,Tanh,,False
7,0,CIFAR10,6,500,250,250,80,0.0005,2,2,1.9599117924830098,19.373554229736328,22.296131134033203,0.19773201644420624,FCN,MSE,Tanh,,False
7,0,CIFAR10,6,500,250,250,80,0.0005,2,3,1.99159423371871,19.856658935546875,22.355051040649414,0.19747641682624817,FCN,MSE,Tanh,,False
7,0,CIFAR10,6,500,250,250,80,0.0005,2,4,1.9873064870615316,19.806411743164062,22.373191833496094,0.21551844477653503,FCN,MSE,Tanh,,False
7,0,CIFAR10,6,500,250,250,80,0.0005,2,5,1.9890669386968574,19.94207000732422,22.327728271484375,0.23290006816387177,FCN,MSE,Tanh,,False
7,0,CIFAR10,6,500,250,250,80,0.0005,2,latest,1.0875011585131444,18.996200561523438,3.1580471992492676,0.20460698008537292,FCN,MSE,Tanh,,False
8,0,CIFAR10,6,500,250,250,80,0.0005,2,0,1.395755008695866,46.058746337890625,22.352954864501953,0.08803898841142654,FCN,MSE,Tanh,,False
8,0,CIFAR10,6,500,250,250,80,0.0005,2,1,1.9753402097632295,19.48401641845703,22.326519012451172,0.20243632793426514,FCN,MSE,Tanh,,False
8,0,CIFAR10,6,500,250,250,80,0.0005,2,2,1.9667009862502298,19.373554229736328,22.29612922668457,0.19773200154304504,FCN,MSE,Tanh,,False
8,0,CIFAR10,6,500,250,250,80,0.0005,2,3,1.9876738648916452,19.856658935546875,22.355051040649414,0.1974763721227646,FCN,MSE,Tanh,,False
8,0,CIFAR10,6,500,250,250,80,0.0005,2,4,1.992197195659326,19.806411743164062,22.373191833496094,0.21551841497421265,FCN,MSE,Tanh,,False
8,0,CIFAR10,6,500,250,250,80,0.0005,2,5,1.9881109678126405,19.94207000732422,22.327728271484375,0.23290008306503296,FCN,MSE,Tanh,,False
8,0,CIFAR10,6,500,250,250,80,0.0005,2,latest,1.082899826073463,18.996196746826172,3.1580450534820557,0.20460674166679382,FCN,MSE,Tanh,,False
9,0,CIFAR10,6,500,250,250,80,0.0005,2,0,1.400463490738549,46.058738708496094,22.352954864501953,0.08803904056549072,FCN,MSE,Tanh,,False
9,0,CIFAR10,6,500,250,250,80,0.0005,2,1,1.9748423905802175,19.48401641845703,22.326519012451172,0.2024364471435547,FCN,MSE,Tanh,,False
9,0,CIFAR10,6,500,250,250,80,0.0005,2,2,1.9675069851006064,19.373554229736328,22.296131134033203,0.19773198664188385,FCN,MSE,Tanh,,False
9,0,CIFAR10,6,500,250,250,80,0.0005,2,3,1.9886663697195945,19.856658935546875,22.355052947998047,0.197476327419281,FCN,MSE,Tanh,,False
9,0,CIFAR10,6,500,250,250,80,0.0005,2,4,1.9941894644828801,19.806411743164062,22.373191833496094,0.21551838517189026,FCN,MSE,Tanh,,False
9,0,CIFAR10,6,500,250,250,80,0.0005,2,5,1.9889901014243283,19.94207000732422,22.327728271484375,0.23290009796619415,FCN,MSE,Tanh,,False
9,0,CIFAR10,6,500,250,250,80,0.0005,2,latest,1.0852505725835795,18.996192932128906,3.1580426692962646,0.20460651814937592,FCN,MSE,Tanh,,False
10,0,CIFAR10,6,500,250,250,80,0.0005,2,0,1.3958680400044612,46.05873107910156,22.352956771850586,0.0880390927195549,FCN,MSE,Tanh,,False
10,0,CIFAR10,6,500,250,250,80,0.0005,2,1,1.9755710316943722,19.48401641845703,22.326519012451172,0.20243656635284424,FCN,MSE,Tanh,,False
10,0,CIFAR10,6,500,250,250,80,0.0005,2,2,1.9643765181818738,19.373554229736328,22.296131134033203,0.19773197174072266,FCN,MSE,Tanh,,False
10,0,CIFAR10,6,500,250,250,80,0.0005,2,3,1.991100419656632,19.856658935546875,22.355051040649414,0.19747628271579742,FCN,MSE,Tanh,,False
10,0,CIFAR10,6,500,250,250,80,0.0005,2,4,1.9930062196959455,19.806411743164062,22.37318992614746,0.21551835536956787,FCN,MSE,Tanh,,False
10,0,CIFAR10,6,500,250,250,80,0.0005,2,5,1.9891234527142703,19.942073822021484,22.327728271484375,0.23290011286735535,FCN,MSE,Tanh,,False
10,0,CIFAR10,6,500,250,250,80,0.0005,2,latest,1.0878534772958053,18.99618911743164,3.158041000366211,0.204606294631958,FCN,MSE,Tanh,,False
11,0,CIFAR10,6,500,250,250,80,0.0005,2,0,1.3980297581066352,46.0587158203125,22.352954864501953,0.08803914487361908,FCN,MSE,Tanh,,False
11,0,CIFAR10,6,500,250,250,80,0.0005,2,1,1.975616711288679,19.48401641845703,22.326519012451172,0.2024366855621338,FCN,MSE,Tanh,,False
11,0,CIFAR10,6,500,250,250,80,0.0005,2,2,1.96427590751677,19.373554229736328,22.296131134033203,0.19773195683956146,FCN,MSE,Tanh,,False
11,0,CIFAR10,6,500,250,250,80,0.0005,2,3,1.9911671138354325,19.856658935546875,22.355051040649414,0.19747623801231384,FCN,MSE,Tanh,,False
11,0,CIFAR10,6,500,250,250,80,0.0005,2,4,1.991100715822122,19.806411743164062,22.373191833496094,0.21551832556724548,FCN,MSE,Tanh,,False
11,0,CIFAR10,6,500,250,250,80,0.0005,2,5,1.989134537889431,19.942073822021484,22.327728271484375,0.23290012776851654,FCN,MSE,Tanh,,False
11,0,CIFAR10,6,500,250,250,80,0.0005,2,latest,1.0878601942053074,18.996185302734375,3.158038854598999,0.2046060711145401,FCN,MSE,Tanh,,False
12,0,CIFAR10,6,500,250,250,80,0.0005,2,0,1.4007228731079897,46.058712005615234,22.352954864501953,0.08803919702768326,FCN,MSE,Tanh,,False
12,0,CIFAR10,6,500,250,250,80,0.0005,2,1,1.9756444734706937,19.4840145111084,22.326519012451172,0.20243680477142334,FCN,MSE,Tanh,,False
12,0,CIFAR10,6,500,250,250,80,0.0005,2,2,1.9652654339493951,19.373554229736328,22.296131134033203,0.19773194193840027,FCN,MSE,Tanh,,False
12,0,CIFAR10,6,500,250,250,80,0.0005,2,3,1.9903729720893222,19.856660842895508,22.355051040649414,0.19747619330883026,FCN,MSE,Tanh,,False
12,0,CIFAR10,6,500,250,250,80,0.0005,2,4,1.9930894193825788,19.806411743164062,22.37318992614746,0.2155182957649231,FCN,MSE,Tanh,,False
12,0,CIFAR10,6,500,250,250,80,0.0005,2,5,1.9888273723590326,19.942073822021484,22.327726364135742,0.23290014266967773,FCN,MSE,Tanh,,False
12,0,CIFAR10,6,500,250,250,80,0.0005,2,latest,1.0878360983430861,18.99618148803711,3.158036708831787,0.2046058624982834,FCN,MSE,Tanh,,False
13,0,CIFAR10,6,500,250,250,80,0.0005,2,0,1.4007484462871804,46.05870056152344,22.352954864501953,0.08803924918174744,FCN,MSE,Tanh,,False
13,0,CIFAR10,6,500,250,250,80,0.0005,2,1,1.9755528702280802,19.484012603759766,22.326519012451172,0.2024369239807129,FCN,MSE,Tanh,,False
13,0,CIFAR10,6,500,250,250,80,0.0005,2,2,1.9675398201655125,19.373554229736328,22.29612922668457,0.19773192703723907,FCN,MSE,Tanh,,False
13,0,CIFAR10,6,500,250,250,80,0.0005,2,3,1.988322918948036,19.856660842895508,22.355051040649414,0.19747616350650787,FCN,MSE,Tanh,,False
13,0,CIFAR10,6,500,250,250,80,0.0005,2,4,1.9928559617394135,19.806411743164062,22.37318992614746,0.2155182659626007,FCN,MSE,Tanh,,False
13,0,CIFAR10,6,500,250,250,80,0.0005,2,5,1.9886978415993217,19.942073822021484,22.327728271484375,0.23290015757083893,FCN,MSE,Tanh,,False
13,0,CIFAR10,6,500,250,250,80,0.0005,2,latest,1.0877222224113237,18.996179580688477,3.1580350399017334,0.20460565388202667,FCN,MSE,Tanh,,False
14,0,CIFAR10,6,500,250,250,80,0.0005,2,0,1.4008224013199078,46.058692932128906,22.352954864501953,0.08803930133581161,FCN,MSE,Tanh,,False
14,0,CIFAR10,6,500,250,250,80,0.0005,2,1,1.974784567111639,19.484012603759766,22.32651710510254,0.20243704319000244,FCN,MSE,Tanh,,False
14,0,CIFAR10,6,500,250,250,80,0.0005,2,2,1.96404163095983,19.373554229736328,22.29612922668457,0.19773191213607788,FCN,MSE,Tanh,,False
14,0,CIFAR10,6,500,250,250,80,0.0005,2,3,1.9885545703861602,19.856660842895508,22.355051040649414,0.19747613370418549,FCN,MSE,Tanh,,False
14,0,CIFAR10,6,500,250,250,80,0.0005,2,4,1.990061562550282,19.806411743164062,22.37318992614746,0.21551823616027832,FCN,MSE,Tanh,,False
14,0,CIFAR10,6,500,250,250,80,0.0005,2,5,1.9889711633224958,19.942073822021484,22.327726364135742,0.23290017247200012,FCN,MSE,Tanh,,False
14,0,CIFAR10,6,500,250,250,80,0.0005,2,latest,1.0878549667036346,18.996177673339844,3.1580328941345215,0.20460544526576996,FCN,MSE,Tanh,,False
15,0,CIFAR10,6,500,250,250,80,0.0005,2,0,1.4007325333625051,46.058685302734375,22.352954864501953,0.0880393534898758,FCN,MSE,Tanh,,False
15,0,CIFAR10,6,500,250,250,80,0.0005,2,1,1.9755529909125609,19.484012603759766,22.326519012451172,0.202437162399292,FCN,MSE,Tanh,,False
15,0,CIFAR10,6,500,250,250,80,0.0005,2,2,1.9671281461722656,19.373554229736328,22.296131134033203,0.1977318972349167,FCN,MSE,Tanh,,False
15,0,CIFAR10,6,500,250,250,80,0.0005,2,3,1.990787027709549,19.85666275024414,22.355051040649414,0.1974761039018631,FCN,MSE,Tanh,,False
15,0,CIFAR10,6,500,250,250,80,0.0005,2,4,1.9939100410539579,19.806411743164062,22.37318992614746,0.21551820635795593,FCN,MSE,Tanh,,False
15,0,CIFAR10,6,500,250,250,80,0.0005,2,5,1.9870137385088857,19.942073822021484,22.327726364135742,0.23290018737316132,FCN,MSE,Tanh,,False
15,0,CIFAR10,6,500,250,250,80,0.0005,2,latest,1.0846239007687293,18.996173858642578,3.1580307483673096,0.20460525155067444,FCN,MSE,Tanh,,False
16,0,CIFAR10,6,500,250,250,80,0.0005,2,0,1.3974045502851322,46.058677673339844,22.352954864501953,0.08803940564393997,FCN,MSE,Tanh,,False
16,0,CIFAR10,6,500,250,250,80,0.0005,2,1,1.9751912060663521,19.484012603759766,22.326519012451172,0.20243728160858154,FCN,MSE,Tanh,,False
16,0,CIFAR10,6,500,250,250,80,0.0005,2,2,1.967543947947188,19.37355613708496,22.29612922668457,0.1977318823337555,FCN,MSE,Tanh,,False
16,0,CIFAR10,6,500,250,250,80,0.0005,2,3,1.9912673321081584,19.85666275024414,22.355051040649414,0.1974760740995407,FCN,MSE,Tanh,,False
16,0,CIFAR10,6,500,250,250,80,0.0005,2,4,1.9883838919356052,19.806411743164062,22.37318992614746,0.21551817655563354,FCN,MSE,Tanh,,False
16,0,CIFAR10,6,500,250,250,80,0.0005,2,5,1.983940377285512,19.942073822021484,22.327726364135742,0.2329002022743225,FCN,MSE,Tanh,,False
16,0,CIFAR10,6,500,250,250,80,0.0005,2,latest,1.0877041066122992,18.996170043945312,3.1580288410186768,0.20460505783557892,FCN,MSE,Tanh,,False
17,0,CIFAR10,6,500,250,250,80,0.0005,2,0,1.4003031998014965,46.05867004394531,22.352954864501953,0.08803945779800415,FCN,MSE,Tanh,,False
17,0,CIFAR10,6,500,250,250,80,0.0005,2,1,1.975626848431754,19.484010696411133,22.326519012451172,0.2024374008178711,FCN,MSE,Tanh,,False
17,0,CIFAR10,6,500,250,250,80,0.0005,2,2,1.9650143498098165,19.37355613708496,22.29612922668457,0.1977318674325943,FCN,MSE,Tanh,,False
17,0,CIFAR10,6,500,250,250,80,0.0005,2,3,1.9914302219642324,19.85666275024414,22.355051040649414,0.19747604429721832,FCN,MSE,Tanh,,False
17,0,CIFAR10,6,500,250,250,80,0.0005,2,4,1.9925155088308086,19.80640983581543,22.37318992614746,0.21551814675331116,FCN,MSE,Tanh,,False
17,0,CIFAR10,6,500,250,250,80,0.0005,2,5,1.9803329535065508,19.94207763671875,22.327726364135742,0.2329002171754837,FCN,MSE,Tanh,,False
17,0,CIFAR10,6,500,250,250,80,0.0005,2,latest,1.0878317798197996,18.996166229248047,3.158027172088623,0.2046048641204834,FCN,MSE,Tanh,,False
18,0,CIFAR10,6,500,250,250,80,0.0005,2,0,1.3956865094361097,46.05866241455078,22.352954864501953,0.08803950995206833,FCN,MSE,Tanh,,False
18,0,CIFAR10,6,500,250,250,80,0.0005,2,1,1.9754750934302654,19.484010696411133,22.326519012451172,0.20243752002716064,FCN,MSE,Tanh,,False
18,0,CIFAR10,6,500,250,250,80,0.0005,2,2,1.9668931833304923,19.373554229736328,22.296131134033203,0.1977318525314331,FCN,MSE,Tanh,,False
18,0,CIFAR10,6,500,250,250,80,0.0005,2,3,1.9914655975422446,19.85666275024414,22.355051040649414,0.19747601449489594,FCN,MSE,Tanh,,False
18,0,CIFAR10,6,500,250,250,80,0.0005,2,4,1.9922004858195776,19.80640983581543,22.37318992614746,0.21551811695098877,FCN,MSE,Tanh,,False
18,0,CIFAR10,6,500,250,250,80,0.0005,2,5,1.9888519473992072,19.942075729370117,22.327726364135742,0.2329002320766449,FCN,MSE,Tanh,,False
18,0,CIFAR10,6,500,250,250,80,0.0005,2,latest,1.0878542767909545,18.99616241455078,3.158025026321411,0.20460468530654907,FCN,MSE,Tanh,,False
19,0,CIFAR10,6,500,250,250,80,0.0005,2,0,1.3980682586887079,46.05865478515625,22.352954864501953,0.08803956210613251,FCN,MSE,Tanh,,False
19,0,CIFAR10,6,500,250,250,80,0.0005,2,1,1.9570162652635525,19.4840087890625,22.326519012451172,0.2024376392364502,FCN,MSE,Tanh,,False
19,0,CIFAR10,6,500,250,250,80,0.0005,2,2,1.9673599300911357,19.373554229736328,22.296131134033203,0.1977318376302719,FCN,MSE,Tanh,,False
19,0,CIFAR10,6,500,250,250,80,0.0005,2,3,1.9868000861411923,19.856664657592773,22.355051040649414,0.19747598469257355,FCN,MSE,Tanh,,False
19,0,CIFAR10,6,500,250,250,80,0.0005,2,4,1.9873802076982052,19.806407928466797,22.37318992614746,0.21551808714866638,FCN,MSE,Tanh,,False
19,0,CIFAR10,6,500,250,250,80,0.0005,2,5,1.9890807816953084,19.942075729370117,22.327726364135742,0.2329002469778061,FCN,MSE,Tanh,,False
19,0,CIFAR10,6,500,250,250,80,0.0005,2,latest,1.0878473753724038,18.99616241455078,3.1580231189727783,0.20460450649261475,FCN,MSE,Tanh,,False
20,0,CIFAR10,6,500,250,250,80,0.0005,2,0,1.398933706211191,46.05864715576172,22.352954864501953,0.08803961426019669,FCN,MSE,Tanh,,False
20,0,CIFAR10,6,500,250,250,80,0.0005,2,1,1.9755666885531908,19.4840087890625,22.326519012451172,0.20243775844573975,FCN,MSE,Tanh,,False
20,0,CIFAR10,6,500,250,250,80,0.0005,2,2,1.9627032638723068,19.37355613708496,22.296131134033203,0.19773182272911072,FCN,MSE,Tanh,,False
20,0,CIFAR10,6,500,250,250,80,0.0005,2,3,1.9869062860132056,19.856666564941406,22.355051040649414,0.19747595489025116,FCN,MSE,Tanh,,False
20,0,CIFAR10,6,500,250,250,80,0.0005,2,4,1.9938192827868628,19.806407928466797,22.37318992614746,0.215518057346344,FCN,MSE,Tanh,,False
20,0,CIFAR10,6,500,250,250,80,0.0005,2,5,1.971158505432796,19.94207763671875,22.327726364135742,0.23290026187896729,FCN,MSE,Tanh,,False
20,0,CIFAR10,6,500,250,250,80,0.0005,2,latest,1.0877556808968407,18.996158599853516,3.1580212116241455,0.20460432767868042,FCN,MSE,Tanh,,False
21,0,CIFAR10,6,500,250,250,80,0.0005,2,0,1.3974854195914106,46.05863571166992,22.352954864501953,0.08803966641426086,FCN,MSE,Tanh,,False
21,0,CIFAR10,6,500,250,250,80,0.0005,2,1,1.9742391448633674,19.4840087890625,22.326519012451172,0.2024378776550293,FCN,MSE,Tanh,,False
21,0,CIFAR10,6,500,250,250,80,0.0005,2,2,1.9675529677177106,19.37355613708496,22.296131134033203,0.19773180782794952,FCN,MSE,Tanh,,False
21,0,CIFAR10,6,500,250,250,80,0.0005,2,3,1.9879251982503074,19.856666564941406,22.355051040649414,0.19747592508792877,FCN,MSE,Tanh,,False
21,0,CIFAR10,6,500,250,250,80,0.0005,2,4,1.992606863126084,19.80640983581543,22.37318992614746,0.2155180275440216,FCN,MSE,Tanh,,False
21,0,CIFAR10,6,500,250,250,80,0.0005,2,5,1.989078502978215,19.94207763671875,22.327726364135742,0.23290027678012848,FCN,MSE,Tanh,,False
21,0,CIFAR10,6,500,250,250,80,0.0005,2,latest,1.0878492035847571,18.996156692504883,3.1580193042755127,0.2046041488647461,FCN,MSE,Tanh,,False
22,0,CIFAR10,6,500,250,250,80,0.0005,2,0,1.39708503663122,46.058631896972656,22.352954864501953,0.08803971856832504,FCN,MSE,Tanh,,False
22,0,CIFAR10,6,500,250,250,80,0.0005,2,1,1.9749418678780868,19.4840087890625,22.32651710510254,0.20243799686431885,FCN,MSE,Tanh,,False
22,0,CIFAR10,6,500,250,250,80,0.0005,2,2,1.967467541263307,19.37355613708496,22.296131134033203,0.19773179292678833,FCN,MSE,Tanh,,False
22,0,CIFAR10,6,500,250,250,80,0.0005,2,3,1.989538188908145,19.856666564941406,22.355051040649414,0.19747589528560638,FCN,MSE,Tanh,,False
22,0,CIFAR10,6,500,250,250,80,0.0005,2,4,1.9929076440981766,19.806407928466797,22.37318992614746,0.21551799774169922,FCN,MSE,Tanh,,False
22,0,CIFAR10,6,500,250,250,80,0.0005,2,5,1.987175776203113,19.94207763671875,22.327726364135742,0.23290029168128967,FCN,MSE,Tanh,,False
22,0,CIFAR10,6,500,250,250,80,0.0005,2,latest,1.087848809996218,18.996152877807617,3.158017635345459,0.20460398495197296,FCN,MSE,Tanh,,False
23,0,CIFAR10,6,500,250,250,80,0.0005,2,0,1.400712405894295,46.058624267578125,22.352954864501953,0.08803977072238922,FCN,MSE,Tanh,,False
23,0,CIFAR10,6,500,250,250,80,0.0005,2,1,1.9679973352463906,19.484006881713867,22.32651710510254,0.2024381160736084,FCN,MSE,Tanh,,False
23,0,CIFAR10,6,500,250,250,80,0.0005,2,2,1.9665574474503191,19.373554229736328,22.29612922668457,0.19773177802562714,FCN,MSE,Tanh,,False
23,0,CIFAR10,6,500,250,250,80,0.0005,2,3,1.986840527739266,19.856666564941406,22.355051040649414,0.197475865483284,FCN,MSE,Tanh,,False
23,0,CIFAR10,6,500,250,250,80,0.0005,2,4,1.9939848328054683,19.806407928466797,22.37318992614746,0.21551796793937683,FCN,MSE,Tanh,,False
23,0,CIFAR10,6,500,250,250,80,0.0005,2,5,1.9890823399227786,19.94207763671875,22.327726364135742,0.23290030658245087,FCN,MSE,Tanh,,False
23,0,CIFAR10,6,500,250,250,80,0.0005,2,latest,1.0878442723588384,18.996150970458984,3.158015489578247,0.20460382103919983,FCN,MSE,Tanh,,False
24,0,CIFAR10,6,500,250,250,80,0.0005,2,0,1.3990265849982368,46.05861282348633,22.352954864501953,0.0880398228764534,FCN,MSE,Tanh,,False
24,0,CIFAR10,6,500,250,250,80,0.0005,2,1,1.966951669096318,19.484006881713867,22.32651710510254,0.20243823528289795,FCN,MSE,Tanh,,False
24,0,CIFAR10,6,500,250,250,80,0.0005,2,2,1.9585931754368173,19.373554229736328,22.296131134033203,0.19773176312446594,FCN,MSE,Tanh,,False
24,0,CIFAR10,6,500,250,250,80,0.0005,2,3,1.989003346924339,19.856666564941406,22.355051040649414,0.1974758356809616,FCN,MSE,Tanh,,False
24,0,CIFAR10,6,500,250,250,80,0.0005,2,4,1.9940462899191198,19.806407928466797,22.37318992614746,0.21551793813705444,FCN,MSE,Tanh,,False
24,0,CIFAR10,6,500,250,250,80,0.0005,2,5,1.989022826752782,19.94207763671875,22.327726364135742,0.23290032148361206,FCN,MSE,Tanh,,False
24,0,CIFAR10,6,500,250,250,80,0.0005,2,latest,1.087833094830665,18.99614906311035,3.1580138206481934,0.2046036571264267,FCN,MSE,Tanh,,False
25,0,CIFAR10,6,500,250,250,80,0.0005,2,0,1.4004492754073214,46.05860900878906,22.352954864501953,0.08803987503051758,FCN,MSE,Tanh,,False
25,0,CIFAR10,6,500,250,250,80,0.0005,2,1,1.9662343296414384,19.484004974365234,22.326519012451172,0.2024383544921875,FCN,MSE,Tanh,,False
25,0,CIFAR10,6,500,250,250,80,0.0005,2,2,1.9562516477535243,19.373554229736328,22.29612922668457,0.19773174822330475,FCN,MSE,Tanh,,False
25,0,CIFAR10,6,500,250,250,80,0.0005,2,3,1.9894993616195618,19.85666847229004,22.355051040649414,0.19747580587863922,FCN,MSE,Tanh,,False
25,0,CIFAR10,6,500,250,250,80,0.0005,2,4,1.9941748785202404,19.806407928466797,22.37318992614746,0.21551790833473206,FCN,MSE,Tanh,,False
25,0,CIFAR10,6,500,250,250,80,0.0005,2,5,1.988443545512373,19.94207763671875,22.327726364135742,0.23290033638477325,FCN,MSE,Tanh,,False
25,0,CIFAR10,6,500,250,250,80,0.0005,2,latest,1.0878492035847571,18.99614715576172,3.1580119132995605,0.20460349321365356,FCN,MSE,Tanh,,False
26,0,CIFAR10,6,500,250,250,80,0.0005,2,0,1.4004468510723933,46.05860137939453,22.352954864501953,0.08803992718458176,FCN,MSE,Tanh,,False
26,0,CIFAR10,6,500,250,250,80,0.0005,2,1,1.975442805857972,19.484004974365234,22.32651710510254,0.20243847370147705,FCN,MSE,Tanh,,False
26,0,CIFAR10,6,500,250,250,80,0.0005,2,2,1.958767854455461,19.373554229736328,22.29612922668457,0.19773173332214355,FCN,MSE,Tanh,,False
26,0,CIFAR10,6,500,250,250,80,0.0005,2,3,1.9908893031374495,19.856670379638672,22.355051040649414,0.19747577607631683,FCN,MSE,Tanh,,False
26,0,CIFAR10,6,500,250,250,80,0.0005,2,4,1.991567955660352,19.806407928466797,22.37318992614746,0.21551787853240967,FCN,MSE,Tanh,,False
26,0,CIFAR10,6,500,250,250,80,0.0005,2,5,1.9860467568759308,19.94207763671875,22.327726364135742,0.23290035128593445,FCN,MSE,Tanh,,False
26,0,CIFAR10,6,500,250,250,80,0.0005,2,latest,1.0878266192981652,18.996143341064453,3.158010244369507,0.20460334420204163,FCN,MSE,Tanh,,False
27,0,CIFAR10,6,500,250,250,80,0.0005,2,0,1.3998637660881745,46.05859375,22.352954864501953,0.08803997933864594,FCN,MSE,Tanh,,False
27,0,CIFAR10,6,500,250,250,80,0.0005,2,1,1.97398811460286,19.484004974365234,22.326519012451172,0.2024385929107666,FCN,MSE,Tanh,,False
27,0,CIFAR10,6,500,250,250,80,0.0005,2,2,1.9657985463767085,19.373554229736328,22.29612922668457,0.19773171842098236,FCN,MSE,Tanh,,False
27,0,CIFAR10,6,500,250,250,80,0.0005,2,3,1.9881091689792945,19.856670379638672,22.355051040649414,0.19747574627399445,FCN,MSE,Tanh,,False
27,0,CIFAR10,6,500,250,250,80,0.0005,2,4,1.9924577712170553,19.806407928466797,22.37318992614746,0.21551784873008728,FCN,MSE,Tanh,,False
27,0,CIFAR10,6,500,250,250,80,0.0005,2,5,1.9876155075960684,19.942079544067383,22.327726364135742,0.23290036618709564,FCN,MSE,Tanh,,False
27,0,CIFAR10,6,500,250,250,80,0.0005,2,latest,1.0878469023487767,18.99614143371582,3.158008337020874,0.2046031951904297,FCN,MSE,Tanh,,False
28,0,CIFAR10,6,500,250,250,80,0.0005,2,0,1.3939796850023427,46.05858612060547,22.352954864501953,0.08804003149271011,FCN,MSE,Tanh,,False
28,0,CIFAR10,6,500,250,250,80,0.0005,2,1,1.969577619006443,19.4840030670166,22.32651710510254,0.20243871212005615,FCN,MSE,Tanh,,False
28,0,CIFAR10,6,500,250,250,80,0.0005,2,2,1.9675798078395454,19.373554229736328,22.29612922668457,0.19773170351982117,FCN,MSE,Tanh,,False
28,0,CIFAR10,6,500,250,250,80,0.0005,2,3,1.9902457542529328,19.856670379638672,22.355051040649414,0.19747571647167206,FCN,MSE,Tanh,,False
28,0,CIFAR10,6,500,250,250,80,0.0005,2,4,1.9934500485659767,19.806407928466797,22.37318992614746,0.2155178189277649,FCN,MSE,Tanh,,False
28,0,CIFAR10,6,500,250,250,80,0.0005,2,5,1.988875084952834,19.942079544067383,22.327726364135742,0.23290038108825684,FCN,MSE,Tanh,,False
28,0,CIFAR10,6,500,250,250,80,0.0005,2,latest,1.0878271873164223,18.996139526367188,3.1580069065093994,0.20460304617881775,FCN,MSE,Tanh,,False
29,0,CIFAR10,6,500,250,250,80,0.0005,2,0,1.400766491441618,46.0585823059082,22.352954864501953,0.08804008364677429,FCN,MSE,Tanh,,False
29,0,CIFAR10,6,500,250,250,80,0.0005,2,1,1.975568740174006,19.4840030670166,22.32651710510254,0.2024388313293457,FCN,MSE,Tanh,,False
29,0,CIFAR10,6,500,250,250,80,0.0005,2,2,1.9674595413825173,19.37355613708496,22.29612922668457,0.19773168861865997,FCN,MSE,Tanh,,False
29,0,CIFAR10,6,500,250,250,80,0.0005,2,3,1.9891275292880608,19.856670379638672,22.355051040649414,0.19747568666934967,FCN,MSE,Tanh,,False
29,0,CIFAR10,6,500,250,250,80,0.0005,2,4,1.9936310564419013,19.806407928466797,22.37318992614746,0.2155177891254425,FCN,MSE,Tanh,,False
29,0,CIFAR10,6,500,250,250,80,0.0005,2,5,1.9888315694542147,19.942081451416016,22.327726364135742,0.23290039598941803,FCN,MSE,Tanh,,False
29,0,CIFAR10,6,500,250,250,80,0.0005,2,latest,1.0878003286696096,18.996135711669922,3.1580049991607666,0.2046028971672058,FCN,MSE,Tanh,,False
30,0,CIFAR10,6,500,250,250,80,0.0005,2,0,1.3956386775356906,46.05857467651367,22.352954864501953,0.08804013580083847,FCN,MSE,Tanh,,False
30,0,CIFAR10,6,500,250,250,80,0.0005,2,1,1.9755791174644133,19.4840030670166,22.32651710510254,0.20243895053863525,FCN,MSE,Tanh,,False
30,0,CIFAR10,6,500,250,250,80,0.0005,2,2,1.9591665641267217,19.37355613708496,22.29612922668457,0.19773167371749878,FCN,MSE,Tanh,,False
30,0,CIFAR10,6,500,250,250,80,0.0005,2,3,1.9887604814474924,19.856672286987305,22.355051040649414,0.19747565686702728,FCN,MSE,Tanh,,False
30,0,CIFAR10,6,500,250,250,80,0.0005,2,4,1.9914306988057866,19.806407928466797,22.37318992614746,0.21551775932312012,FCN,MSE,Tanh,,False
30,0,CIFAR10,6,500,250,250,80,0.0005,2,5,1.9891235126448328,19.942081451416016,22.327726364135742,0.23290041089057922,FCN,MSE,Tanh,,False
30,0,CIFAR10,6,500,250,250,80,0.0005,2,latest,1.0870756368643686,18.996135711669922,3.158003330230713,0.20460274815559387,FCN,MSE,Tanh,,False
31,0,CIFAR10,6,500,250,250,80,0.0005,2,0,1.3992919034586695,46.05856704711914,22.352954864501953,0.08804018795490265,FCN,MSE,Tanh,,False
31,0,CIFAR10,6,500,250,250,80,0.0005,2,1,1.975382094301644,19.48400115966797,22.32651710510254,0.2024390697479248,FCN,MSE,Tanh,,False
31,0,CIFAR10,6,500,250,250,80,0.0005,2,2,1.9653316066575628,19.37355613708496,22.29612922668457,0.19773165881633759,FCN,MSE,Tanh,,False
31,0,CIFAR10,6,500,250,250,80,0.0005,2,3,1.9884986397626456,19.856672286987305,22.355051040649414,0.1974756270647049,FCN,MSE,Tanh,,False
31,0,CIFAR10,6,500,250,250,80,0.0005,2,4,1.9941335709733832,19.806407928466797,22.37318992614746,0.21551772952079773,FCN,MSE,Tanh,,False
31,0,CIFAR10,6,500,250,250,80,0.0005,2,5,1.9891263293792418,19.942081451416016,22.327726364135742,0.23290042579174042,FCN,MSE,Tanh,,False
31,0,CIFAR10,6,500,250,250,80,0.0005,2,latest,1.08711612327858,18.996131896972656,3.158001661300659,0.20460261404514313,FCN,MSE,Tanh,,False
32,0,CIFAR10,6,500,250,250,80,0.0005,2,0,1.395625865141145,46.058563232421875,22.352954864501953,0.08804024010896683,FCN,MSE,Tanh,,False
32,0,CIFAR10,6,500,250,250,80,0.0005,2,1,1.9752906113634956,19.48400115966797,22.32651710510254,0.20243918895721436,FCN,MSE,Tanh,,False
32,0,CIFAR10,6,500,250,250,80,0.0005,2,2,1.955634371632123,19.37355613708496,22.29612922668457,0.1977316439151764,FCN,MSE,Tanh,,False
32,0,CIFAR10,6,500,250,250,80,0.0005,2,3,1.9908322973933916,19.856674194335938,22.355051040649414,0.1974755972623825,FCN,MSE,Tanh,,False
32,0,CIFAR10,6,500,250,250,80,0.0005,2,4,1.9934956171861855,19.806407928466797,22.37318992614746,0.21551769971847534,FCN,MSE,Tanh,,False
32,0,CIFAR10,6,500,250,250,80,0.0005,2,5,1.9888324685443974,19.942081451416016,22.32772445678711,0.2329004406929016,FCN,MSE,Tanh,,False
32,0,CIFAR10,6,500,250,250,80,0.0005,2,latest,1.0870755919985875,18.99612808227539,3.1579999923706055,0.20460247993469238,FCN,MSE,Tanh,,False
33,0,CIFAR10,6,500,250,250,80,0.0005,2,0,1.4005821464537123,46.058555603027344,22.352954864501953,0.088040292263031,FCN,MSE,Tanh,,False
33,0,CIFAR10,6,500,250,250,80,0.0005,2,1,1.9683239755719397,19.48400115966797,22.32651710510254,0.2024393081665039,FCN,MSE,Tanh,,False
33,0,CIFAR10,6,500,250,250,80,0.0005,2,2,1.9662780986701283,19.37355613708496,22.29612922668457,0.1977316290140152,FCN,MSE,Tanh,,False
33,0,CIFAR10,6,500,250,250,80,0.0005,2,3,1.9887470545074124,19.856674194335938,22.355051040649414,0.19747556746006012,FCN,MSE,Tanh,,False
33,0,CIFAR10,6,500,250,250,80,0.0005,2,4,1.993872434868776,19.806407928466797,22.37318992614746,0.21551766991615295,FCN,MSE,Tanh,,False
33,0,CIFAR10,6,500,250,250,80,0.0005,2,5,1.988736563300891,19.942081451416016,22.327726364135742,0.2329004555940628,FCN,MSE,Tanh,,False
33,0,CIFAR10,6,500,250,250,80,0.0005,2,latest,1.0878354855836256,18.99612808227539,3.1579980850219727,0.20460234582424164,FCN,MSE,Tanh,,False
34,0,CIFAR10,6,500,250,250,80,0.0005,2,0,1.4006677669888192,46.05854797363281,22.352954864501953,0.08804034441709518,FCN,MSE,Tanh,,False
34,0,CIFAR10,6,500,250,250,80,0.0005,2,1,1.961742094666903,19.48400115966797,22.32651710510254,0.20243942737579346,FCN,MSE,Tanh,,False
34,0,CIFAR10,6,500,250,250,80,0.0005,2,2,1.9655693640666247,19.37355613708496,22.29612922668457,0.197731614112854,FCN,MSE,Tanh,,False
34,0,CIFAR10,6,500,250,250,80,0.0005,2,3,1.9874599836627571,19.856674194335938,22.355051040649414,0.19747553765773773,FCN,MSE,Tanh,,False
34,0,CIFAR10,6,500,250,250,80,0.0005,2,4,1.9919196453662962,19.80640411376953,22.37318992614746,0.21551764011383057,FCN,MSE,Tanh,,False
34,0,CIFAR10,6,500,250,250,80,0.0005,2,5,1.9683350663379153,19.942081451416016,22.32772445678711,0.232900470495224,FCN,MSE,Tanh,,False
34,0,CIFAR10,6,500,250,250,80,0.0005,2,latest,1.087714079908851,18.996124267578125,3.157996416091919,0.2046022117137909,FCN,MSE,Tanh,,False
35,0,CIFAR10,6,500,250,250,80,0.0005,2,0,1.3993765379406145,46.05854415893555,22.352954864501953,0.08804039657115936,FCN,MSE,Tanh,,False
35,0,CIFAR10,6,500,250,250,80,0.0005,2,1,1.9749553313213748,19.48400115966797,22.32651710510254,0.202439546585083,FCN,MSE,Tanh,,False
35,0,CIFAR10,6,500,250,250,80,0.0005,2,2,1.9672467987115942,19.37355613708496,22.29612922668457,0.1977315992116928,FCN,MSE,Tanh,,False
35,0,CIFAR10,6,500,250,250,80,0.0005,2,3,1.9893755040603298,19.85667610168457,22.355051040649414,0.19747550785541534,FCN,MSE,Tanh,,False
35,0,CIFAR10,6,500,250,250,80,0.0005,2,4,1.992800209854937,19.80640411376953,22.37318992614746,0.21551761031150818,FCN,MSE,Tanh,,False
35,0,CIFAR10,6,500,250,250,80,0.0005,2,5,1.9888580611425206,19.942081451416016,22.32772445678711,0.2329004853963852,FCN,MSE,Tanh,,False
35,0,CIFAR10,6,500,250,250,80,0.0005,2,latest,1.0878332491590754,18.996124267578125,3.1579947471618652,0.20460207760334015,FCN,MSE,Tanh,,False
36,0,CIFAR10,6,500,250,250,80,0.0005,2,0,1.3994341678209168,46.05854034423828,22.352954864501953,0.08804044872522354,FCN,MSE,Tanh,,False
36,0,CIFAR10,6,500,250,250,80,0.0005,2,1,1.97533732189644,19.483999252319336,22.32651710510254,0.20243966579437256,FCN,MSE,Tanh,,False
36,0,CIFAR10,6,500,250,250,80,0.0005,2,2,1.9655246047928014,19.37355613708496,22.29612922668457,0.19773158431053162,FCN,MSE,Tanh,,False
36,0,CIFAR10,6,500,250,250,80,0.0005,2,3,1.9894719795968308,19.856674194335938,22.355051040649414,0.19747547805309296,FCN,MSE,Tanh,,False
36,0,CIFAR10,6,500,250,250,80,0.0005,2,4,1.9941813933518184,19.806406021118164,22.37318992614746,0.2155175805091858,FCN,MSE,Tanh,,False
36,0,CIFAR10,6,500,250,250,80,0.0005,2,5,1.9864837975579375,19.942081451416016,22.32772445678711,0.2329005002975464,FCN,MSE,Tanh,,False
36,0,CIFAR10,6,500,250,250,80,0.0005,2,latest,1.0877832105132932,18.99612045288086,3.1579930782318115,0.2046019583940506,FCN,MSE,Tanh,,False
37,0,CIFAR10,6,500,250,250,80,0.0005,2,0,1.394392586632244,46.05853271484375,22.352954864501953,0.08804050087928772,FCN,MSE,Tanh,,False
37,0,CIFAR10,6,500,250,250,80,0.0005,2,1,1.9742463272652961,19.483999252319336,22.32651710510254,0.2024397850036621,FCN,MSE,Tanh,,False
37,0,CIFAR10,6,500,250,250,80,0.0005,2,2,1.9575124010353027,19.37355613708496,22.29612922668457,0.19773156940937042,FCN,MSE,Tanh,,False
37,0,CIFAR10,6,500,250,250,80,0.0005,2,3,1.986844304552059,19.856678009033203,22.35504913330078,0.19747544825077057,FCN,MSE,Tanh,,False
37,0,CIFAR10,6,500,250,250,80,0.0005,2,4,1.9870655712641125,19.806407928466797,22.37318992614746,0.2155175507068634,FCN,MSE,Tanh,,False
37,0,CIFAR10,6,500,250,250,80,0.0005,2,5,1.9830686218923215,19.94208526611328,22.32772445678711,0.23290051519870758,FCN,MSE,Tanh,,False
37,0,CIFAR10,6,500,250,250,80,0.0005,2,latest,1.0877404922634448,18.99612045288086,3.157991409301758,0.20460183918476105,FCN,MSE,Tanh,,False
38,0,CIFAR10,6,500,250,250,80,0.0005,2,0,1.4002558644680525,46.05852508544922,22.352954864501953,0.0880405530333519,FCN,MSE,Tanh,,False
38,0,CIFAR10,6,500,250,250,80,0.0005,2,1,1.974773215298803,19.483997344970703,22.32651710510254,0.20243990421295166,FCN,MSE,Tanh,,False
38,0,CIFAR10,6,500,250,250,80,0.0005,2,2,1.9631905593868522,19.37355613708496,22.29612922668457,0.19773155450820923,FCN,MSE,Tanh,,False
38,0,CIFAR10,6,500,250,250,80,0.0005,2,3,1.9866833814562141,19.856678009033203,22.355051040649414,0.19747541844844818,FCN,MSE,Tanh,,False
38,0,CIFAR10,6,500,250,250,80,0.0005,2,4,1.9876178496212362,19.80640411376953,22.37318992614746,0.21551752090454102,FCN,MSE,Tanh,,False
38,0,CIFAR10,6,500,250,250,80,0.0005,2,5,1.989126031026656,19.94208335876465,22.32772445678711,0.23290053009986877,FCN,MSE,Tanh,,False
38,0,CIFAR10,6,500,250,250,80,0.0005,2,latest,1.087312116506752,18.996116638183594,3.157989978790283,0.2046017199754715,FCN,MSE,Tanh,,False
39,0,CIFAR10,6,500,250,250,80,0.0005,2,0,1.3944972687462034,46.05851745605469,22.352954864501953,0.08804060518741608,FCN,MSE,Tanh,,False
39,0,CIFAR10,6,500,250,250,80,0.0005,2,1,1.9559477892579287,19.483997344970703,22.32651710510254,0.2024400234222412,FCN,MSE,Tanh,,False
39,0,CIFAR10,6,500,250,250,80,0.0005,2,2,1.9670327564187655,19.37355613708496,22.29612922668457,0.19773153960704803,FCN,MSE,Tanh,,False
39,0,CIFAR10,6,500,250,250,80,0.0005,2,3,1.9914177109475097,19.856678009033203,22.35504913330078,0.1974753886461258,FCN,MSE,Tanh,,False
39,0,CIFAR10,6,500,250,250,80,0.0005,2,4,1.9868934465212131,19.806406021118164,22.37318992614746,0.21551749110221863,FCN,MSE,Tanh,,False
39,0,CIFAR10,6,500,250,250,80,0.0005,2,5,1.9780750168070198,19.94208526611328,22.32772445678711,0.23290054500102997,FCN,MSE,Tanh,,False
39,0,CIFAR10,6,500,250,250,80,0.0005,2,latest,1.087845368188752,18.996116638183594,3.1579880714416504,0.20460160076618195,FCN,MSE,Tanh,,False
40,0,CIFAR10,6,500,250,250,80,0.0005,2,0,1.3943137632403002,46.05851745605469,22.352954864501953,0.08804065734148026,FCN,MSE,Tanh,,False
40,0,CIFAR10,6,500,250,250,80,0.0005,2,1,1.9724745832026482,19.483997344970703,22.32651710510254,0.20244014263153076,FCN,MSE,Tanh,,False
40,0,CIFAR10,6,500,250,250,80,0.0005,2,2,1.96739961845516,19.37355613708496,22.29612922668457,0.19773152470588684,FCN,MSE,Tanh,,False
40,0,CIFAR10,6,500,250,250,80,0.0005,2,3,1.991353177125886,19.856678009033203,22.35504913330078,0.1974753588438034,FCN,MSE,Tanh,,False
40,0,CIFAR10,6,500,250,250,80,0.0005,2,4,1.986735705990912,19.806406021118164,22.37318992614746,0.21551746129989624,FCN,MSE,Tanh,,False
40,0,CIFAR10,6,500,250,250,80,0.0005,2,5,1.988985547048698,19.94208526611328,22.32772445678711,0.23290055990219116,FCN,MSE,Tanh,,False
40,0,CIFAR10,6,500,250,250,80,0.0005,2,latest,1.0878462448518882,18.996112823486328,3.157986640930176,0.2046014815568924,FCN,MSE,Tanh,,False
41,0,CIFAR10,6,500,250,250,80,0.0005,2,0,1.3962017515199867,46.058509826660156,22.352954864501953,0.08804070949554443,FCN,MSE,Tanh,,False
41,0,CIFAR10,6,500,250,250,80,0.0005,2,1,1.9747959097853112,19.483997344970703,22.32651710510254,0.2024402618408203,FCN,MSE,Tanh,,False
41,0,CIFAR10,6,500,250,250,80,0.0005,2,2,1.9656802226952732,19.373558044433594,22.29612922668457,0.19773150980472565,FCN,MSE,Tanh,,False
41,0,CIFAR10,6,500,250,250,80,0.0005,2,3,1.9887239747203211,19.856678009033203,22.35504913330078,0.19747532904148102,FCN,MSE,Tanh,,False
41,0,CIFAR10,6,500,250,250,80,0.0005,2,4,1.9940616543458223,19.806406021118164,22.373188018798828,0.21551743149757385,FCN,MSE,Tanh,,False
41,0,CIFAR10,6,500,250,250,80,0.0005,2,5,1.987953745072886,19.94208526611328,22.327722549438477,0.23290057480335236,FCN,MSE,Tanh,,False
41,0,CIFAR10,6,500,250,250,80,0.0005,2,latest,1.0878140270175314,18.996112823486328,3.157984972000122,0.20460137724876404,FCN,MSE,Tanh,,False
42,0,CIFAR10,6,500,250,250,80,0.0005,2,0,1.3972562797677468,46.05850601196289,22.352954864501953,0.08804075419902802,FCN,MSE,Tanh,,False
42,0,CIFAR10,6,500,250,250,80,0.0005,2,1,1.975573264335676,19.48399543762207,22.32651710510254,0.20244038105010986,FCN,MSE,Tanh,,False
42,0,CIFAR10,6,500,250,250,80,0.0005,2,2,1.9670372430623886,19.373558044433594,22.29612922668457,0.19773149490356445,FCN,MSE,Tanh,,False
42,0,CIFAR10,6,500,250,250,80,0.0005,2,3,1.9887411788466667,19.856678009033203,22.35504913330078,0.19747529923915863,FCN,MSE,Tanh,,False
42,0,CIFAR10,6,500,250,250,80,0.0005,2,4,1.9870637714843982,19.806406021118164,22.373188018798828,0.21551740169525146,FCN,MSE,Tanh,,False
42,0,CIFAR10,6,500,250,250,80,0.0005,2,5,1.989085215342495,19.94208526611328,22.327722549438477,0.23290058970451355,FCN,MSE,Tanh,,False
42,0,CIFAR10,6,500,250,250,80,0.0005,2,latest,1.0860455784150345,18.996109008789062,3.1579833030700684,0.20460127294063568,FCN,MSE,Tanh,,False
43,0,CIFAR10,6,500,250,250,80,0.0005,2,0,1.4006504046660997,46.058502197265625,22.352954864501953,0.0880407989025116,FCN,MSE,Tanh,,False
43,0,CIFAR10,6,500,250,250,80,0.0005,2,1,1.9756118796715563,19.483993530273438,22.32651710510254,0.20244050025939941,FCN,MSE,Tanh,,False
43,0,CIFAR10,6,500,250,250,80,0.0005,2,2,1.9672704274725143,19.373558044433594,22.29612922668457,0.19773148000240326,FCN,MSE,Tanh,,False
43,0,CIFAR10,6,500,250,250,80,0.0005,2,3,1.9911904626292223,19.856679916381836,22.35504913330078,0.19747526943683624,FCN,MSE,Tanh,,False
43,0,CIFAR10,6,500,250,250,80,0.0005,2,4,1.9939782565049577,19.806406021118164,22.373188018798828,0.21551737189292908,FCN,MSE,Tanh,,False
43,0,CIFAR10,6,500,250,250,80,0.0005,2,5,1.9765342165559308,19.94208526611328,22.32772445678711,0.23290060460567474,FCN,MSE,Tanh,,False
43,0,CIFAR10,6,500,250,250,80,0.0005,2,latest,1.0869851631575242,18.996109008789062,3.1579818725585938,0.20460116863250732,FCN,MSE,Tanh,,False
44,0,CIFAR10,6,500,250,250,80,0.0005,2,0,1.3924278804782633,46.058494567871094,22.352954864501953,0.08804084360599518,FCN,MSE,Tanh,,False
44,0,CIFAR10,6,500,250,250,80,0.0005,2,1,1.975584428968622,19.483993530273438,22.32651710510254,0.20244061946868896,FCN,MSE,Tanh,,False
44,0,CIFAR10,6,500,250,250,80,0.0005,2,2,1.9647000712665985,19.373558044433594,22.29612922668457,0.19773146510124207,FCN,MSE,Tanh,,False
44,0,CIFAR10,6,500,250,250,80,0.0005,2,3,1.9870982069868124,19.85668182373047,22.35504913330078,0.19747523963451385,FCN,MSE,Tanh,,False
44,0,CIFAR10,6,500,250,250,80,0.0005,2,4,1.9883364101026144,19.806406021118164,22.37318992614746,0.2155173420906067,FCN,MSE,Tanh,,False
44,0,CIFAR10,6,500,250,250,80,0.0005,2,5,1.9886102010814217,19.94208526611328,22.327722549438477,0.23290061950683594,FCN,MSE,Tanh,,False
44,0,CIFAR10,6,500,250,250,80,0.0005,2,latest,1.0878164379089144,18.996105194091797,3.15798020362854,0.20460106432437897,FCN,MSE,Tanh,,False
45,0,CIFAR10,6,500,250,250,80,0.0005,2,0,1.399778650019566,46.05848693847656,22.352954864501953,0.08804088830947876,FCN,MSE,Tanh,,False
45,0,CIFAR10,6,500,250,250,80,0.0005,2,1,1.9755477411308446,19.483993530273438,22.32651710510254,0.20244073867797852,FCN,MSE,Tanh,,False
45,0,CIFAR10,6,500,250,250,80,0.0005,2,2,1.9659437695833608,19.373558044433594,22.29612922668457,0.19773145020008087,FCN,MSE,Tanh,,False
45,0,CIFAR10,6,500,250,250,80,0.0005,2,3,1.9908938527266358,19.85668182373047,22.35504913330078,0.19747520983219147,FCN,MSE,Tanh,,False
45,0,CIFAR10,6,500,250,250,80,0.0005,2,4,1.9940329587081627,19.80640411376953,22.37318992614746,0.2155173122882843,FCN,MSE,Tanh,,False
45,0,CIFAR10,6,500,250,250,80,0.0005,2,5,1.9876886770072624,19.942087173461914,22.32772445678711,0.23290063440799713,FCN,MSE,Tanh,,False
45,0,CIFAR10,6,500,250,250,80,0.0005,2,latest,1.0877715816595823,18.996105194091797,3.1579787731170654,0.2046009600162506,FCN,MSE,Tanh,,False
46,0,CIFAR10,6,500,250,250,80,0.0005,2,0,1.3979364682164628,46.05848693847656,22.352954864501953,0.08804093301296234,FCN,MSE,Tanh,,False
46,0,CIFAR10,6,500,250,250,80,0.0005,2,1,1.9740297879963957,19.483991622924805,22.32651710510254,0.20244085788726807,FCN,MSE,Tanh,,False
46,0,CIFAR10,6,500,250,250,80,0.0005,2,2,1.9668273600424797,19.373558044433594,22.29612922668457,0.19773143529891968,FCN,MSE,Tanh,,False
46,0,CIFAR10,6,500,250,250,80,0.0005,2,3,1.9894799476911083,19.85668182373047,22.35504913330078,0.19747518002986908,FCN,MSE,Tanh,,False
46,0,CIFAR10,6,500,250,250,80,0.0005,2,4,1.9908731350832825,19.80640411376953,22.373188018798828,0.21551728248596191,FCN,MSE,Tanh,,False
46,0,CIFAR10,6,500,250,250,80,0.0005,2,5,1.9889896831983278,19.94208526611328,22.327722549438477,0.23290064930915833,FCN,MSE,Tanh,,False
46,0,CIFAR10,6,500,250,250,80,0.0005,2,latest,1.0793650585924988,18.99610137939453,3.1579771041870117,0.20460085570812225,FCN,MSE,Tanh,,False
47,0,CIFAR10,6,500,250,250,80,0.0005,2,0,1.3976467177021745,46.05847930908203,22.352954864501953,0.08804097771644592,FCN,MSE,Tanh,,False
47,0,CIFAR10,6,500,250,250,80,0.0005,2,1,1.9752025524524621,19.483993530273438,22.32651710510254,0.20244097709655762,FCN,MSE,Tanh,,False
47,0,CIFAR10,6,500,250,250,80,0.0005,2,2,1.9675379536417021,19.373558044433594,22.29612922668457,0.19773142039775848,FCN,MSE,Tanh,,False
47,0,CIFAR10,6,500,250,250,80,0.0005,2,3,1.9914046002063523,19.8566837310791,22.35504913330078,0.1974751502275467,FCN,MSE,Tanh,,False
47,0,CIFAR10,6,500,250,250,80,0.0005,2,4,1.987272293591652,19.80640411376953,22.37318992614746,0.21551725268363953,FCN,MSE,Tanh,,False
47,0,CIFAR10,6,500,250,250,80,0.0005,2,5,1.9878007641933253,19.942087173461914,22.327722549438477,0.23290066421031952,FCN,MSE,Tanh,,False
47,0,CIFAR10,6,500,250,250,80,0.0005,2,latest,1.087559493552368,18.99610137939453,3.157975435256958,0.2046007513999939,FCN,MSE,Tanh,,False
48,0,CIFAR10,6,500,250,250,80,0.0005,2,0,1.3986504230143504,46.058475494384766,22.352954864501953,0.0880410224199295,FCN,MSE,Tanh,,False
48,0,CIFAR10,6,500,250,250,80,0.0005,2,1,1.973751255201698,19.483993530273438,22.32651710510254,0.20244109630584717,FCN,MSE,Tanh,,False
48,0,CIFAR10,6,500,250,250,80,0.0005,2,2,1.967327873887278,19.373558044433594,22.29612922668457,0.1977314054965973,FCN,MSE,Tanh,,False
48,0,CIFAR10,6,500,250,250,80,0.0005,2,3,1.9913711969785752,19.8566837310791,22.35504913330078,0.1974751204252243,FCN,MSE,Tanh,,False
48,0,CIFAR10,6,500,250,250,80,0.0005,2,4,1.9927388335922402,19.80640411376953,22.37318992614746,0.21551722288131714,FCN,MSE,Tanh,,False
48,0,CIFAR10,6,500,250,250,80,0.0005,2,5,1.9748212630817896,19.942089080810547,22.327722549438477,0.2329006791114807,FCN,MSE,Tanh,,False
48,0,CIFAR10,6,500,250,250,80,0.0005,2,latest,1.0874530453246374,18.9960994720459,3.1579740047454834,0.20460066199302673,FCN,MSE,Tanh,,False
49,0,CIFAR10,6,500,250,250,80,0.0005,2,0,1.396158887371461,46.0584716796875,22.35295295715332,0.08804106712341309,FCN,MSE,Tanh,,False
49,0,CIFAR10,6,500,250,250,80,0.0005,2,1,1.9722130036998438,19.483989715576172,22.32651710510254,0.20244121551513672,FCN,MSE,Tanh,,False
49,0,CIFAR10,6,500,250,250,80,0.0005,2,2,1.9655387927239172,19.373558044433594,22.29612922668457,0.1977313905954361,FCN,MSE,Tanh,,False
49,0,CIFAR10,6,500,250,250,80,0.0005,2,3,1.9899917781103094,19.856685638427734,22.35504913330078,0.19747509062290192,FCN,MSE,Tanh,,False
49,0,CIFAR10,6,500,250,250,80,0.0005,2,4,1.987501909746896,19.80640411376953,22.373188018798828,0.21551719307899475,FCN,MSE,Tanh,,False
49,0,CIFAR10,6,500,250,250,80,0.0005,2,5,1.9875341214368811,19.942089080810547,22.327722549438477,0.2329006940126419,FCN,MSE,Tanh,,False
49,0,CIFAR10,6,500,250,250,80,0.0005,2,latest,1.0878134242938509,18.996097564697266,3.157972574234009,0.20460057258605957,FCN,MSE,Tanh,,False
50,0,CIFAR10,6,500,250,250,80,0.0005,2,0,1.3976350325311415,46.058467864990234,22.35295295715332,0.08804111182689667,FCN,MSE,Tanh,,False
50,0,CIFAR10,6,500,250,250,80,0.0005,2,1,1.967696312747516,19.483989715576172,22.32651710510254,0.20244131982326508,FCN,MSE,Tanh,,False
50,0,CIFAR10,6,500,250,250,80,0.0005,2,2,1.9647173115415133,19.373558044433594,22.29612922668457,0.1977313756942749,FCN,MSE,Tanh,,False
50,0,CIFAR10,6,500,250,250,80,0.0005,2,3,1.9912714040375206,19.8566837310791,22.35504913330078,0.19747506082057953,FCN,MSE,Tanh,,False
50,0,CIFAR10,6,500,250,250,80,0.0005,2,4,1.993729595523464,19.80640411376953,22.373188018798828,0.21551716327667236,FCN,MSE,Tanh,,False
50,0,CIFAR10,6,500,250,250,80,0.0005,2,5,1.9890646599625263,19.942089080810547,22.327722549438477,0.2329007089138031,FCN,MSE,Tanh,,False
50,0,CIFAR10,6,500,250,250,80,0.0005,2,latest,1.0878340810877707,18.996097564697266,3.157970905303955,0.2046004831790924,FCN,MSE,Tanh,,False
51,0,CIFAR10,6,500,250,250,80,0.0005,2,0,1.395142023452133,46.05846405029297,22.35295295715332,0.08804115653038025,FCN,MSE,Tanh,,False
51,0,CIFAR10,6,500,250,250,80,0.0005,2,1,1.975381852911794,19.483989715576172,22.32651710510254,0.20244142413139343,FCN,MSE,Tanh,,False
51,0,CIFAR10,6,500,250,250,80,0.0005,2,2,1.9553174895977357,19.373558044433594,22.29612922668457,0.1977313607931137,FCN,MSE,Tanh,,False
51,0,CIFAR10,6,500,250,250,80,0.0005,2,3,1.987673443597763,19.8566837310791,22.35504913330078,0.19747503101825714,FCN,MSE,Tanh,,False
51,0,CIFAR10,6,500,250,250,80,0.0005,2,4,1.9880418914433844,19.80640411376953,22.373188018798828,0.21551713347434998,FCN,MSE,Tanh,,False
51,0,CIFAR10,6,500,250,250,80,0.0005,2,5,1.9889418548170938,19.942089080810547,22.327722549438477,0.2329007238149643,FCN,MSE,Tanh,,False
51,0,CIFAR10,6,500,250,250,80,0.0005,2,latest,1.0872661129616674,18.99609375,3.1579694747924805,0.20460039377212524,FCN,MSE,Tanh,,False
52,0,CIFAR10,6,500,250,250,80,0.0005,2,0,1.3921801411683625,46.0584602355957,22.352954864501953,0.08804120123386383,FCN,MSE,Tanh,,False
52,0,CIFAR10,6,500,250,250,80,0.0005,2,1,1.974744846074033,19.483989715576172,22.32651710510254,0.2024415284395218,FCN,MSE,Tanh,,False
52,0,CIFAR10,6,500,250,250,80,0.0005,2,2,1.9675347385710635,19.373558044433594,22.29612922668457,0.19773134589195251,FCN,MSE,Tanh,,False
52,0,CIFAR10,6,500,250,250,80,0.0005,2,3,1.9915770539051452,19.856685638427734,22.35504913330078,0.19747500121593475,FCN,MSE,Tanh,,False
52,0,CIFAR10,6,500,250,250,80,0.0005,2,4,1.9933025152891353,19.80640411376953,22.373188018798828,0.2155171036720276,FCN,MSE,Tanh,,False
52,0,CIFAR10,6,500,250,250,80,0.0005,2,5,1.9854561571301408,19.942089080810547,22.327722549438477,0.2329007238149643,FCN,MSE,Tanh,,False
52,0,CIFAR10,6,500,250,250,80,0.0005,2,latest,1.0877463007035297,18.996091842651367,3.1579678058624268,0.20460030436515808,FCN,MSE,Tanh,,False
53,0,CIFAR10,6,500,250,250,80,0.0005,2,0,1.4002101467994708,46.05845260620117,22.352954864501953,0.08804124593734741,FCN,MSE,Tanh,,False
53,0,CIFAR10,6,500,250,250,80,0.0005,2,1,1.9657766505024534,19.483989715576172,22.32651710510254,0.20244163274765015,FCN,MSE,Tanh,,False
53,0,CIFAR10,6,500,250,250,80,0.0005,2,2,1.9671794176187176,19.373558044433594,22.29612922668457,0.19773133099079132,FCN,MSE,Tanh,,False
53,0,CIFAR10,6,500,250,250,80,0.0005,2,3,1.9913889163233027,19.856687545776367,22.35504913330078,0.19747497141361237,FCN,MSE,Tanh,,False
53,0,CIFAR10,6,500,250,250,80,0.0005,2,4,1.9940957896603324,19.80640411376953,22.373188018798828,0.2155170738697052,FCN,MSE,Tanh,,False
53,0,CIFAR10,6,500,250,250,80,0.0005,2,5,1.9878494595983212,19.942089080810547,22.327722549438477,0.2329007238149643,FCN,MSE,Tanh,,False
53,0,CIFAR10,6,500,250,250,80,0.0005,2,latest,1.085554206222152,18.996089935302734,3.157966375350952,0.20460021495819092,FCN,MSE,Tanh,,False
54,0,CIFAR10,6,500,250,250,80,0.0005,2,0,1.3970974516769104,46.058448791503906,22.352954864501953,0.088041290640831,FCN,MSE,Tanh,,False
54,0,CIFAR10,6,500,250,250,80,0.0005,2,1,1.975626905848314,19.483989715576172,22.32651710510254,0.2024417370557785,FCN,MSE,Tanh,,False
54,0,CIFAR10,6,500,250,250,80,0.0005,2,2,1.963843336094448,19.373558044433594,22.29612922668457,0.19773131608963013,FCN,MSE,Tanh,,False
54,0,CIFAR10,6,500,250,250,80,0.0005,2,3,1.988949827614779,19.856687545776367,22.35504913330078,0.19747494161128998,FCN,MSE,Tanh,,False
54,0,CIFAR10,6,500,250,250,80,0.0005,2,4,1.9936451078530406,19.80640411376953,22.373188018798828,0.2155170440673828,FCN,MSE,Tanh,,False
54,0,CIFAR10,6,500,250,250,80,0.0005,2,5,1.9891076322845878,19.942089080810547,22.327722549438477,0.2329007238149643,FCN,MSE,Tanh,,False
54,0,CIFAR10,6,500,250,250,80,0.0005,2,latest,1.0844164837644297,18.996089935302734,3.1579649448394775,0.20460012555122375,FCN,MSE,Tanh,,False
55,0,CIFAR10,6,500,250,250,80,0.0005,2,0,1.3967739866213007,46.058448791503906,22.352954864501953,0.08804133534431458,FCN,MSE,Tanh,,False
55,0,CIFAR10,6,500,250,250,80,0.0005,2,1,1.974066389493499,19.48398780822754,22.32651710510254,0.20244184136390686,FCN,MSE,Tanh,,False
55,0,CIFAR10,6,500,250,250,80,0.0005,2,2,1.9666048543727008,19.373558044433594,22.29612922668457,0.19773130118846893,FCN,MSE,Tanh,,False
55,0,CIFAR10,6,500,250,250,80,0.0005,2,3,1.9873258007369945,19.856687545776367,22.35504913330078,0.1974749118089676,FCN,MSE,Tanh,,False
55,0,CIFAR10,6,500,250,250,80,0.0005,2,4,1.99273650097284,19.80640411376953,22.373188018798828,0.21551701426506042,FCN,MSE,Tanh,,False
55,0,CIFAR10,6,500,250,250,80,0.0005,2,5,1.9888425962650067,19.942089080810547,22.327722549438477,0.2329007238149643,FCN,MSE,Tanh,,False
55,0,CIFAR10,6,500,250,250,80,0.0005,2,latest,1.0868308793776937,18.9960880279541,3.157963514328003,0.20460005104541779,FCN,MSE,Tanh,,False
56,0,CIFAR10,6,500,250,250,80,0.0005,2,0,1.3996488130694635,46.058441162109375,22.352954864501953,0.08804138004779816,FCN,MSE,Tanh,,False
56,0,CIFAR10,6,500,250,250,80,0.0005,2,1,1.9602621062831342,19.48398780822754,22.32651710510254,0.20244194567203522,FCN,MSE,Tanh,,False
56,0,CIFAR10,6,500,250,250,80,0.0005,2,2,1.9675178871870553,19.373558044433594,22.29612922668457,0.19773128628730774,FCN,MSE,Tanh,,False
56,0,CIFAR10,6,500,250,250,80,0.0005,2,3,1.9913158823558943,19.856687545776367,22.35504913330078,0.1974748820066452,FCN,MSE,Tanh,,False
56,0,CIFAR10,6,500,250,250,80,0.0005,2,4,1.9938017651511928,19.80640411376953,22.373188018798828,0.21551698446273804,FCN,MSE,Tanh,,False
56,0,CIFAR10,6,500,250,250,80,0.0005,2,5,1.9888842554529775,19.942089080810547,22.327722549438477,0.2329007238149643,FCN,MSE,Tanh,,False
56,0,CIFAR10,6,500,250,250,80,0.0005,2,latest,1.0878332491590754,18.99608612060547,3.1579620838165283,0.20459997653961182,FCN,MSE,Tanh,,False
57,0,CIFAR10,6,500,250,250,80,0.0005,2,0,1.399957267926512,46.058441162109375,22.35295295715332,0.08804142475128174,FCN,MSE,Tanh,,False
57,0,CIFAR10,6,500,250,250,80,0.0005,2,1,1.9746050886490631,19.48398780822754,22.32651710510254,0.20244204998016357,FCN,MSE,Tanh,,False
57,0,CIFAR10,6,500,250,250,80,0.0005,2,2,1.9670178458905074,19.373558044433594,22.29612922668457,0.19773127138614655,FCN,MSE,Tanh,,False
57,0,CIFAR10,6,500,250,250,80,0.0005,2,3,1.9914755353102527,19.856689453125,22.35504913330078,0.19747485220432281,FCN,MSE,Tanh,,False
57,0,CIFAR10,6,500,250,250,80,0.0005,2,4,1.993982439989111,19.8064022064209,22.373188018798828,0.21551695466041565,FCN,MSE,Tanh,,False
57,0,CIFAR10,6,500,250,250,80,0.0005,2,5,1.9853301265251713,19.942089080810547,22.327722549438477,0.2329007238149643,FCN,MSE,Tanh,,False
57,0,CIFAR10,6,500,250,250,80,0.0005,2,latest,1.0836146272645868,18.996084213256836,3.1579604148864746,0.20459990203380585,FCN,MSE,Tanh,,False
58,0,CIFAR10,6,500,250,250,80,0.0005,2,0,1.3965253490492429,46.058433532714844,22.35295295715332,0.08804146945476532,FCN,MSE,Tanh,,False
58,0,CIFAR10,6,500,250,250,80,0.0005,2,1,1.9725863907029828,19.483985900878906,22.32651710510254,0.20244215428829193,FCN,MSE,Tanh,,False
58,0,CIFAR10,6,500,250,250,80,0.0005,2,2,1.9672235879469184,19.373558044433594,22.29612922668457,0.19773125648498535,FCN,MSE,Tanh,,False
58,0,CIFAR10,6,500,250,250,80,0.0005,2,3,1.9872977891656993,19.856689453125,22.35504913330078,0.19747482240200043,FCN,MSE,Tanh,,False
58,0,CIFAR10,6,500,250,250,80,0.0005,2,4,1.9929239146155107,19.80640411376953,22.373188018798828,0.21551692485809326,FCN,MSE,Tanh,,False
58,0,CIFAR10,6,500,250,250,80,0.0005,2,5,1.9882384423976769,19.942089080810547,22.327722549438477,0.2329007238149643,FCN,MSE,Tanh,,False
58,0,CIFAR10,6,500,250,250,80,0.0005,2,latest,1.0877752328487245,18.996082305908203,3.157959222793579,0.20459982752799988,FCN,MSE,Tanh,,False
59,0,CIFAR10,6,500,250,250,80,0.0005,2,0,1.3959520288031588,46.058433532714844,22.35295295715332,0.0880415141582489,FCN,MSE,Tanh,,False
59,0,CIFAR10,6,500,250,250,80,0.0005,2,1,1.9666429779544194,19.483985900878906,22.32651710510254,0.2024422585964203,FCN,MSE,Tanh,,False
59,0,CIFAR10,6,500,250,250,80,0.0005,2,2,1.9547116412769903,19.373558044433594,22.29612922668457,0.19773124158382416,FCN,MSE,Tanh,,False
59,0,CIFAR10,6,500,250,250,80,0.0005,2,3,1.9915580223973304,19.856689453125,22.35504913330078,0.19747479259967804,FCN,MSE,Tanh,,False
59,0,CIFAR10,6,500,250,250,80,0.0005,2,4,1.9937539913032154,19.80640411376953,22.373188018798828,0.21551689505577087,FCN,MSE,Tanh,,False
59,0,CIFAR10,6,500,250,250,80,0.0005,2,5,1.9882424581224705,19.94209098815918,22.327722549438477,0.2329007238149643,FCN,MSE,Tanh,,False
59,0,CIFAR10,6,500,250,250,80,0.0005,2,latest,1.0876630393127462,18.996082305908203,3.1579575538635254,0.2045997530221939,FCN,MSE,Tanh,,False
60,0,CIFAR10,6,500,250,250,80,0.0005,2,0,1.3997632797528476,46.05842590332031,22.35295295715332,0.08804155886173248,FCN,MSE,Tanh,,False
60,0,CIFAR10,6,500,250,250,80,0.0005,2,1,1.9755614329452271,19.483985900878906,22.32651710510254,0.20244236290454865,FCN,MSE,Tanh,,False
60,0,CIFAR10,6,500,250,250,80,0.0005,2,2,1.967242678110059,19.373558044433594,22.29612922668457,0.19773122668266296,FCN,MSE,Tanh,,False
60,0,CIFAR10,6,500,250,250,80,0.0005,2,3,1.987166837777944,19.856691360473633,22.35504913330078,0.19747476279735565,FCN,MSE,Tanh,,False
60,0,CIFAR10,6,500,250,250,80,0.0005,2,4,1.9892723739488771,19.80640411376953,22.373188018798828,0.2155168652534485,FCN,MSE,Tanh,,False
60,0,CIFAR10,6,500,250,250,80,0.0005,2,5,1.988576331285249,19.942092895507812,22.327722549438477,0.2329007238149643,FCN,MSE,Tanh,,False
60,0,CIFAR10,6,500,250,250,80,0.0005,2,latest,1.0792853242533877,18.99608039855957,3.15795636177063,0.20459967851638794,FCN,MSE,Tanh,,False
61,0,CIFAR10,6,500,250,250,80,0.0005,2,0,1.400701895240977,46.05842590332031,22.35295295715332,0.08804160356521606,FCN,MSE,Tanh,,False
61,0,CIFAR10,6,500,250,250,80,0.0005,2,1,1.972442551639584,19.483983993530273,22.32651710510254,0.202442467212677,FCN,MSE,Tanh,,False
61,0,CIFAR10,6,500,250,250,80,0.0005,2,2,1.9674663900488059,19.373558044433594,22.29612922668457,0.19773121178150177,FCN,MSE,Tanh,,False
61,0,CIFAR10,6,500,250,250,80,0.0005,2,3,1.9894614311195205,19.856693267822266,22.35504913330078,0.19747473299503326,FCN,MSE,Tanh,,False
61,0,CIFAR10,6,500,250,250,80,0.0005,2,4,1.9883093091862196,19.80640411376953,22.373188018798828,0.2155168354511261,FCN,MSE,Tanh,,False
61,0,CIFAR10,6,500,250,250,80,0.0005,2,5,1.988731709322033,19.942092895507812,22.327722549438477,0.2329007238149643,FCN,MSE,Tanh,,False
61,0,CIFAR10,6,500,250,250,80,0.0005,2,latest,1.08783480343202,18.996078491210938,3.157954692840576,0.20459960401058197,FCN,MSE,Tanh,,False
62,0,CIFAR10,6,500,250,250,80,0.0005,2,0,1.3938684727160136,46.05842208862305,22.35295295715332,0.08804164826869965,FCN,MSE,Tanh,,False
62,0,CIFAR10,6,500,250,250,80,0.0005,2,1,1.9725216054760526,19.483983993530273,22.326515197753906,0.20244257152080536,FCN,MSE,Tanh,,False
62,0,CIFAR10,6,500,250,250,80,0.0005,2,2,1.967310064910456,19.373558044433594,22.29612922668457,0.19773119688034058,FCN,MSE,Tanh,,False
62,0,CIFAR10,6,500,250,250,80,0.0005,2,3,1.9885352664450398,19.856693267822266,22.35504913330078,0.19747470319271088,FCN,MSE,Tanh,,False
62,0,CIFAR10,6,500,250,250,80,0.0005,2,4,1.9940715176681147,19.80640411376953,22.373188018798828,0.2155168056488037,FCN,MSE,Tanh,,False
62,0,CIFAR10,6,500,250,250,80,0.0005,2,5,1.9891110444456883,19.942092895507812,22.327722549438477,0.2329007238149643,FCN,MSE,Tanh,,False
62,0,CIFAR10,6,500,250,250,80,0.0005,2,latest,1.086881323472987,18.996078491210938,3.1579535007476807,0.204599529504776,FCN,MSE,Tanh,,False
63,0,CIFAR10,6,500,250,250,80,0.0005,2,0,1.3985345467059171,46.05841827392578,22.35295295715332,0.08804169297218323,FCN,MSE,Tanh,,False
63,0,CIFAR10,6,500,250,250,80,0.0005,2,1,1.9752239202512463,19.483985900878906,22.32651710510254,0.20244267582893372,FCN,MSE,Tanh,,False
63,0,CIFAR10,6,500,250,250,80,0.0005,2,2,1.964915587523936,19.373558044433594,22.29612922668457,0.19773118197917938,FCN,MSE,Tanh,,False
63,0,CIFAR10,6,500,250,250,80,0.0005,2,3,1.986890748185379,19.856693267822266,22.35504913330078,0.1974746733903885,FCN,MSE,Tanh,,False
63,0,CIFAR10,6,500,250,250,80,0.0005,2,4,1.994112348963186,19.8064022064209,22.373188018798828,0.21551677584648132,FCN,MSE,Tanh,,False
63,0,CIFAR10,6,500,250,250,80,0.0005,2,5,1.9820217085726317,19.942092895507812,22.327722549438477,0.2329007238149643,FCN,MSE,Tanh,,False
63,0,CIFAR10,6,500,250,250,80,0.0005,2,latest,1.0875994362807557,18.996074676513672,3.157951831817627,0.20459946990013123,FCN,MSE,Tanh,,False
64,0,CIFAR10,6,500,250,250,80,0.0005,2,0,1.3991943527642081,46.058414459228516,22.35295295715332,0.08804173767566681,FCN,MSE,Tanh,,False
64,0,CIFAR10,6,500,250,250,80,0.0005,2,1,1.9747611420487674,19.48398208618164,22.32651710510254,0.20244278013706207,FCN,MSE,Tanh,,False
64,0,CIFAR10,6,500,250,250,80,0.0005,2,2,1.967070271678186,19.373558044433594,22.29612922668457,0.1977311670780182,FCN,MSE,Tanh,,False
64,0,CIFAR10,6,500,250,250,80,0.0005,2,3,1.9891632475058023,19.856693267822266,22.35504913330078,0.1974746435880661,FCN,MSE,Tanh,,False
64,0,CIFAR10,6,500,250,250,80,0.0005,2,4,1.9926940872260104,19.80640411376953,22.373188018798828,0.21551674604415894,FCN,MSE,Tanh,,False
64,0,CIFAR10,6,500,250,250,80,0.0005,2,5,1.9888013597878114,19.942092895507812,22.327722549438477,0.2329007238149643,FCN,MSE,Tanh,,False
64,0,CIFAR10,6,500,250,250,80,0.0005,2,latest,1.0876694509706288,18.996074676513672,3.1579506397247314,0.20459941029548645,FCN,MSE,Tanh,,False
65,0,CIFAR10,6,500,250,250,80,0.0005,2,0,1.3945692872413011,46.05841064453125,22.35295295715332,0.08804178237915039,FCN,MSE,Tanh,,False
65,0,CIFAR10,6,500,250,250,80,0.0005,2,1,1.9755607147039773,19.48398208618164,22.326515197753906,0.20244288444519043,FCN,MSE,Tanh,,False
65,0,CIFAR10,6,500,250,250,80,0.0005,2,2,1.9592489368698378,19.373558044433594,22.29612922668457,0.197731152176857,FCN,MSE,Tanh,,False
65,0,CIFAR10,6,500,250,250,80,0.0005,2,3,1.9915446122995941,19.856693267822266,22.35504913330078,0.1974746137857437,FCN,MSE,Tanh,,False
65,0,CIFAR10,6,500,250,250,80,0.0005,2,4,1.9883293340898036,19.8064022064209,22.373188018798828,0.21551671624183655,FCN,MSE,Tanh,,False
65,0,CIFAR10,6,500,250,250,80,0.0005,2,5,1.9822667275023382,19.942092895507812,22.327722549438477,0.2329007238149643,FCN,MSE,Tanh,,False
65,0,CIFAR10,6,500,250,250,80,0.0005,2,latest,1.0876775737435935,18.996074676513672,3.157949209213257,0.20459935069084167,FCN,MSE,Tanh,,False
66,0,CIFAR10,6,500,250,250,80,0.0005,2,0,1.4007724454111994,46.05841064453125,22.35295295715332,0.08804181963205338,FCN,MSE,Tanh,,False
66,0,CIFAR10,6,500,250,250,80,0.0005,2,1,1.9714508940658122,19.48398208618164,22.32651710510254,0.2024429887533188,FCN,MSE,Tanh,,False
66,0,CIFAR10,6,500,250,250,80,0.0005,2,2,1.9629158328727154,19.373558044433594,22.29612922668457,0.1977311372756958,FCN,MSE,Tanh,,False
66,0,CIFAR10,6,500,250,250,80,0.0005,2,3,1.991037913297963,19.856693267822266,22.35504913330078,0.19747458398342133,FCN,MSE,Tanh,,False
66,0,CIFAR10,6,500,250,250,80,0.0005,2,4,1.9916800058256017,19.8064022064209,22.373188018798828,0.21551668643951416,FCN,MSE,Tanh,,False
66,0,CIFAR10,6,500,250,250,80,0.0005,2,5,1.987561768345704,19.942092895507812,22.327722549438477,0.2329007238149643,FCN,MSE,Tanh,,False
66,0,CIFAR10,6,500,250,250,80,0.0005,2,latest,1.086482243773078,18.99607276916504,3.157947540283203,0.2045992910861969,FCN,MSE,Tanh,,False
67,0,CIFAR10,6,500,250,250,80,0.0005,2,0,1.4008183606921705,46.05840301513672,22.35295295715332,0.08804185688495636,FCN,MSE,Tanh,,False
67,0,CIFAR10,6,500,250,250,80,0.0005,2,1,1.9744461248664142,19.48398208618164,22.32651710510254,0.20244309306144714,FCN,MSE,Tanh,,False
67,0,CIFAR10,6,500,250,250,80,0.0005,2,2,1.9675095259320032,19.373558044433594,22.29612922668457,0.1977311223745346,FCN,MSE,Tanh,,False
67,0,CIFAR10,6,500,250,250,80,0.0005,2,3,1.9868035061750968,19.85669708251953,22.35504913330078,0.19747455418109894,FCN,MSE,Tanh,,False
67,0,CIFAR10,6,500,250,250,80,0.0005,2,4,1.9918186239768614,19.806400299072266,22.373188018798828,0.21551665663719177,FCN,MSE,Tanh,,False
67,0,CIFAR10,6,500,250,250,80,0.0005,2,5,1.9888869513223753,19.942092895507812,22.327722549438477,0.2329007238149643,FCN,MSE,Tanh,,False
67,0,CIFAR10,6,500,250,250,80,0.0005,2,latest,1.0876460633365204,18.996070861816406,3.1579463481903076,0.20459923148155212,FCN,MSE,Tanh,,False
68,0,CIFAR10,6,500,250,250,80,0.0005,2,0,1.3970138699096188,46.05840301513672,22.35295295715332,0.08804189413785934,FCN,MSE,Tanh,,False
68,0,CIFAR10,6,500,250,250,80,0.0005,2,1,1.956241166457442,19.48398208618164,22.32651710510254,0.2024431973695755,FCN,MSE,Tanh,,False
68,0,CIFAR10,6,500,250,250,80,0.0005,2,2,1.967350416883398,19.373558044433594,22.29612922668457,0.1977311074733734,FCN,MSE,Tanh,,False
68,0,CIFAR10,6,500,250,250,80,0.0005,2,3,1.9914979815859617,19.85669708251953,22.35504913330078,0.19747452437877655,FCN,MSE,Tanh,,False
68,0,CIFAR10,6,500,250,250,80,0.0005,2,4,1.9941748778248176,19.806400299072266,22.373188018798828,0.21551662683486938,FCN,MSE,Tanh,,False
68,0,CIFAR10,6,500,250,250,80,0.0005,2,5,1.9891171593446983,19.942092895507812,22.327722549438477,0.2329007238149643,FCN,MSE,Tanh,,False
68,0,CIFAR10,6,500,250,250,80,0.0005,2,latest,1.086993610217319,18.996070861816406,3.157944917678833,0.20459917187690735,FCN,MSE,Tanh,,False
69,0,CIFAR10,6,500,250,250,80,0.0005,2,0,1.4002562050037448,46.05839920043945,22.35295295715332,0.08804193139076233,FCN,MSE,Tanh,,False
69,0,CIFAR10,6,500,250,250,80,0.0005,2,1,1.9745249140605259,19.48398208618164,22.32651710510254,0.20244330167770386,FCN,MSE,Tanh,,False
69,0,CIFAR10,6,500,250,250,80,0.0005,2,2,1.967505110746252,19.373558044433594,22.29612922668457,0.19773109257221222,FCN,MSE,Tanh,,False
69,0,CIFAR10,6,500,250,250,80,0.0005,2,3,1.9869133633498226,19.85669708251953,22.35504913330078,0.19747449457645416,FCN,MSE,Tanh,,False
69,0,CIFAR10,6,500,250,250,80,0.0005,2,4,1.9917928875641364,19.806400299072266,22.373188018798828,0.215516597032547,FCN,MSE,Tanh,,False
69,0,CIFAR10,6,500,250,250,80,0.0005,2,5,1.9890806605263467,19.942092895507812,22.327722549438477,0.2329007238149643,FCN,MSE,Tanh,,False
69,0,CIFAR10,6,500,250,250,80,0.0005,2,latest,1.0878037806695438,18.996068954467773,3.1579437255859375,0.20459911227226257,FCN,MSE,Tanh,,False
70,0,CIFAR10,6,500,250,250,80,0.0005,2,0,1.4004659592544173,46.05839538574219,22.35295295715332,0.08804196864366531,FCN,MSE,Tanh,,False
70,0,CIFAR10,6,500,250,250,80,0.0005,2,1,1.9751983880949184,19.48398208618164,22.32651710510254,0.20244340598583221,FCN,MSE,Tanh,,False
70,0,CIFAR10,6,500,250,250,80,0.0005,2,2,1.9674921407385082,19.373558044433594,22.29612922668457,0.19773107767105103,FCN,MSE,Tanh,,False
70,0,CIFAR10,6,500,250,250,80,0.0005,2,3,1.9874374922661242,19.85669708251953,22.35504913330078,0.19747446477413177,FCN,MSE,Tanh,,False
70,0,CIFAR10,6,500,250,250,80,0.0005,2,4,1.990696008394892,19.806400299072266,22.373188018798828,0.2155165672302246,FCN,MSE,Tanh,,False
70,0,CIFAR10,6,500,250,250,80,0.0005,2,5,1.9890104797369534,19.942092895507812,22.327722549438477,0.2329007238149643,FCN,MSE,Tanh,,False
70,0,CIFAR10,6,500,250,250,80,0.0005,2,latest,1.0877065177473195,18.99606704711914,3.157942295074463,0.2045990526676178,FCN,MSE,Tanh,,False
71,0,CIFAR10,6,500,250,250,80,0.0005,2,0,1.3971038105310354,46.05839538574219,22.35295295715332,0.0880420058965683,FCN,MSE,Tanh,,False
71,0,CIFAR10,6,500,250,250,80,0.0005,2,1,1.9755990918447999,19.48398208618164,22.32651710510254,0.20244351029396057,FCN,MSE,Tanh,,False
71,0,CIFAR10,6,500,250,250,80,0.0005,2,2,1.9675071649148954,19.373558044433594,22.29612922668457,0.19773106276988983,FCN,MSE,Tanh,,False
71,0,CIFAR10,6,500,250,250,80,0.0005,2,3,1.9915004363157986,19.85669708251953,22.35504913330078,0.1974744349718094,FCN,MSE,Tanh,,False
71,0,CIFAR10,6,500,250,250,80,0.0005,2,4,1.9934544741883675,19.8064022064209,22.373188018798828,0.21551653742790222,FCN,MSE,Tanh,,False
71,0,CIFAR10,6,500,250,250,80,0.0005,2,5,1.9803983235675124,19.942092895507812,22.327722549438477,0.2329007238149643,FCN,MSE,Tanh,,False
71,0,CIFAR10,6,500,250,250,80,0.0005,2,latest,1.0790628970024203,18.99606704711914,3.1579411029815674,0.20459899306297302,FCN,MSE,Tanh,,False
72,0,CIFAR10,6,500,250,250,80,0.0005,2,0,1.3980706422954656,46.05839157104492,22.35295295715332,0.08804204314947128,FCN,MSE,Tanh,,False
72,0,CIFAR10,6,500,250,250,80,0.0005,2,1,1.9755251155374223,19.48398208618164,22.32651710510254,0.20244361460208893,FCN,MSE,Tanh,,False
72,0,CIFAR10,6,500,250,250,80,0.0005,2,2,1.9656657931851098,19.373559951782227,22.29612922668457,0.19773104786872864,FCN,MSE,Tanh,,False
72,0,CIFAR10,6,500,250,250,80,0.0005,2,3,1.991363115468323,19.85669708251953,22.35504913330078,0.197474405169487,FCN,MSE,Tanh,,False
72,0,CIFAR10,6,500,250,250,80,0.0005,2,4,1.9871498606583629,19.8064022064209,22.373188018798828,0.21551650762557983,FCN,MSE,Tanh,,False
72,0,CIFAR10,6,500,250,250,80,0.0005,2,5,1.9857699096677006,19.942092895507812,22.327722549438477,0.2329007238149643,FCN,MSE,Tanh,,False
72,0,CIFAR10,6,500,250,250,80,0.0005,2,latest,1.0829092932040705,18.996065139770508,3.1579394340515137,0.20459894835948944,FCN,MSE,Tanh,,False
73,0,CIFAR10,6,500,250,250,80,0.0005,2,0,1.3952429719585822,46.058387756347656,22.35295295715332,0.08804208040237427,FCN,MSE,Tanh,,False
73,0,CIFAR10,6,500,250,250,80,0.0005,2,1,1.968589110082479,19.483980178833008,22.326515197753906,0.20244371891021729,FCN,MSE,Tanh,,False
73,0,CIFAR10,6,500,250,250,80,0.0005,2,2,1.9664740349563405,19.373559951782227,22.29612922668457,0.19773103296756744,FCN,MSE,Tanh,,False
73,0,CIFAR10,6,500,250,250,80,0.0005,2,3,1.991589923062003,19.856698989868164,22.35504913330078,0.1974743753671646,FCN,MSE,Tanh,,False
73,0,CIFAR10,6,500,250,250,80,0.0005,2,4,1.9940722955398276,19.8064022064209,22.373188018798828,0.21551647782325745,FCN,MSE,Tanh,,False
73,0,CIFAR10,6,500,250,250,80,0.0005,2,5,1.9857973414467214,19.942092895507812,22.327722549438477,0.2329007238149643,FCN,MSE,Tanh,,False
73,0,CIFAR10,6,500,250,250,80,0.0005,2,latest,1.0864556263456822,18.996065139770508,3.157938241958618,0.20459890365600586,FCN,MSE,Tanh,,False
74,0,CIFAR10,6,500,250,250,80,0.0005,2,0,1.4003928366118263,46.058387756347656,22.35295295715332,0.08804211765527725,FCN,MSE,Tanh,,False
74,0,CIFAR10,6,500,250,250,80,0.0005,2,1,1.9745528668657752,19.483980178833008,22.326515197753906,0.20244382321834564,FCN,MSE,Tanh,,False
74,0,CIFAR10,6,500,250,250,80,0.0005,2,2,1.959742086724238,19.373559951782227,22.29612922668457,0.19773101806640625,FCN,MSE,Tanh,,False
74,0,CIFAR10,6,500,250,250,80,0.0005,2,3,1.9902851066260718,19.856700897216797,22.35504913330078,0.19747434556484222,FCN,MSE,Tanh,,False
74,0,CIFAR10,6,500,250,250,80,0.0005,2,4,1.9938855290887474,19.8064022064209,22.373188018798828,0.21551644802093506,FCN,MSE,Tanh,,False
74,0,CIFAR10,6,500,250,250,80,0.0005,2,5,1.9722348206823617,19.942092895507812,22.327722549438477,0.2329007238149643,FCN,MSE,Tanh,,False
74,0,CIFAR10,6,500,250,250,80,0.0005,2,latest,1.0870973270024487,18.996063232421875,3.1579368114471436,0.20459885895252228,FCN,MSE,Tanh,,False
75,0,CIFAR10,6,500,250,250,80,0.0005,2,0,1.400241521000696,46.058380126953125,22.35295295715332,0.08804215490818024,FCN,MSE,Tanh,,False
75,0,CIFAR10,6,500,250,250,80,0.0005,2,1,1.9752969407203418,19.483980178833008,22.326515197753906,0.202443927526474,FCN,MSE,Tanh,,False
75,0,CIFAR10,6,500,250,250,80,0.0005,2,2,1.9665276230405198,19.373559951782227,22.296127319335938,0.19773100316524506,FCN,MSE,Tanh,,False
75,0,CIFAR10,6,500,250,250,80,0.0005,2,3,1.9896374706738593,19.856700897216797,22.35504913330078,0.19747431576251984,FCN,MSE,Tanh,,False
75,0,CIFAR10,6,500,250,250,80,0.0005,2,4,1.992690318362344,19.8064022064209,22.373188018798828,0.21551641821861267,FCN,MSE,Tanh,,False
75,0,CIFAR10,6,500,250,250,80,0.0005,2,5,1.989028520436206,19.942092895507812,22.327722549438477,0.2329007238149643,FCN,MSE,Tanh,,False
75,0,CIFAR10,6,500,250,250,80,0.0005,2,latest,1.0874058942350155,18.996063232421875,3.157935619354248,0.2045988142490387,FCN,MSE,Tanh,,False
76,0,CIFAR10,6,500,250,250,80,0.0005,2,0,1.4006497237863134,46.058380126953125,22.35295295715332,0.08804219216108322,FCN,MSE,Tanh,,False
76,0,CIFAR10,6,500,250,250,80,0.0005,2,1,1.9750245636004002,19.483978271484375,22.326515197753906,0.20244403183460236,FCN,MSE,Tanh,,False
76,0,CIFAR10,6,500,250,250,80,0.0005,2,2,1.9564700359386746,19.373559951782227,22.296127319335938,0.19773098826408386,FCN,MSE,Tanh,,False
76,0,CIFAR10,6,500,250,250,80,0.0005,2,3,1.9915865122522074,19.856700897216797,22.35504913330078,0.19747428596019745,FCN,MSE,Tanh,,False
76,0,CIFAR10,6,500,250,250,80,0.0005,2,4,1.9922491316609938,19.806400299072266,22.373188018798828,0.21551638841629028,FCN,MSE,Tanh,,False
76,0,CIFAR10,6,500,250,250,80,0.0005,2,5,1.988955040701188,19.942094802856445,22.327720642089844,0.2329007238149643,FCN,MSE,Tanh,,False
76,0,CIFAR10,6,500,250,250,80,0.0005,2,latest,1.0878452586058105,18.99605941772461,3.1579341888427734,0.20459876954555511,FCN,MSE,Tanh,,False
77,0,CIFAR10,6,500,250,250,80,0.0005,2,0,1.3961165363862293,46.058380126953125,22.35295295715332,0.0880422294139862,FCN,MSE,Tanh,,False
77,0,CIFAR10,6,500,250,250,80,0.0005,2,1,1.9612746233880525,19.483978271484375,22.326515197753906,0.2024441361427307,FCN,MSE,Tanh,,False
77,0,CIFAR10,6,500,250,250,80,0.0005,2,2,1.9675456991431726,19.373559951782227,22.296127319335938,0.19773097336292267,FCN,MSE,Tanh,,False
77,0,CIFAR10,6,500,250,250,80,0.0005,2,3,1.9903206249711494,19.856700897216797,22.35504913330078,0.19747425615787506,FCN,MSE,Tanh,,False
77,0,CIFAR10,6,500,250,250,80,0.0005,2,4,1.991613807606145,19.8064022064209,22.373188018798828,0.2155163586139679,FCN,MSE,Tanh,,False
77,0,CIFAR10,6,500,250,250,80,0.0005,2,5,1.981927997816385,19.942094802856445,22.327720642089844,0.2329007238149643,FCN,MSE,Tanh,,False
77,0,CIFAR10,6,500,250,250,80,0.0005,2,latest,1.0862447828033521,18.99605941772461,3.157932758331299,0.20459872484207153,FCN,MSE,Tanh,,False
78,0,CIFAR10,6,500,250,250,80,0.0005,2,0,1.3959253027614524,46.058380126953125,22.35295295715332,0.08804226666688919,FCN,MSE,Tanh,,False
78,0,CIFAR10,6,500,250,250,80,0.0005,2,1,1.9718557968148573,19.483978271484375,22.326515197753906,0.20244424045085907,FCN,MSE,Tanh,,False
78,0,CIFAR10,6,500,250,250,80,0.0005,2,2,1.9537307354478166,19.373559951782227,22.296127319335938,0.19773095846176147,FCN,MSE,Tanh,,False
78,0,CIFAR10,6,500,250,250,80,0.0005,2,3,1.9821854173173328,19.856700897216797,22.35504913330078,0.19747422635555267,FCN,MSE,Tanh,,False
78,0,CIFAR10,6,500,250,250,80,0.0005,2,4,1.9931262628091357,19.8064022064209,22.373188018798828,0.2155163288116455,FCN,MSE,Tanh,,False
78,0,CIFAR10,6,500,250,250,80,0.0005,2,5,1.9882101423823437,19.942096710205078,22.327720642089844,0.2329007238149643,FCN,MSE,Tanh,,False
78,0,CIFAR10,6,500,250,250,80,0.0005,2,latest,1.0868596065894298,18.996057510375977,3.1579315662384033,0.20459868013858795,FCN,MSE,Tanh,,False
79,0,CIFAR10,6,500,250,250,80,0.0005,2,0,1.3970293148276494,46.05837631225586,22.35295295715332,0.08804230391979218,FCN,MSE,Tanh,,False
79,0,CIFAR10,6,500,250,250,80,0.0005,2,1,1.9753963965976034,19.483978271484375,22.326515197753906,0.20244434475898743,FCN,MSE,Tanh,,False
79,0,CIFAR10,6,500,250,250,80,0.0005,2,2,1.9558745348256499,19.373559951782227,22.296127319335938,0.19773094356060028,FCN,MSE,Tanh,,False
79,0,CIFAR10,6,500,250,250,80,0.0005,2,3,1.9883456416467227,19.85670280456543,22.35504913330078,0.19747419655323029,FCN,MSE,Tanh,,False
79,0,CIFAR10,6,500,250,250,80,0.0005,2,4,1.992731714780559,19.806400299072266,22.373188018798828,0.21551629900932312,FCN,MSE,Tanh,,False
79,0,CIFAR10,6,500,250,250,80,0.0005,2,5,1.9890601637246057,19.942094802856445,22.327720642089844,0.2329007238149643,FCN,MSE,Tanh,,False
79,0,CIFAR10,6,500,250,250,80,0.0005,2,latest,1.0878414030984316,18.996057510375977,3.157930374145508,0.20459863543510437,FCN,MSE,Tanh,,False
80,0,CIFAR10,6,500,250,250,80,0.0005,2,0,1.4004704281082834,46.058372497558594,22.35295295715332,0.08804234117269516,FCN,MSE,Tanh,,False
80,0,CIFAR10,6,500,250,250,80,0.0005,2,1,1.974762590842669,19.483978271484375,22.326515197753906,0.20244444906711578,FCN,MSE,Tanh,,False
80,0,CIFAR10,6,500,250,250,80,0.0005,2,2,1.9662947628842686,19.373559951782227,22.296127319335938,0.1977309286594391,FCN,MSE,Tanh,,False
80,0,CIFAR10,6,500,250,250,80,0.0005,2,3,1.986762403794597,19.85670280456543,22.35504913330078,0.1974741667509079,FCN,MSE,Tanh,,False
80,0,CIFAR10,6,500,250,250,80,0.0005,2,4,1.993418293858072,19.806400299072266,22.373188018798828,0.21551626920700073,FCN,MSE,Tanh,,False
80,0,CIFAR10,6,500,250,250,80,0.0005,2,5,1.989013896627005,19.942096710205078,22.327720642089844,0.2329007238149643,FCN,MSE,Tanh,,False
80,0,CIFAR10,6,500,250,250,80,0.0005,2,latest,1.0874419185869417,18.996055603027344,3.157928943634033,0.2045985907316208,FCN,MSE,Tanh,,False
