<?xml version="1.0" encoding="utf-8" standalone="no"?>
<!DOCTYPE svg PUBLIC "-//W3C//DTD SVG 1.1//EN"
  "http://www.w3.org/Graphics/SVG/1.1/DTD/svg11.dtd">
<svg xmlns:xlink="http://www.w3.org/1999/xlink" width="979.951875pt" height="551.567896pt" viewBox="0 0 979.951875 551.567896" xmlns="http://www.w3.org/2000/svg" version="1.1">
 <metadata>
  <rdf:RDF xmlns:dc="http://purl.org/dc/elements/1.1/" xmlns:cc="http://creativecommons.org/ns#" xmlns:rdf="http://www.w3.org/1999/02/22-rdf-syntax-ns#">
   <cc:Work>
    <dc:type rdf:resource="http://purl.org/dc/dcmitype/StillImage"/>
    <dc:date>2022-11-09T17:30:21.388923</dc:date>
    <dc:format>image/svg+xml</dc:format>
    <dc:creator>
     <cc:Agent>
      <dc:title>Matplotlib v3.5.2, https://matplotlib.org/</dc:title>
     </cc:Agent>
    </dc:creator>
   </cc:Work>
  </rdf:RDF>
 </metadata>
 <defs>
  <style type="text/css">*{stroke-linejoin: round; stroke-linecap: butt}</style>
 </defs>
 <g id="figure_1">
  <g id="patch_1">
   <path d="M 0 551.567896 
L 979.951875 551.567896 
L 979.951875 0 
L 0 0 
z
" style="fill: #ffffff"/>
  </g>
  <g id="axes_1">
   <g id="patch_2">
    <path d="M 86.431875 492.828521 
L 979.231875 492.828521 
L 979.231875 3.588521 
L 86.431875 3.588521 
z
" style="fill: #eaeaf2"/>
   </g>
   <g id="matplotlib.axis_1">
    <g id="xtick_1">
     <g id="line2d_1">
      <path d="M 127.013693 492.828521 
L 127.013693 3.588521 
" clip-path="url(#pf4389c630d)" style="fill: none; stroke: #ffffff; stroke-linecap: round"/>
     </g>
     <g id="text_1">
      <!-- 0 -->
      <g style="fill: #262626" transform="translate(120.014943 519.045083)scale(0.22 -0.22)">
       <defs>
        <path id="DejaVuSans-30" d="M 2034 4250 
Q 1547 4250 1301 3770 
Q 1056 3291 1056 2328 
Q 1056 1369 1301 889 
Q 1547 409 2034 409 
Q 2525 409 2770 889 
Q 3016 1369 3016 2328 
Q 3016 3291 2770 3770 
Q 2525 4250 2034 4250 
z
M 2034 4750 
Q 2819 4750 3233 4129 
Q 3647 3509 3647 2328 
Q 3647 1150 3233 529 
Q 2819 -91 2034 -91 
Q 1250 -91 836 529 
Q 422 1150 422 2328 
Q 422 3509 836 4129 
Q 1250 4750 2034 4750 
z
" transform="scale(0.015625)"/>
       </defs>
       <use xlink:href="#DejaVuSans-30"/>
      </g>
     </g>
    </g>
    <g id="xtick_2">
     <g id="line2d_2">
      <path d="M 229.752473 492.828521 
L 229.752473 3.588521 
" clip-path="url(#pf4389c630d)" style="fill: none; stroke: #ffffff; stroke-linecap: round"/>
     </g>
     <g id="text_2">
      <!-- 10 -->
      <g style="fill: #262626" transform="translate(215.754973 519.045083)scale(0.22 -0.22)">
       <defs>
        <path id="DejaVuSans-31" d="M 794 531 
L 1825 531 
L 1825 4091 
L 703 3866 
L 703 4441 
L 1819 4666 
L 2450 4666 
L 2450 531 
L 3481 531 
L 3481 0 
L 794 0 
L 794 531 
z
" transform="scale(0.015625)"/>
       </defs>
       <use xlink:href="#DejaVuSans-31"/>
       <use xlink:href="#DejaVuSans-30" x="63.623047"/>
      </g>
     </g>
    </g>
    <g id="xtick_3">
     <g id="line2d_3">
      <path d="M 332.491254 492.828521 
L 332.491254 3.588521 
" clip-path="url(#pf4389c630d)" style="fill: none; stroke: #ffffff; stroke-linecap: round"/>
     </g>
     <g id="text_3">
      <!-- 20 -->
      <g style="fill: #262626" transform="translate(318.493754 519.045083)scale(0.22 -0.22)">
       <defs>
        <path id="DejaVuSans-32" d="M 1228 531 
L 3431 531 
L 3431 0 
L 469 0 
L 469 531 
Q 828 903 1448 1529 
Q 2069 2156 2228 2338 
Q 2531 2678 2651 2914 
Q 2772 3150 2772 3378 
Q 2772 3750 2511 3984 
Q 2250 4219 1831 4219 
Q 1534 4219 1204 4116 
Q 875 4013 500 3803 
L 500 4441 
Q 881 4594 1212 4672 
Q 1544 4750 1819 4750 
Q 2544 4750 2975 4387 
Q 3406 4025 3406 3419 
Q 3406 3131 3298 2873 
Q 3191 2616 2906 2266 
Q 2828 2175 2409 1742 
Q 1991 1309 1228 531 
z
" transform="scale(0.015625)"/>
       </defs>
       <use xlink:href="#DejaVuSans-32"/>
       <use xlink:href="#DejaVuSans-30" x="63.623047"/>
      </g>
     </g>
    </g>
    <g id="xtick_4">
     <g id="line2d_4">
      <path d="M 435.230034 492.828521 
L 435.230034 3.588521 
" clip-path="url(#pf4389c630d)" style="fill: none; stroke: #ffffff; stroke-linecap: round"/>
     </g>
     <g id="text_4">
      <!-- 30 -->
      <g style="fill: #262626" transform="translate(421.232534 519.045083)scale(0.22 -0.22)">
       <defs>
        <path id="DejaVuSans-33" d="M 2597 2516 
Q 3050 2419 3304 2112 
Q 3559 1806 3559 1356 
Q 3559 666 3084 287 
Q 2609 -91 1734 -91 
Q 1441 -91 1130 -33 
Q 819 25 488 141 
L 488 750 
Q 750 597 1062 519 
Q 1375 441 1716 441 
Q 2309 441 2620 675 
Q 2931 909 2931 1356 
Q 2931 1769 2642 2001 
Q 2353 2234 1838 2234 
L 1294 2234 
L 1294 2753 
L 1863 2753 
Q 2328 2753 2575 2939 
Q 2822 3125 2822 3475 
Q 2822 3834 2567 4026 
Q 2313 4219 1838 4219 
Q 1578 4219 1281 4162 
Q 984 4106 628 3988 
L 628 4550 
Q 988 4650 1302 4700 
Q 1616 4750 1894 4750 
Q 2613 4750 3031 4423 
Q 3450 4097 3450 3541 
Q 3450 3153 3228 2886 
Q 3006 2619 2597 2516 
z
" transform="scale(0.015625)"/>
       </defs>
       <use xlink:href="#DejaVuSans-33"/>
       <use xlink:href="#DejaVuSans-30" x="63.623047"/>
      </g>
     </g>
    </g>
    <g id="xtick_5">
     <g id="line2d_5">
      <path d="M 537.968814 492.828521 
L 537.968814 3.588521 
" clip-path="url(#pf4389c630d)" style="fill: none; stroke: #ffffff; stroke-linecap: round"/>
     </g>
     <g id="text_5">
      <!-- 40 -->
      <g style="fill: #262626" transform="translate(523.971314 519.045083)scale(0.22 -0.22)">
       <defs>
        <path id="DejaVuSans-34" d="M 2419 4116 
L 825 1625 
L 2419 1625 
L 2419 4116 
z
M 2253 4666 
L 3047 4666 
L 3047 1625 
L 3713 1625 
L 3713 1100 
L 3047 1100 
L 3047 0 
L 2419 0 
L 2419 1100 
L 313 1100 
L 313 1709 
L 2253 4666 
z
" transform="scale(0.015625)"/>
       </defs>
       <use xlink:href="#DejaVuSans-34"/>
       <use xlink:href="#DejaVuSans-30" x="63.623047"/>
      </g>
     </g>
    </g>
    <g id="xtick_6">
     <g id="line2d_6">
      <path d="M 640.707594 492.828521 
L 640.707594 3.588521 
" clip-path="url(#pf4389c630d)" style="fill: none; stroke: #ffffff; stroke-linecap: round"/>
     </g>
     <g id="text_6">
      <!-- 50 -->
      <g style="fill: #262626" transform="translate(626.710094 519.045083)scale(0.22 -0.22)">
       <defs>
        <path id="DejaVuSans-35" d="M 691 4666 
L 3169 4666 
L 3169 4134 
L 1269 4134 
L 1269 2991 
Q 1406 3038 1543 3061 
Q 1681 3084 1819 3084 
Q 2600 3084 3056 2656 
Q 3513 2228 3513 1497 
Q 3513 744 3044 326 
Q 2575 -91 1722 -91 
Q 1428 -91 1123 -41 
Q 819 9 494 109 
L 494 744 
Q 775 591 1075 516 
Q 1375 441 1709 441 
Q 2250 441 2565 725 
Q 2881 1009 2881 1497 
Q 2881 1984 2565 2268 
Q 2250 2553 1709 2553 
Q 1456 2553 1204 2497 
Q 953 2441 691 2322 
L 691 4666 
z
" transform="scale(0.015625)"/>
       </defs>
       <use xlink:href="#DejaVuSans-35"/>
       <use xlink:href="#DejaVuSans-30" x="63.623047"/>
      </g>
     </g>
    </g>
    <g id="xtick_7">
     <g id="line2d_7">
      <path d="M 743.446374 492.828521 
L 743.446374 3.588521 
" clip-path="url(#pf4389c630d)" style="fill: none; stroke: #ffffff; stroke-linecap: round"/>
     </g>
     <g id="text_7">
      <!-- 60 -->
      <g style="fill: #262626" transform="translate(729.448874 519.045083)scale(0.22 -0.22)">
       <defs>
        <path id="DejaVuSans-36" d="M 2113 2584 
Q 1688 2584 1439 2293 
Q 1191 2003 1191 1497 
Q 1191 994 1439 701 
Q 1688 409 2113 409 
Q 2538 409 2786 701 
Q 3034 994 3034 1497 
Q 3034 2003 2786 2293 
Q 2538 2584 2113 2584 
z
M 3366 4563 
L 3366 3988 
Q 3128 4100 2886 4159 
Q 2644 4219 2406 4219 
Q 1781 4219 1451 3797 
Q 1122 3375 1075 2522 
Q 1259 2794 1537 2939 
Q 1816 3084 2150 3084 
Q 2853 3084 3261 2657 
Q 3669 2231 3669 1497 
Q 3669 778 3244 343 
Q 2819 -91 2113 -91 
Q 1303 -91 875 529 
Q 447 1150 447 2328 
Q 447 3434 972 4092 
Q 1497 4750 2381 4750 
Q 2619 4750 2861 4703 
Q 3103 4656 3366 4563 
z
" transform="scale(0.015625)"/>
       </defs>
       <use xlink:href="#DejaVuSans-36"/>
       <use xlink:href="#DejaVuSans-30" x="63.623047"/>
      </g>
     </g>
    </g>
    <g id="xtick_8">
     <g id="line2d_8">
      <path d="M 846.185155 492.828521 
L 846.185155 3.588521 
" clip-path="url(#pf4389c630d)" style="fill: none; stroke: #ffffff; stroke-linecap: round"/>
     </g>
     <g id="text_8">
      <!-- 70 -->
      <g style="fill: #262626" transform="translate(832.187655 519.045083)scale(0.22 -0.22)">
       <defs>
        <path id="DejaVuSans-37" d="M 525 4666 
L 3525 4666 
L 3525 4397 
L 1831 0 
L 1172 0 
L 2766 4134 
L 525 4134 
L 525 4666 
z
" transform="scale(0.015625)"/>
       </defs>
       <use xlink:href="#DejaVuSans-37"/>
       <use xlink:href="#DejaVuSans-30" x="63.623047"/>
      </g>
     </g>
    </g>
    <g id="xtick_9">
     <g id="line2d_9">
      <path d="M 948.923935 492.828521 
L 948.923935 3.588521 
" clip-path="url(#pf4389c630d)" style="fill: none; stroke: #ffffff; stroke-linecap: round"/>
     </g>
     <g id="text_9">
      <!-- 80 -->
      <g style="fill: #262626" transform="translate(934.926435 519.045083)scale(0.22 -0.22)">
       <defs>
        <path id="DejaVuSans-38" d="M 2034 2216 
Q 1584 2216 1326 1975 
Q 1069 1734 1069 1313 
Q 1069 891 1326 650 
Q 1584 409 2034 409 
Q 2484 409 2743 651 
Q 3003 894 3003 1313 
Q 3003 1734 2745 1975 
Q 2488 2216 2034 2216 
z
M 1403 2484 
Q 997 2584 770 2862 
Q 544 3141 544 3541 
Q 544 4100 942 4425 
Q 1341 4750 2034 4750 
Q 2731 4750 3128 4425 
Q 3525 4100 3525 3541 
Q 3525 3141 3298 2862 
Q 3072 2584 2669 2484 
Q 3125 2378 3379 2068 
Q 3634 1759 3634 1313 
Q 3634 634 3220 271 
Q 2806 -91 2034 -91 
Q 1263 -91 848 271 
Q 434 634 434 1313 
Q 434 1759 690 2068 
Q 947 2378 1403 2484 
z
M 1172 3481 
Q 1172 3119 1398 2916 
Q 1625 2713 2034 2713 
Q 2441 2713 2670 2916 
Q 2900 3119 2900 3481 
Q 2900 3844 2670 4047 
Q 2441 4250 2034 4250 
Q 1625 4250 1398 4047 
Q 1172 3844 1172 3481 
z
" transform="scale(0.015625)"/>
       </defs>
       <use xlink:href="#DejaVuSans-38"/>
       <use xlink:href="#DejaVuSans-30" x="63.623047"/>
      </g>
     </g>
    </g>
    <g id="text_10">
     <!-- epoch -->
     <g style="fill: #262626" transform="translate(496.284375 545.856646)scale(0.24 -0.24)">
      <defs>
       <path id="DejaVuSans-65" d="M 3597 1894 
L 3597 1613 
L 953 1613 
Q 991 1019 1311 708 
Q 1631 397 2203 397 
Q 2534 397 2845 478 
Q 3156 559 3463 722 
L 3463 178 
Q 3153 47 2828 -22 
Q 2503 -91 2169 -91 
Q 1331 -91 842 396 
Q 353 884 353 1716 
Q 353 2575 817 3079 
Q 1281 3584 2069 3584 
Q 2775 3584 3186 3129 
Q 3597 2675 3597 1894 
z
M 3022 2063 
Q 3016 2534 2758 2815 
Q 2500 3097 2075 3097 
Q 1594 3097 1305 2825 
Q 1016 2553 972 2059 
L 3022 2063 
z
" transform="scale(0.015625)"/>
       <path id="DejaVuSans-70" d="M 1159 525 
L 1159 -1331 
L 581 -1331 
L 581 3500 
L 1159 3500 
L 1159 2969 
Q 1341 3281 1617 3432 
Q 1894 3584 2278 3584 
Q 2916 3584 3314 3078 
Q 3713 2572 3713 1747 
Q 3713 922 3314 415 
Q 2916 -91 2278 -91 
Q 1894 -91 1617 61 
Q 1341 213 1159 525 
z
M 3116 1747 
Q 3116 2381 2855 2742 
Q 2594 3103 2138 3103 
Q 1681 3103 1420 2742 
Q 1159 2381 1159 1747 
Q 1159 1113 1420 752 
Q 1681 391 2138 391 
Q 2594 391 2855 752 
Q 3116 1113 3116 1747 
z
" transform="scale(0.015625)"/>
       <path id="DejaVuSans-6f" d="M 1959 3097 
Q 1497 3097 1228 2736 
Q 959 2375 959 1747 
Q 959 1119 1226 758 
Q 1494 397 1959 397 
Q 2419 397 2687 759 
Q 2956 1122 2956 1747 
Q 2956 2369 2687 2733 
Q 2419 3097 1959 3097 
z
M 1959 3584 
Q 2709 3584 3137 3096 
Q 3566 2609 3566 1747 
Q 3566 888 3137 398 
Q 2709 -91 1959 -91 
Q 1206 -91 779 398 
Q 353 888 353 1747 
Q 353 2609 779 3096 
Q 1206 3584 1959 3584 
z
" transform="scale(0.015625)"/>
       <path id="DejaVuSans-63" d="M 3122 3366 
L 3122 2828 
Q 2878 2963 2633 3030 
Q 2388 3097 2138 3097 
Q 1578 3097 1268 2742 
Q 959 2388 959 1747 
Q 959 1106 1268 751 
Q 1578 397 2138 397 
Q 2388 397 2633 464 
Q 2878 531 3122 666 
L 3122 134 
Q 2881 22 2623 -34 
Q 2366 -91 2075 -91 
Q 1284 -91 818 406 
Q 353 903 353 1747 
Q 353 2603 823 3093 
Q 1294 3584 2113 3584 
Q 2378 3584 2631 3529 
Q 2884 3475 3122 3366 
z
" transform="scale(0.015625)"/>
       <path id="DejaVuSans-68" d="M 3513 2113 
L 3513 0 
L 2938 0 
L 2938 2094 
Q 2938 2591 2744 2837 
Q 2550 3084 2163 3084 
Q 1697 3084 1428 2787 
Q 1159 2491 1159 1978 
L 1159 0 
L 581 0 
L 581 4863 
L 1159 4863 
L 1159 2956 
Q 1366 3272 1645 3428 
Q 1925 3584 2291 3584 
Q 2894 3584 3203 3211 
Q 3513 2838 3513 2113 
z
" transform="scale(0.015625)"/>
      </defs>
      <use xlink:href="#DejaVuSans-65"/>
      <use xlink:href="#DejaVuSans-70" x="61.523438"/>
      <use xlink:href="#DejaVuSans-6f" x="125"/>
      <use xlink:href="#DejaVuSans-63" x="186.181641"/>
      <use xlink:href="#DejaVuSans-68" x="241.162109"/>
     </g>
    </g>
   </g>
   <g id="matplotlib.axis_2">
    <g id="ytick_1">
     <g id="line2d_10">
      <path d="M 86.431875 474.312211 
L 979.231875 474.312211 
" clip-path="url(#pf4389c630d)" style="fill: none; stroke: #ffffff; stroke-linecap: round"/>
     </g>
     <g id="text_11">
      <!-- 0.08 -->
      <g style="fill: #262626" transform="translate(27.9475 482.670492)scale(0.22 -0.22)">
       <defs>
        <path id="DejaVuSans-2e" d="M 684 794 
L 1344 794 
L 1344 0 
L 684 0 
L 684 794 
z
" transform="scale(0.015625)"/>
       </defs>
       <use xlink:href="#DejaVuSans-30"/>
       <use xlink:href="#DejaVuSans-2e" x="63.623047"/>
       <use xlink:href="#DejaVuSans-30" x="95.410156"/>
       <use xlink:href="#DejaVuSans-38" x="159.033203"/>
      </g>
     </g>
    </g>
    <g id="ytick_2">
     <g id="line2d_11">
      <path d="M 86.431875 381.265425 
L 979.231875 381.265425 
" clip-path="url(#pf4389c630d)" style="fill: none; stroke: #ffffff; stroke-linecap: round"/>
     </g>
     <g id="text_12">
      <!-- 0.09 -->
      <g style="fill: #262626" transform="translate(27.9475 389.623706)scale(0.22 -0.22)">
       <defs>
        <path id="DejaVuSans-39" d="M 703 97 
L 703 672 
Q 941 559 1184 500 
Q 1428 441 1663 441 
Q 2288 441 2617 861 
Q 2947 1281 2994 2138 
Q 2813 1869 2534 1725 
Q 2256 1581 1919 1581 
Q 1219 1581 811 2004 
Q 403 2428 403 3163 
Q 403 3881 828 4315 
Q 1253 4750 1959 4750 
Q 2769 4750 3195 4129 
Q 3622 3509 3622 2328 
Q 3622 1225 3098 567 
Q 2575 -91 1691 -91 
Q 1453 -91 1209 -44 
Q 966 3 703 97 
z
M 1959 2075 
Q 2384 2075 2632 2365 
Q 2881 2656 2881 3163 
Q 2881 3666 2632 3958 
Q 2384 4250 1959 4250 
Q 1534 4250 1286 3958 
Q 1038 3666 1038 3163 
Q 1038 2656 1286 2365 
Q 1534 2075 1959 2075 
z
" transform="scale(0.015625)"/>
       </defs>
       <use xlink:href="#DejaVuSans-30"/>
       <use xlink:href="#DejaVuSans-2e" x="63.623047"/>
       <use xlink:href="#DejaVuSans-30" x="95.410156"/>
       <use xlink:href="#DejaVuSans-39" x="159.033203"/>
      </g>
     </g>
    </g>
    <g id="ytick_3">
     <g id="line2d_12">
      <path d="M 86.431875 288.218639 
L 979.231875 288.218639 
" clip-path="url(#pf4389c630d)" style="fill: none; stroke: #ffffff; stroke-linecap: round"/>
     </g>
     <g id="text_13">
      <!-- 0.10 -->
      <g style="fill: #262626" transform="translate(27.9475 296.57692)scale(0.22 -0.22)">
       <use xlink:href="#DejaVuSans-30"/>
       <use xlink:href="#DejaVuSans-2e" x="63.623047"/>
       <use xlink:href="#DejaVuSans-31" x="95.410156"/>
       <use xlink:href="#DejaVuSans-30" x="159.033203"/>
      </g>
     </g>
    </g>
    <g id="ytick_4">
     <g id="line2d_13">
      <path d="M 86.431875 195.171853 
L 979.231875 195.171853 
" clip-path="url(#pf4389c630d)" style="fill: none; stroke: #ffffff; stroke-linecap: round"/>
     </g>
     <g id="text_14">
      <!-- 0.11 -->
      <g style="fill: #262626" transform="translate(27.9475 203.530134)scale(0.22 -0.22)">
       <use xlink:href="#DejaVuSans-30"/>
       <use xlink:href="#DejaVuSans-2e" x="63.623047"/>
       <use xlink:href="#DejaVuSans-31" x="95.410156"/>
       <use xlink:href="#DejaVuSans-31" x="159.033203"/>
      </g>
     </g>
    </g>
    <g id="ytick_5">
     <g id="line2d_14">
      <path d="M 86.431875 102.125067 
L 979.231875 102.125067 
" clip-path="url(#pf4389c630d)" style="fill: none; stroke: #ffffff; stroke-linecap: round"/>
     </g>
     <g id="text_15">
      <!-- 0.12 -->
      <g style="fill: #262626" transform="translate(27.9475 110.483348)scale(0.22 -0.22)">
       <use xlink:href="#DejaVuSans-30"/>
       <use xlink:href="#DejaVuSans-2e" x="63.623047"/>
       <use xlink:href="#DejaVuSans-31" x="95.410156"/>
       <use xlink:href="#DejaVuSans-32" x="159.033203"/>
      </g>
     </g>
    </g>
    <g id="ytick_6">
     <g id="line2d_15">
      <path d="M 86.431875 9.078281 
L 979.231875 9.078281 
" clip-path="url(#pf4389c630d)" style="fill: none; stroke: #ffffff; stroke-linecap: round"/>
     </g>
     <g id="text_16">
      <!-- 0.13 -->
      <g style="fill: #262626" transform="translate(27.9475 17.436562)scale(0.22 -0.22)">
       <use xlink:href="#DejaVuSans-30"/>
       <use xlink:href="#DejaVuSans-2e" x="63.623047"/>
       <use xlink:href="#DejaVuSans-31" x="95.410156"/>
       <use xlink:href="#DejaVuSans-33" x="159.033203"/>
      </g>
     </g>
    </g>
    <g id="text_17">
     <!-- correct -->
     <g style="fill: #262626" transform="translate(18.95625 290.221646)rotate(-90)scale(0.24 -0.24)">
      <defs>
       <path id="DejaVuSans-72" d="M 2631 2963 
Q 2534 3019 2420 3045 
Q 2306 3072 2169 3072 
Q 1681 3072 1420 2755 
Q 1159 2438 1159 1844 
L 1159 0 
L 581 0 
L 581 3500 
L 1159 3500 
L 1159 2956 
Q 1341 3275 1631 3429 
Q 1922 3584 2338 3584 
Q 2397 3584 2469 3576 
Q 2541 3569 2628 3553 
L 2631 2963 
z
" transform="scale(0.015625)"/>
       <path id="DejaVuSans-74" d="M 1172 4494 
L 1172 3500 
L 2356 3500 
L 2356 3053 
L 1172 3053 
L 1172 1153 
Q 1172 725 1289 603 
Q 1406 481 1766 481 
L 2356 481 
L 2356 0 
L 1766 0 
Q 1100 0 847 248 
Q 594 497 594 1153 
L 594 3053 
L 172 3053 
L 172 3500 
L 594 3500 
L 594 4494 
L 1172 4494 
z
" transform="scale(0.015625)"/>
      </defs>
      <use xlink:href="#DejaVuSans-63"/>
      <use xlink:href="#DejaVuSans-6f" x="54.980469"/>
      <use xlink:href="#DejaVuSans-72" x="116.162109"/>
      <use xlink:href="#DejaVuSans-72" x="155.525391"/>
      <use xlink:href="#DejaVuSans-65" x="194.388672"/>
      <use xlink:href="#DejaVuSans-63" x="255.912109"/>
      <use xlink:href="#DejaVuSans-74" x="310.892578"/>
     </g>
    </g>
   </g>
   <g id="PolyCollection_1">
    <defs>
     <path id="m2d7f8884fa" d="M 127.013693 -204.729782 
L 127.013693 -132.153289 
L 137.287571 -216.825864 
L 147.561449 -227.061011 
L 157.835327 -245.670368 
L 168.109205 -259.627386 
L 178.383083 -268.001596 
L 188.656961 -291.263293 
L 198.930839 -293.124229 
L 209.204717 -303.359375 
L 219.478595 -318.246861 
L 229.752473 -327.551539 
L 240.026351 -336.856218 
L 250.300229 -336.856218 
L 260.574107 -341.508557 
L 270.847985 -327.551539 
L 281.121863 -324.760136 
L 291.395742 -328.482007 
L 301.66962 -326.621071 
L 311.943498 -329.412475 
L 322.217376 -332.203879 
L 332.491254 -339.647621 
L 342.765132 -344.299961 
L 353.03901 -344.299961 
L 363.312888 -348.9523 
L 373.586766 -353.604639 
L 383.860644 -357.326511 
L 394.134522 -361.048382 
L 404.4084 -365.700722 
L 414.682278 -371.283529 
L 424.956156 -375.0054 
L 435.230034 -373.144464 
L 445.503912 -377.796804 
L 455.77779 -381.518675 
L 466.051668 -383.379611 
L 476.325546 -393.614757 
L 486.599424 -396.406161 
L 496.873302 -403.849904 
L 507.14718 -411.293647 
L 517.421058 -421.528793 
L 527.694936 -422.459261 
L 537.968814 -427.1116 
L 548.242692 -429.903004 
L 558.51657 -431.763939 
L 568.790448 -429.903004 
L 579.064326 -431.763939 
L 589.338204 -435.485811 
L 599.612082 -440.13815 
L 609.88596 -439.207682 
L 620.159838 -443.860022 
L 630.433716 -445.720957 
L 640.707594 -443.860022 
L 650.981472 -444.790489 
L 661.25535 -446.651425 
L 671.529228 -446.651425 
L 681.803106 -447.581893 
L 692.076984 -450.373297 
L 702.350862 -454.095168 
L 712.62474 -457.81704 
L 722.898618 -456.886572 
L 733.172496 -457.81704 
L 743.446374 -458.747507 
L 753.720252 -455.956104 
L 763.99413 -459.677975 
L 774.268008 -457.81704 
L 784.541887 -457.81704 
L 794.815765 -458.747507 
L 805.089643 -461.538911 
L 815.363521 -458.747507 
L 825.637399 -462.469379 
L 835.911277 -457.81704 
L 846.185155 -460.608443 
L 856.459033 -460.608443 
L 866.732911 -465.260782 
L 877.006789 -465.260782 
L 887.280667 -467.121718 
L 897.554545 -468.982654 
L 907.828423 -469.913122 
L 918.102301 -473.634993 
L 928.376179 -469.913122 
L 938.650057 -473.634993 
L 938.650057 -492.24435 
L 938.650057 -492.24435 
L 928.376179 -488.522479 
L 918.102301 -489.452947 
L 907.828423 -490.383415 
L 897.554545 -488.522479 
L 887.280667 -490.383415 
L 877.006789 -487.592011 
L 866.732911 -484.800607 
L 856.459033 -480.148268 
L 846.185155 -479.2178 
L 835.911277 -477.356865 
L 825.637399 -483.87014 
L 815.363521 -486.661543 
L 805.089643 -488.522479 
L 794.815765 -484.800607 
L 784.541887 -483.87014 
L 774.268008 -480.148268 
L 763.99413 -481.078736 
L 753.720252 -481.078736 
L 743.446374 -476.426397 
L 733.172496 -479.2178 
L 722.898618 -470.84359 
L 712.62474 -468.982654 
L 702.350862 -466.19125 
L 692.076984 -468.052186 
L 681.803106 -469.913122 
L 671.529228 -468.982654 
L 661.25535 -469.913122 
L 650.981472 -468.982654 
L 640.707594 -466.19125 
L 630.433716 -461.538911 
L 620.159838 -462.469379 
L 609.88596 -458.747507 
L 599.612082 -464.330315 
L 589.338204 -465.260782 
L 579.064326 -468.982654 
L 568.790448 -456.886572 
L 558.51657 -455.956104 
L 548.242692 -448.512361 
L 537.968814 -442.929554 
L 527.694936 -441.068618 
L 517.421058 -444.790489 
L 507.14718 -447.581893 
L 496.873302 -451.303765 
L 486.599424 -454.095168 
L 476.325546 -455.956104 
L 466.051668 -451.303765 
L 455.77779 -443.860022 
L 445.503912 -447.581893 
L 435.230034 -455.956104 
L 424.956156 -457.81704 
L 414.682278 -450.373297 
L 404.4084 -446.651425 
L 394.134522 -435.485811 
L 383.860644 -447.581893 
L 373.586766 -451.303765 
L 363.312888 -448.512361 
L 353.03901 -433.624875 
L 342.765132 -430.833472 
L 332.491254 -422.459261 
L 322.217376 -416.876454 
L 311.943498 -414.08505 
L 301.66962 -423.389729 
L 291.395742 -428.042068 
L 281.121863 -416.876454 
L 270.847985 -422.459261 
L 260.574107 -410.363179 
L 250.300229 -410.363179 
L 240.026351 -388.03195 
L 229.752473 -384.310079 
L 219.478595 -379.657739 
L 209.204717 -386.171014 
L 198.930839 -378.727272 
L 188.656961 -376.866336 
L 178.383083 -383.379611 
L 168.109205 -401.988968 
L 157.835327 -393.614757 
L 147.561449 -376.866336 
L 137.287571 -338.717154 
L 127.013693 -204.729782 
z
" style="stroke: #edd1cb; stroke-opacity: 0.2"/>
    </defs>
    <g clip-path="url(#pf4389c630d)">
     <use xlink:href="#m2d7f8884fa" x="0" y="551.567896" style="fill: #edd1cb; fill-opacity: 0.2; stroke: #edd1cb; stroke-opacity: 0.2"/>
    </g>
   </g>
   <g id="PolyCollection_2">
    <defs>
     <path id="m22cc7fcab5" d="M 127.013693 -204.729782 
L 127.013693 -80.977557 
L 137.287571 -249.392239 
L 147.561449 -195.425103 
L 157.835327 -171.232939 
L 168.109205 -209.382121 
L 178.383083 -255.905514 
L 188.656961 -241.948496 
L 198.930839 -273.584404 
L 209.204717 -295.171258 
L 219.478595 -294.985164 
L 229.752473 -285.680486 
L 240.026351 -310.803118 
L 250.300229 -308.011714 
L 260.574107 -320.107796 
L 270.847985 -312.664054 
L 281.121863 -323.829668 
L 291.395742 -321.968732 
L 301.66962 -316.385925 
L 311.943498 -334.995282 
L 322.217376 -323.829668 
L 332.491254 -338.717154 
L 342.765132 -332.203879 
L 353.03901 -346.160896 
L 363.312888 -344.299961 
L 373.586766 -346.160896 
L 383.860644 -351.743704 
L 394.134522 -347.091364 
L 404.4084 -361.048382 
L 414.682278 -362.909318 
L 424.956156 -359.187447 
L 435.230034 -363.839786 
L 445.503912 -365.700722 
L 455.77779 -369.422593 
L 466.051668 -373.144464 
L 476.325546 -375.0054 
L 486.599424 -379.657739 
L 496.873302 -403.221838 
L 507.14718 -369.422593 
L 517.421058 -381.518675 
L 527.694936 -378.727272 
L 537.968814 -379.657739 
L 548.242692 -387.101482 
L 558.51657 -376.866336 
L 568.790448 -397.336629 
L 579.064326 -378.727272 
L 589.338204 -411.293647 
L 599.612082 -385.240547 
L 609.88596 -411.293647 
L 620.159838 -388.03195 
L 630.433716 -407.571775 
L 640.707594 -390.823354 
L 650.981472 -417.806922 
L 661.25535 -393.614757 
L 671.529228 -426.181132 
L 681.803106 -401.988968 
L 692.076984 -426.181132 
L 702.350862 -407.571775 
L 712.62474 -427.1116 
L 722.898618 -411.293647 
L 733.172496 -426.181132 
L 743.446374 -420.598325 
L 753.720252 -432.694407 
L 763.99413 -425.250664 
L 774.268008 -436.416279 
L 784.541887 -423.389729 
L 794.815765 -438.277214 
L 805.089643 -428.972536 
L 815.363521 -439.207682 
L 825.637399 -434.555343 
L 835.911277 -444.790489 
L 846.185155 -441.068618 
L 856.459033 -441.999086 
L 866.732911 -442.929554 
L 877.006789 -445.720957 
L 887.280667 -448.512361 
L 897.554545 -444.790489 
L 907.828423 -454.095168 
L 918.102301 -449.442829 
L 928.376179 -461.538911 
L 938.650057 -448.512361 
L 938.650057 -522.019322 
L 938.650057 -522.019322 
L 928.376179 -507.131836 
L 918.102301 -525.741193 
L 907.828423 -502.479497 
L 897.554545 -516.436515 
L 887.280667 -503.409965 
L 877.006789 -522.019322 
L 866.732911 -509.92324 
L 856.459033 -512.714643 
L 846.185155 -508.992772 
L 835.911277 -508.062304 
L 825.637399 -510.853707 
L 815.363521 -502.479497 
L 805.089643 -513.645111 
L 794.815765 -497.827157 
L 784.541887 -512.714643 
L 774.268008 -499.688093 
L 763.99413 -504.340432 
L 753.720252 -501.549029 
L 743.446374 -504.340432 
L 733.172496 -505.2709 
L 722.898618 -501.549029 
L 712.62474 -507.131836 
L 702.350862 -494.105286 
L 692.076984 -502.479497 
L 681.803106 -486.661543 
L 671.529228 -499.688093 
L 661.25535 -492.24435 
L 650.981472 -498.757625 
L 640.707594 -493.174818 
L 630.433716 -492.24435 
L 620.159838 -500.618561 
L 609.88596 -485.731075 
L 599.612082 -499.688093 
L 589.338204 -487.592011 
L 579.064326 -496.89669 
L 568.790448 -485.731075 
L 558.51657 -500.618561 
L 548.242692 -481.078736 
L 537.968814 -487.592011 
L 527.694936 -480.148268 
L 517.421058 -481.078736 
L 507.14718 -477.356865 
L 496.873302 -471.774057 
L 486.599424 -470.84359 
L 476.325546 -459.677975 
L 466.051668 -467.121718 
L 455.77779 -450.373297 
L 445.503912 -464.330315 
L 435.230034 -447.581893 
L 424.956156 -464.330315 
L 414.682278 -442.929554 
L 404.4084 -461.538911 
L 394.134522 -448.512361 
L 383.860644 -449.442829 
L 373.586766 -441.068618 
L 363.312888 -449.442829 
L 353.03901 -438.277214 
L 342.765132 -436.416279 
L 332.491254 -441.068618 
L 322.217376 -428.972536 
L 311.943498 -440.13815 
L 301.66962 -428.042068 
L 291.395742 -419.357701 
L 281.121863 -428.972536 
L 270.847985 -426.181132 
L 260.574107 -428.042068 
L 250.300229 -440.13815 
L 240.026351 -414.08505 
L 229.752473 -426.181132 
L 219.478595 -407.571775 
L 209.204717 -414.08505 
L 198.930839 -387.101482 
L 188.656961 -388.962418 
L 178.383083 -401.0585 
L 168.109205 -344.299961 
L 157.835327 -368.492125 
L 147.561449 -283.81955 
L 137.287571 -364.770254 
L 127.013693 -204.729782 
z
" style="stroke: #2d1e3e; stroke-opacity: 0.2"/>
    </defs>
    <g clip-path="url(#pf4389c630d)">
     <use xlink:href="#m22cc7fcab5" x="0" y="551.567896" style="fill: #2d1e3e; fill-opacity: 0.2; stroke: #2d1e3e; stroke-opacity: 0.2"/>
    </g>
   </g>
   <g id="line2d_16">
    <path d="M 127.013693 383.12636 
L 137.287571 273.796387 
L 147.561449 249.604223 
L 157.835327 231.925333 
L 168.109205 220.759719 
L 178.383083 225.877292 
L 188.656961 217.503082 
L 198.930839 215.642146 
L 209.204717 206.802701 
L 219.478595 202.615596 
L 229.752473 195.637087 
L 240.026351 189.123812 
L 250.300229 177.958198 
L 260.574107 175.632028 
L 270.847985 176.562496 
L 281.121863 180.749601 
L 291.395742 173.305858 
L 301.66962 176.562496 
L 311.943498 179.819133 
L 322.217376 177.02773 
L 332.491254 170.514455 
L 342.765132 164.00118 
L 353.03901 162.605478 
L 363.312888 152.835565 
L 373.586766 149.113694 
L 383.860644 149.113694 
L 394.134522 153.300799 
L 404.4084 145.391823 
L 414.682278 140.739483 
L 424.956156 135.156676 
L 435.230034 137.017612 
L 445.503912 138.878548 
L 455.77779 138.878548 
L 466.051668 134.226208 
L 476.325546 126.782465 
L 486.599424 126.317231 
L 496.873302 123.991062 
L 507.14718 122.130126 
L 517.421058 118.408255 
L 527.694936 119.803956 
L 537.968814 116.547319 
L 548.242692 112.360214 
L 558.51657 107.707874 
L 568.790448 108.173108 
L 579.064326 101.194599 
L 589.338204 101.194599 
L 599.612082 99.333664 
L 609.88596 102.590301 
L 620.159838 98.403196 
L 630.433716 97.937962 
L 640.707594 96.54226 
L 650.981472 94.681324 
L 661.25535 93.285622 
L 671.529228 93.750856 
L 681.803106 92.820389 
L 692.076984 92.355155 
L 702.350862 91.424687 
L 712.62474 88.168049 
L 722.898618 87.702815 
L 733.172496 83.050476 
L 743.446374 83.980944 
L 753.720252 83.050476 
L 763.99413 81.18954 
L 774.268008 82.585242 
L 784.541887 80.724306 
L 794.815765 79.793838 
L 805.089643 76.537201 
L 815.363521 78.863371 
L 825.637399 78.398137 
L 835.911277 83.980944 
L 846.185155 81.654774 
L 856.459033 81.18954 
L 866.732911 76.537201 
L 877.006789 75.141499 
L 887.280667 72.81533 
L 897.554545 72.81533 
L 907.828423 71.419628 
L 918.102301 70.023926 
L 928.376179 72.350096 
L 938.650057 68.628224 
" clip-path="url(#pf4389c630d)" style="fill: none; stroke: #edd1cb; stroke-width: 1.5; stroke-linecap: round"/>
   </g>
   <g id="line2d_17">
    <path d="M 127.013693 412.28102 
L 137.287571 260.304603 
L 147.561449 309.6194 
L 157.835327 264.646786 
L 168.109205 265.88741 
L 178.383083 225.25698 
L 188.656961 227.428072 
L 198.930839 219.674173 
L 209.204717 210.679651 
L 219.478595 203.546064 
L 229.752473 201.995284 
L 240.026351 193.621073 
L 250.300229 184.626551 
L 260.574107 174.391404 
L 270.847985 184.006239 
L 281.121863 170.979689 
L 291.395742 173.771092 
L 301.66962 170.979689 
L 311.943498 165.396881 
L 322.217376 165.707037 
L 332.491254 158.573451 
L 342.765132 152.060176 
L 353.03901 156.092203 
L 363.312888 143.375809 
L 373.586766 149.268772 
L 383.860644 144.616433 
L 394.134522 142.445341 
L 404.4084 133.760974 
L 414.682278 136.552378 
L 424.956156 132.210195 
L 435.230034 133.450818 
L 445.503912 129.728947 
L 455.77779 128.798479 
L 466.051668 123.215672 
L 476.325546 122.285204 
L 486.599424 121.664892 
L 496.873302 116.702397 
L 507.14718 120.114112 
L 517.421058 112.360214 
L 527.694936 114.221149 
L 537.968814 109.56881 
L 548.242692 109.56881 
L 558.51657 105.536783 
L 568.790448 100.884443 
L 579.064326 104.916471 
L 589.338204 94.061012 
L 599.612082 99.023508 
L 609.88596 94.061012 
L 620.159838 97.472728 
L 630.433716 91.269609 
L 640.707594 98.713352 
L 650.981472 85.376646 
L 661.25535 100.264131 
L 671.529228 78.553215 
L 681.803106 98.09304 
L 692.076984 75.141499 
L 702.350862 94.99148 
L 712.62474 74.211031 
L 722.898618 89.098517 
L 733.172496 76.382123 
L 743.446374 85.996958 
L 753.720252 76.382123 
L 763.99413 82.585242 
L 774.268008 77.002435 
L 784.541887 79.483683 
L 794.815765 74.831343 
L 805.089643 76.382123 
L 815.363521 75.451655 
L 825.637399 76.382123 
L 835.911277 69.868848 
L 846.185155 75.141499 
L 856.459033 68.628224 
L 866.732911 72.03994 
L 877.006789 63.975885 
L 887.280667 72.03994 
L 897.554545 65.526665 
L 907.828423 69.868848 
L 918.102301 60.564169 
L 928.376179 63.045417 
L 938.650057 62.735261 
" clip-path="url(#pf4389c630d)" style="fill: none; stroke: #2d1e3e; stroke-width: 1.5; stroke-linecap: round"/>
   </g>
   <g id="line2d_18"/>
   <g id="line2d_19"/>
   <g id="patch_3">
    <path d="M 86.431875 492.828521 
L 86.431875 3.588521 
" style="fill: none; stroke: #ffffff; stroke-width: 1.25; stroke-linejoin: miter; stroke-linecap: square"/>
   </g>
   <g id="patch_4">
    <path d="M 979.231875 492.828521 
L 979.231875 3.588521 
" style="fill: none; stroke: #ffffff; stroke-width: 1.25; stroke-linejoin: miter; stroke-linecap: square"/>
   </g>
   <g id="patch_5">
    <path d="M 86.431875 492.828521 
L 979.231875 492.828521 
" style="fill: none; stroke: #ffffff; stroke-width: 1.25; stroke-linejoin: miter; stroke-linecap: square"/>
   </g>
   <g id="patch_6">
    <path d="M 86.431875 3.588521 
L 979.231875 3.588521 
" style="fill: none; stroke: #ffffff; stroke-width: 1.25; stroke-linejoin: miter; stroke-linecap: square"/>
   </g>
   <g id="legend_1">
    <g id="patch_7">
     <path d="M 101.831875 119.999771 
L 249.21125 119.999771 
Q 253.61125 119.999771 253.61125 115.599771 
L 253.61125 18.988521 
Q 253.61125 14.588521 249.21125 14.588521 
L 101.831875 14.588521 
Q 97.431875 14.588521 97.431875 18.988521 
L 97.431875 115.599771 
Q 97.431875 119.999771 101.831875 119.999771 
z
" style="fill: #eaeaf2; opacity: 0.8; stroke: #cccccc; stroke-linejoin: miter"/>
    </g>
    <g id="text_18">
     <!-- lr -->
     <g style="fill: #262626" transform="translate(167.254687 41.624771)scale(0.24 -0.24)">
      <defs>
       <path id="DejaVuSans-6c" d="M 603 4863 
L 1178 4863 
L 1178 0 
L 603 0 
L 603 4863 
z
" transform="scale(0.015625)"/>
      </defs>
      <use xlink:href="#DejaVuSans-6c"/>
      <use xlink:href="#DejaVuSans-72" x="27.783203"/>
     </g>
    </g>
    <g id="line2d_20">
     <path d="M 106.231875 66.632583 
L 128.231875 66.632583 
L 150.231875 66.632583 
" style="fill: none; stroke: #edd1cb; stroke-width: 1.5; stroke-linecap: round"/>
    </g>
    <g id="text_19">
     <!-- 0.0005 -->
     <g style="fill: #262626" transform="translate(167.831875 74.332583)scale(0.22 -0.22)">
      <use xlink:href="#DejaVuSans-30"/>
      <use xlink:href="#DejaVuSans-2e" x="63.623047"/>
      <use xlink:href="#DejaVuSans-30" x="95.410156"/>
      <use xlink:href="#DejaVuSans-30" x="159.033203"/>
      <use xlink:href="#DejaVuSans-30" x="222.65625"/>
      <use xlink:href="#DejaVuSans-35" x="286.279297"/>
     </g>
    </g>
    <g id="line2d_21">
     <path d="M 106.231875 98.924458 
L 128.231875 98.924458 
L 150.231875 98.924458 
" style="fill: none; stroke: #2d1e3e; stroke-width: 1.5; stroke-linecap: round"/>
    </g>
    <g id="text_20">
     <!-- 0.001 -->
     <g style="fill: #262626" transform="translate(167.831875 106.624458)scale(0.22 -0.22)">
      <use xlink:href="#DejaVuSans-30"/>
      <use xlink:href="#DejaVuSans-2e" x="63.623047"/>
      <use xlink:href="#DejaVuSans-30" x="95.410156"/>
      <use xlink:href="#DejaVuSans-30" x="159.033203"/>
      <use xlink:href="#DejaVuSans-31" x="222.65625"/>
     </g>
    </g>
   </g>
  </g>
 </g>
 <defs>
  <clipPath id="pf4389c630d">
   <rect x="86.431875" y="3.588521" width="892.8" height="489.24"/>
  </clipPath>
 </defs>
</svg>
