<?xml version="1.0" encoding="utf-8" standalone="no"?>
<!DOCTYPE svg PUBLIC "-//W3C//DTD SVG 1.1//EN"
  "http://www.w3.org/Graphics/SVG/1.1/DTD/svg11.dtd">
<svg xmlns:xlink="http://www.w3.org/1999/xlink" width="424.583897pt" height="276.899375pt" viewBox="0 0 424.583897 276.899375" xmlns="http://www.w3.org/2000/svg" version="1.1">
 <metadata>
  <rdf:RDF xmlns:dc="http://purl.org/dc/elements/1.1/" xmlns:cc="http://creativecommons.org/ns#" xmlns:rdf="http://www.w3.org/1999/02/22-rdf-syntax-ns#">
   <cc:Work>
    <dc:type rdf:resource="http://purl.org/dc/dcmitype/StillImage"/>
    <dc:date>2022-11-09T17:13:54.327146</dc:date>
    <dc:format>image/svg+xml</dc:format>
    <dc:creator>
     <cc:Agent>
      <dc:title>Matplotlib v3.5.2, https://matplotlib.org/</dc:title>
     </cc:Agent>
    </dc:creator>
   </cc:Work>
  </rdf:RDF>
 </metadata>
 <defs>
  <style type="text/css">*{stroke-linejoin: round; stroke-linecap: butt}</style>
 </defs>
 <g id="figure_1">
  <g id="patch_1">
   <path d="M 0 276.899375 
L 424.583897 276.899375 
L 424.583897 0 
L 0 0 
L 0 276.899375 
z
" style="fill: none"/>
  </g>
  <g id="axes_1">
   <g id="patch_2">
    <path d="M 86.431875 218.16 
L 421.231875 218.16 
L 421.231875 0.72 
L 86.431875 0.72 
z
" style="fill: #eaeaf2"/>
   </g>
   <g id="matplotlib.axis_1">
    <g id="xtick_1">
     <g id="line2d_1">
      <path d="M 101.650057 218.16 
L 101.650057 0.72 
" clip-path="url(#p0d8197b7d8)" style="fill: none; stroke: #ffffff; stroke-linecap: round"/>
     </g>
     <g id="text_1">
      <!-- 0 -->
      <g style="fill: #262626" transform="translate(94.651307 244.376562)scale(0.22 -0.22)">
       <defs>
        <path id="DejaVuSans-30" d="M 2034 4250 
Q 1547 4250 1301 3770 
Q 1056 3291 1056 2328 
Q 1056 1369 1301 889 
Q 1547 409 2034 409 
Q 2525 409 2770 889 
Q 3016 1369 3016 2328 
Q 3016 3291 2770 3770 
Q 2525 4250 2034 4250 
z
M 2034 4750 
Q 2819 4750 3233 4129 
Q 3647 3509 3647 2328 
Q 3647 1150 3233 529 
Q 2819 -91 2034 -91 
Q 1250 -91 836 529 
Q 422 1150 422 2328 
Q 422 3509 836 4129 
Q 1250 4750 2034 4750 
z
" transform="scale(0.015625)"/>
       </defs>
       <use xlink:href="#DejaVuSans-30"/>
      </g>
     </g>
    </g>
    <g id="xtick_2">
     <g id="line2d_2">
      <path d="M 178.704142 218.16 
L 178.704142 0.72 
" clip-path="url(#p0d8197b7d8)" style="fill: none; stroke: #ffffff; stroke-linecap: round"/>
     </g>
     <g id="text_2">
      <!-- 20 -->
      <g style="fill: #262626" transform="translate(164.706642 244.376562)scale(0.22 -0.22)">
       <defs>
        <path id="DejaVuSans-32" d="M 1228 531 
L 3431 531 
L 3431 0 
L 469 0 
L 469 531 
Q 828 903 1448 1529 
Q 2069 2156 2228 2338 
Q 2531 2678 2651 2914 
Q 2772 3150 2772 3378 
Q 2772 3750 2511 3984 
Q 2250 4219 1831 4219 
Q 1534 4219 1204 4116 
Q 875 4013 500 3803 
L 500 4441 
Q 881 4594 1212 4672 
Q 1544 4750 1819 4750 
Q 2544 4750 2975 4387 
Q 3406 4025 3406 3419 
Q 3406 3131 3298 2873 
Q 3191 2616 2906 2266 
Q 2828 2175 2409 1742 
Q 1991 1309 1228 531 
z
" transform="scale(0.015625)"/>
       </defs>
       <use xlink:href="#DejaVuSans-32"/>
       <use xlink:href="#DejaVuSans-30" x="63.623047"/>
      </g>
     </g>
    </g>
    <g id="xtick_3">
     <g id="line2d_3">
      <path d="M 255.758227 218.16 
L 255.758227 0.72 
" clip-path="url(#p0d8197b7d8)" style="fill: none; stroke: #ffffff; stroke-linecap: round"/>
     </g>
     <g id="text_3">
      <!-- 40 -->
      <g style="fill: #262626" transform="translate(241.760727 244.376562)scale(0.22 -0.22)">
       <defs>
        <path id="DejaVuSans-34" d="M 2419 4116 
L 825 1625 
L 2419 1625 
L 2419 4116 
z
M 2253 4666 
L 3047 4666 
L 3047 1625 
L 3713 1625 
L 3713 1100 
L 3047 1100 
L 3047 0 
L 2419 0 
L 2419 1100 
L 313 1100 
L 313 1709 
L 2253 4666 
z
" transform="scale(0.015625)"/>
       </defs>
       <use xlink:href="#DejaVuSans-34"/>
       <use xlink:href="#DejaVuSans-30" x="63.623047"/>
      </g>
     </g>
    </g>
    <g id="xtick_4">
     <g id="line2d_4">
      <path d="M 332.812312 218.16 
L 332.812312 0.72 
" clip-path="url(#p0d8197b7d8)" style="fill: none; stroke: #ffffff; stroke-linecap: round"/>
     </g>
     <g id="text_4">
      <!-- 60 -->
      <g style="fill: #262626" transform="translate(318.814812 244.376562)scale(0.22 -0.22)">
       <defs>
        <path id="DejaVuSans-36" d="M 2113 2584 
Q 1688 2584 1439 2293 
Q 1191 2003 1191 1497 
Q 1191 994 1439 701 
Q 1688 409 2113 409 
Q 2538 409 2786 701 
Q 3034 994 3034 1497 
Q 3034 2003 2786 2293 
Q 2538 2584 2113 2584 
z
M 3366 4563 
L 3366 3988 
Q 3128 4100 2886 4159 
Q 2644 4219 2406 4219 
Q 1781 4219 1451 3797 
Q 1122 3375 1075 2522 
Q 1259 2794 1537 2939 
Q 1816 3084 2150 3084 
Q 2853 3084 3261 2657 
Q 3669 2231 3669 1497 
Q 3669 778 3244 343 
Q 2819 -91 2113 -91 
Q 1303 -91 875 529 
Q 447 1150 447 2328 
Q 447 3434 972 4092 
Q 1497 4750 2381 4750 
Q 2619 4750 2861 4703 
Q 3103 4656 3366 4563 
z
" transform="scale(0.015625)"/>
       </defs>
       <use xlink:href="#DejaVuSans-36"/>
       <use xlink:href="#DejaVuSans-30" x="63.623047"/>
      </g>
     </g>
    </g>
    <g id="xtick_5">
     <g id="line2d_5">
      <path d="M 409.866397 218.16 
L 409.866397 0.72 
" clip-path="url(#p0d8197b7d8)" style="fill: none; stroke: #ffffff; stroke-linecap: round"/>
     </g>
     <g id="text_5">
      <!-- 80 -->
      <g style="fill: #262626" transform="translate(395.868897 244.376562)scale(0.22 -0.22)">
       <defs>
        <path id="DejaVuSans-38" d="M 2034 2216 
Q 1584 2216 1326 1975 
Q 1069 1734 1069 1313 
Q 1069 891 1326 650 
Q 1584 409 2034 409 
Q 2484 409 2743 651 
Q 3003 894 3003 1313 
Q 3003 1734 2745 1975 
Q 2488 2216 2034 2216 
z
M 1403 2484 
Q 997 2584 770 2862 
Q 544 3141 544 3541 
Q 544 4100 942 4425 
Q 1341 4750 2034 4750 
Q 2731 4750 3128 4425 
Q 3525 4100 3525 3541 
Q 3525 3141 3298 2862 
Q 3072 2584 2669 2484 
Q 3125 2378 3379 2068 
Q 3634 1759 3634 1313 
Q 3634 634 3220 271 
Q 2806 -91 2034 -91 
Q 1263 -91 848 271 
Q 434 634 434 1313 
Q 434 1759 690 2068 
Q 947 2378 1403 2484 
z
M 1172 3481 
Q 1172 3119 1398 2916 
Q 1625 2713 2034 2713 
Q 2441 2713 2670 2916 
Q 2900 3119 2900 3481 
Q 2900 3844 2670 4047 
Q 2441 4250 2034 4250 
Q 1625 4250 1398 4047 
Q 1172 3844 1172 3481 
z
" transform="scale(0.015625)"/>
       </defs>
       <use xlink:href="#DejaVuSans-38"/>
       <use xlink:href="#DejaVuSans-30" x="63.623047"/>
      </g>
     </g>
    </g>
    <g id="text_6">
     <!-- epoch -->
     <g style="fill: #262626" transform="translate(217.284375 271.188125)scale(0.24 -0.24)">
      <defs>
       <path id="DejaVuSans-65" d="M 3597 1894 
L 3597 1613 
L 953 1613 
Q 991 1019 1311 708 
Q 1631 397 2203 397 
Q 2534 397 2845 478 
Q 3156 559 3463 722 
L 3463 178 
Q 3153 47 2828 -22 
Q 2503 -91 2169 -91 
Q 1331 -91 842 396 
Q 353 884 353 1716 
Q 353 2575 817 3079 
Q 1281 3584 2069 3584 
Q 2775 3584 3186 3129 
Q 3597 2675 3597 1894 
z
M 3022 2063 
Q 3016 2534 2758 2815 
Q 2500 3097 2075 3097 
Q 1594 3097 1305 2825 
Q 1016 2553 972 2059 
L 3022 2063 
z
" transform="scale(0.015625)"/>
       <path id="DejaVuSans-70" d="M 1159 525 
L 1159 -1331 
L 581 -1331 
L 581 3500 
L 1159 3500 
L 1159 2969 
Q 1341 3281 1617 3432 
Q 1894 3584 2278 3584 
Q 2916 3584 3314 3078 
Q 3713 2572 3713 1747 
Q 3713 922 3314 415 
Q 2916 -91 2278 -91 
Q 1894 -91 1617 61 
Q 1341 213 1159 525 
z
M 3116 1747 
Q 3116 2381 2855 2742 
Q 2594 3103 2138 3103 
Q 1681 3103 1420 2742 
Q 1159 2381 1159 1747 
Q 1159 1113 1420 752 
Q 1681 391 2138 391 
Q 2594 391 2855 752 
Q 3116 1113 3116 1747 
z
" transform="scale(0.015625)"/>
       <path id="DejaVuSans-6f" d="M 1959 3097 
Q 1497 3097 1228 2736 
Q 959 2375 959 1747 
Q 959 1119 1226 758 
Q 1494 397 1959 397 
Q 2419 397 2687 759 
Q 2956 1122 2956 1747 
Q 2956 2369 2687 2733 
Q 2419 3097 1959 3097 
z
M 1959 3584 
Q 2709 3584 3137 3096 
Q 3566 2609 3566 1747 
Q 3566 888 3137 398 
Q 2709 -91 1959 -91 
Q 1206 -91 779 398 
Q 353 888 353 1747 
Q 353 2609 779 3096 
Q 1206 3584 1959 3584 
z
" transform="scale(0.015625)"/>
       <path id="DejaVuSans-63" d="M 3122 3366 
L 3122 2828 
Q 2878 2963 2633 3030 
Q 2388 3097 2138 3097 
Q 1578 3097 1268 2742 
Q 959 2388 959 1747 
Q 959 1106 1268 751 
Q 1578 397 2138 397 
Q 2388 397 2633 464 
Q 2878 531 3122 666 
L 3122 134 
Q 2881 22 2623 -34 
Q 2366 -91 2075 -91 
Q 1284 -91 818 406 
Q 353 903 353 1747 
Q 353 2603 823 3093 
Q 1294 3584 2113 3584 
Q 2378 3584 2631 3529 
Q 2884 3475 3122 3366 
z
" transform="scale(0.015625)"/>
       <path id="DejaVuSans-68" d="M 3513 2113 
L 3513 0 
L 2938 0 
L 2938 2094 
Q 2938 2591 2744 2837 
Q 2550 3084 2163 3084 
Q 1697 3084 1428 2787 
Q 1159 2491 1159 1978 
L 1159 0 
L 581 0 
L 581 4863 
L 1159 4863 
L 1159 2956 
Q 1366 3272 1645 3428 
Q 1925 3584 2291 3584 
Q 2894 3584 3203 3211 
Q 3513 2838 3513 2113 
z
" transform="scale(0.015625)"/>
      </defs>
      <use xlink:href="#DejaVuSans-65"/>
      <use xlink:href="#DejaVuSans-70" x="61.523438"/>
      <use xlink:href="#DejaVuSans-6f" x="125"/>
      <use xlink:href="#DejaVuSans-63" x="186.181641"/>
      <use xlink:href="#DejaVuSans-68" x="241.162109"/>
     </g>
    </g>
   </g>
   <g id="matplotlib.axis_2">
    <g id="ytick_1">
     <g id="line2d_6">
      <path d="M 86.431875 183.634969 
L 421.231875 183.634969 
" clip-path="url(#p0d8197b7d8)" style="fill: none; stroke: #ffffff; stroke-linecap: round"/>
     </g>
     <g id="text_7">
      <!-- 0.10 -->
      <g style="fill: #262626" transform="translate(27.9475 191.99325)scale(0.22 -0.22)">
       <defs>
        <path id="DejaVuSans-2e" d="M 684 794 
L 1344 794 
L 1344 0 
L 684 0 
L 684 794 
z
" transform="scale(0.015625)"/>
        <path id="DejaVuSans-31" d="M 794 531 
L 1825 531 
L 1825 4091 
L 703 3866 
L 703 4441 
L 1819 4666 
L 2450 4666 
L 2450 531 
L 3481 531 
L 3481 0 
L 794 0 
L 794 531 
z
" transform="scale(0.015625)"/>
       </defs>
       <use xlink:href="#DejaVuSans-30"/>
       <use xlink:href="#DejaVuSans-2e" x="63.623047"/>
       <use xlink:href="#DejaVuSans-31" x="95.410156"/>
       <use xlink:href="#DejaVuSans-30" x="159.033203"/>
      </g>
     </g>
    </g>
    <g id="ytick_2">
     <g id="line2d_7">
      <path d="M 86.431875 115.938829 
L 421.231875 115.938829 
" clip-path="url(#p0d8197b7d8)" style="fill: none; stroke: #ffffff; stroke-linecap: round"/>
     </g>
     <g id="text_8">
      <!-- 0.15 -->
      <g style="fill: #262626" transform="translate(27.9475 124.297111)scale(0.22 -0.22)">
       <defs>
        <path id="DejaVuSans-35" d="M 691 4666 
L 3169 4666 
L 3169 4134 
L 1269 4134 
L 1269 2991 
Q 1406 3038 1543 3061 
Q 1681 3084 1819 3084 
Q 2600 3084 3056 2656 
Q 3513 2228 3513 1497 
Q 3513 744 3044 326 
Q 2575 -91 1722 -91 
Q 1428 -91 1123 -41 
Q 819 9 494 109 
L 494 744 
Q 775 591 1075 516 
Q 1375 441 1709 441 
Q 2250 441 2565 725 
Q 2881 1009 2881 1497 
Q 2881 1984 2565 2268 
Q 2250 2553 1709 2553 
Q 1456 2553 1204 2497 
Q 953 2441 691 2322 
L 691 4666 
z
" transform="scale(0.015625)"/>
       </defs>
       <use xlink:href="#DejaVuSans-30"/>
       <use xlink:href="#DejaVuSans-2e" x="63.623047"/>
       <use xlink:href="#DejaVuSans-31" x="95.410156"/>
       <use xlink:href="#DejaVuSans-35" x="159.033203"/>
      </g>
     </g>
    </g>
    <g id="ytick_3">
     <g id="line2d_8">
      <path d="M 86.431875 48.24269 
L 421.231875 48.24269 
" clip-path="url(#p0d8197b7d8)" style="fill: none; stroke: #ffffff; stroke-linecap: round"/>
     </g>
     <g id="text_9">
      <!-- 0.20 -->
      <g style="fill: #262626" transform="translate(27.9475 56.600971)scale(0.22 -0.22)">
       <use xlink:href="#DejaVuSans-30"/>
       <use xlink:href="#DejaVuSans-2e" x="63.623047"/>
       <use xlink:href="#DejaVuSans-32" x="95.410156"/>
       <use xlink:href="#DejaVuSans-30" x="159.033203"/>
      </g>
     </g>
    </g>
    <g id="text_10">
     <!-- correct -->
     <g style="fill: #262626" transform="translate(18.95625 151.453125)rotate(-90)scale(0.24 -0.24)">
      <defs>
       <path id="DejaVuSans-72" d="M 2631 2963 
Q 2534 3019 2420 3045 
Q 2306 3072 2169 3072 
Q 1681 3072 1420 2755 
Q 1159 2438 1159 1844 
L 1159 0 
L 581 0 
L 581 3500 
L 1159 3500 
L 1159 2956 
Q 1341 3275 1631 3429 
Q 1922 3584 2338 3584 
Q 2397 3584 2469 3576 
Q 2541 3569 2628 3553 
L 2631 2963 
z
" transform="scale(0.015625)"/>
       <path id="DejaVuSans-74" d="M 1172 4494 
L 1172 3500 
L 2356 3500 
L 2356 3053 
L 1172 3053 
L 1172 1153 
Q 1172 725 1289 603 
Q 1406 481 1766 481 
L 2356 481 
L 2356 0 
L 1766 0 
Q 1100 0 847 248 
Q 594 497 594 1153 
L 594 3053 
L 172 3053 
L 172 3500 
L 594 3500 
L 594 4494 
L 1172 4494 
z
" transform="scale(0.015625)"/>
      </defs>
      <use xlink:href="#DejaVuSans-63"/>
      <use xlink:href="#DejaVuSans-6f" x="54.980469"/>
      <use xlink:href="#DejaVuSans-72" x="116.162109"/>
      <use xlink:href="#DejaVuSans-72" x="155.525391"/>
      <use xlink:href="#DejaVuSans-65" x="194.388672"/>
      <use xlink:href="#DejaVuSans-63" x="255.912109"/>
      <use xlink:href="#DejaVuSans-74" x="310.892578"/>
     </g>
    </g>
   </g>
   <g id="PolyCollection_1">
    <defs>
     <path id="m93e29740e1" d="M 101.650057 -114.656386 
L 101.650057 -79.319001 
L 105.502761 -91.775091 
L 109.355465 -105.314319 
L 113.20817 -110.188441 
L 117.060874 -117.22884 
L 120.913578 -123.1861 
L 124.766282 -126.977084 
L 128.618987 -133.611305 
L 132.471691 -137.673074 
L 136.324395 -146.202787 
L 140.177099 -142.81798 
L 144.029804 -153.649363 
L 147.882508 -148.233671 
L 151.735212 -154.055539 
L 155.587916 -152.29544 
L 159.440621 -161.366722 
L 163.293325 -156.763385 
L 167.146029 -162.856038 
L 170.998733 -160.960546 
L 174.851438 -164.616137 
L 178.704142 -162.314468 
L 182.556846 -168.813298 
L 186.40955 -162.99143 
L 190.262255 -173.958204 
L 194.114959 -169.219475 
L 197.967663 -178.967719 
L 201.820368 -174.499774 
L 205.673072 -183.300272 
L 209.525776 -176.124481 
L 213.37848 -184.924979 
L 217.231185 -175.989089 
L 221.083889 -184.38341 
L 224.936593 -177.343011 
L 228.789297 -188.445178 
L 232.642002 -183.164879 
L 236.494706 -190.611455 
L 240.34741 -186.820471 
L 244.200114 -190.069886 
L 248.052819 -190.205278 
L 251.905523 -191.017632 
L 255.758227 -193.860869 
L 259.610931 -191.288416 
L 263.463636 -194.673223 
L 267.31634 -193.183908 
L 271.169044 -195.485577 
L 275.021748 -195.485577 
L 278.874453 -199.005776 
L 282.727157 -195.485577 
L 286.579861 -199.276561 
L 290.432565 -197.516461 
L 294.28527 -199.953522 
L 298.137974 -196.162538 
L 301.990678 -201.172052 
L 305.843382 -199.547345 
L 309.696087 -201.984406 
L 313.548791 -201.307445 
L 317.401495 -202.932152 
L 321.2542 -203.338329 
L 325.106904 -203.202937 
L 328.959608 -204.150683 
L 332.812312 -204.692252 
L 336.665017 -204.556859 
L 340.517721 -204.827644 
L 344.370425 -206.723136 
L 348.223129 -206.181567 
L 352.075834 -206.99392 
L 355.928538 -206.587744 
L 359.781242 -206.858528 
L 363.633946 -207.716013 
L 367.486651 -207.53549 
L 371.339355 -208.75402 
L 375.192059 -207.264705 
L 379.044763 -208.077059 
L 382.897468 -209.837158 
L 386.750172 -208.889412 
L 390.602876 -209.972551 
L 394.45558 -210.107943 
L 398.308285 -209.837158 
L 402.160989 -209.972551 
L 406.013693 -210.51412 
L 406.013693 -220.397756 
L 406.013693 -220.397756 
L 402.160989 -219.314618 
L 398.308285 -220.126972 
L 394.45558 -217.960695 
L 390.602876 -219.45001 
L 386.750172 -216.606772 
L 382.897468 -218.366872 
L 379.044763 -217.012949 
L 375.192059 -217.012949 
L 371.339355 -214.846673 
L 367.486651 -215.117457 
L 363.633946 -213.49275 
L 359.781242 -212.409612 
L 355.928538 -214.71128 
L 352.075834 -212.545004 
L 348.223129 -213.49275 
L 344.370425 -213.086573 
L 340.517721 -213.49275 
L 336.665017 -210.107943 
L 332.812312 -213.086573 
L 328.959608 -207.806274 
L 325.106904 -211.597258 
L 321.2542 -206.046175 
L 317.401495 -208.75402 
L 313.548791 -204.827644 
L 309.696087 -208.347843 
L 305.843382 -203.202937 
L 301.990678 -205.910782 
L 298.137974 -202.661368 
L 294.28527 -205.369213 
L 290.432565 -199.547345 
L 286.579861 -203.473721 
L 282.727157 -197.651853 
L 278.874453 -201.307445 
L 275.021748 -197.651853 
L 271.169044 -199.81813 
L 267.31634 -195.756361 
L 263.463636 -199.411953 
L 259.610931 -194.402439 
L 255.758227 -198.328815 
L 251.905523 -193.048516 
L 248.052819 -198.734991 
L 244.200114 -192.913123 
L 240.34741 -196.162538 
L 236.494706 -193.454693 
L 232.642002 -194.267046 
L 228.789297 -191.288416 
L 224.936593 -193.725477 
L 221.083889 -189.257532 
L 217.231185 -191.829985 
L 213.37848 -188.851355 
L 209.525776 -189.392924 
L 205.673072 -188.715963 
L 201.820368 -185.331156 
L 197.967663 -186.143509 
L 194.114959 -183.977233 
L 190.262255 -182.352526 
L 186.40955 -181.540172 
L 182.556846 -180.169325 
L 178.704142 -179.64468 
L 174.851438 -180.998603 
L 170.998733 -176.801442 
L 167.146029 -177.88458 
L 163.293325 -170.302613 
L 159.440621 -175.853696 
L 155.587916 -168.677906 
L 151.735212 -170.167221 
L 147.882508 -161.908292 
L 144.029804 -165.022314 
L 140.177099 -158.523485 
L 136.324395 -158.658877 
L 132.471691 -152.566224 
L 128.618987 -148.233671 
L 124.766282 -143.901118 
L 120.913578 -137.131505 
L 117.060874 -136.86072 
L 113.20817 -130.768067 
L 109.355465 -124.40463 
L 105.502761 -120.613646 
L 101.650057 -114.656386 
z
" style="stroke: #edd1cb; stroke-opacity: 0.2"/>
    </defs>
    <g clip-path="url(#p0d8197b7d8)">
     <use xlink:href="#m93e29740e1" x="0" y="276.899375" style="fill: #edd1cb; fill-opacity: 0.2; stroke: #edd1cb; stroke-opacity: 0.2"/>
    </g>
   </g>
   <g id="PolyCollection_2">
    <defs>
     <path id="me144399f1a" d="M 101.650057 -114.656386 
L 101.650057 -79.319001 
L 105.502761 -113.437856 
L 109.355465 -118.311978 
L 113.20817 -138.756212 
L 117.060874 -128.737183 
L 120.913578 -155.003285 
L 124.766282 -134.017482 
L 128.618987 -164.345353 
L 132.471691 -143.630334 
L 136.324395 -177.207619 
L 140.177099 -160.283584 
L 144.029804 -178.290757 
L 147.882508 -178.155365 
L 151.735212 -174.499774 
L 155.587916 -173.552028 
L 159.440621 -177.613796 
L 163.293325 -185.331156 
L 167.146029 -186.278902 
L 170.998733 -189.618578 
L 174.851438 -195.0794 
L 178.704142 -193.725477 
L 182.556846 -197.381069 
L 186.40955 -200.088914 
L 190.262255 -194.131654 
L 194.114959 -201.984406 
L 197.967663 -193.3193 
L 201.820368 -207.806274 
L 205.673072 -197.651853 
L 209.525776 -208.75402 
L 213.37848 -203.473721 
L 217.231185 -211.326473 
L 221.083889 -205.504605 
L 224.936593 -212.680396 
L 228.789297 -207.400097 
L 232.642002 -212.815788 
L 236.494706 -209.024805 
L 240.34741 -214.034319 
L 244.200114 -214.846673 
L 248.052819 -215.659026 
L 251.905523 -218.637656 
L 255.758227 -215.523634 
L 259.610931 -217.68991 
L 263.463636 -217.419126 
L 267.31634 -217.419126 
L 271.169044 -217.960695 
L 275.021748 -217.825303 
L 278.874453 -216.742165 
L 282.727157 -217.283734 
L 286.579861 -219.179226 
L 290.432565 -217.148341 
L 294.28527 -221.074717 
L 298.137974 -219.043833 
L 301.990678 -220.533148 
L 305.843382 -220.397756 
L 309.696087 -221.21011 
L 313.548791 -223.511778 
L 317.401495 -221.616287 
L 321.2542 -225.271878 
L 325.106904 -222.970209 
L 328.959608 -223.647171 
L 332.812312 -223.917955 
L 336.665017 -224.594917 
L 340.517721 -225.001094 
L 344.370425 -224.865701 
L 348.223129 -224.053348 
L 352.075834 -225.94884 
L 355.928538 -225.001094 
L 359.781242 -226.625801 
L 363.633946 -227.573547 
L 367.486651 -226.625801 
L 371.339355 -228.656685 
L 375.192059 -226.355016 
L 379.044763 -227.979724 
L 382.897468 -227.708939 
L 386.750172 -228.115116 
L 390.602876 -229.062862 
L 394.45558 -228.250508 
L 398.308285 -229.604431 
L 402.160989 -229.062862 
L 406.013693 -229.469039 
L 406.013693 -241.248167 
L 406.013693 -241.248167 
L 402.160989 -240.706598 
L 398.308285 -240.300421 
L 394.45558 -240.300421 
L 390.602876 -240.435813 
L 386.750172 -240.977382 
L 382.897468 -240.029637 
L 379.044763 -240.706598 
L 375.192059 -240.165029 
L 371.339355 -241.248167 
L 367.486651 -238.811106 
L 363.633946 -239.488067 
L 359.781242 -238.946498 
L 355.928538 -239.081891 
L 352.075834 -240.571206 
L 348.223129 -238.675714 
L 344.370425 -239.62346 
L 340.517721 -237.727968 
L 336.665017 -239.62346 
L 332.812312 -237.592575 
L 328.959608 -239.081891 
L 325.106904 -238.675714 
L 321.2542 -239.217283 
L 317.401495 -236.915614 
L 313.548791 -240.571206 
L 309.696087 -236.10326 
L 305.843382 -239.352675 
L 301.990678 -234.478553 
L 298.137974 -239.62346 
L 294.28527 -234.207769 
L 290.432565 -237.457183 
L 286.579861 -235.155514 
L 282.727157 -235.561691 
L 278.874453 -236.780222 
L 275.021748 -233.395415 
L 271.169044 -237.051006 
L 267.31634 -234.207769 
L 263.463636 -235.697084 
L 259.610931 -234.207769 
L 255.758227 -232.989238 
L 251.905523 -232.176884 
L 248.052819 -233.260023 
L 244.200114 -231.9061 
L 240.34741 -232.176884 
L 236.494706 -231.229138 
L 232.642002 -231.499923 
L 228.789297 -231.093746 
L 224.936593 -230.146 
L 221.083889 -228.92747 
L 217.231185 -228.250508 
L 213.37848 -225.001094 
L 209.525776 -223.105602 
L 205.673072 -221.751679 
L 201.820368 -221.616287 
L 197.967663 -212.680396 
L 194.114959 -222.970209 
L 190.262255 -209.701766 
L 186.40955 -220.939325 
L 182.556846 -204.827644 
L 178.704142 -212.680396 
L 174.851438 -201.03666 
L 170.998733 -205.77539 
L 167.146029 -191.829985 
L 163.293325 -197.381069 
L 159.440621 -186.549686 
L 155.587916 -186.685079 
L 151.735212 -179.915465 
L 147.882508 -183.997542 
L 144.029804 -182.217133 
L 140.177099 -188.174394 
L 136.324395 -179.780072 
L 132.471691 -179.238503 
L 128.618987 -175.041343 
L 124.766282 -161.502115 
L 120.913578 -165.97006 
L 117.060874 -151.212302 
L 113.20817 -153.378578 
L 109.355465 -144.848864 
L 105.502761 -123.456884 
L 101.650057 -114.656386 
z
" style="stroke: #e4b8b8; stroke-opacity: 0.2"/>
    </defs>
    <g clip-path="url(#p0d8197b7d8)">
     <use xlink:href="#me144399f1a" x="0" y="276.899375" style="fill: #e4b8b8; fill-opacity: 0.2; stroke: #e4b8b8; stroke-opacity: 0.2"/>
    </g>
   </g>
   <g id="PolyCollection_3">
    <defs>
     <path id="m7b65a9325d" d="M 101.650057 -114.656386 
L 101.650057 -79.319001 
L 105.502761 -111.542364 
L 109.355465 -86.088615 
L 113.20817 -112.760894 
L 117.060874 -120.342862 
L 120.913578 -68.623011 
L 124.766282 -99.221666 
L 128.618987 -97.190782 
L 132.471691 -92.181268 
L 136.324395 -98.409313 
L 140.177099 -85.817831 
L 144.029804 -97.461567 
L 147.882508 -103.418827 
L 151.735212 -114.656386 
L 155.587916 -131.445029 
L 159.440621 -103.01265 
L 163.293325 -140.787096 
L 167.146029 -113.979425 
L 170.998733 -120.072077 
L 174.851438 -111.948541 
L 178.704142 -132.257382 
L 182.556846 -147.962887 
L 186.40955 -117.635016 
L 190.262255 -136.589935 
L 194.114959 -125.081592 
L 197.967663 -134.965228 
L 201.820368 -106.532849 
L 205.673072 -141.734842 
L 209.525776 -143.088765 
L 213.37848 -170.031828 
L 217.231185 -144.171903 
L 221.083889 -142.411803 
L 224.936593 -141.870234 
L 228.789297 -158.658877 
L 232.642002 -129.278752 
L 236.494706 -115.874917 
L 240.34741 -132.257382 
L 244.200114 -142.141019 
L 248.052819 -183.029487 
L 251.905523 -180.592426 
L 255.758227 -175.176735 
L 259.610931 -137.673074 
L 263.463636 -162.179076 
L 267.31634 -145.79661 
L 271.169044 -144.57808 
L 275.021748 -180.186249 
L 278.874453 -146.338179 
L 282.727157 -177.749188 
L 286.579861 -160.148192 
L 290.432565 -173.416635 
L 294.28527 -185.737333 
L 298.137974 -166.511629 
L 301.990678 -210.649512 
L 305.843382 -194.537831 
L 309.696087 -172.198105 
L 313.548791 -202.390583 
L 317.401495 -189.12214 
L 321.2542 -191.017632 
L 325.106904 -212.545004 
L 328.959608 -211.326473 
L 332.812312 -211.868042 
L 336.665017 -220.939325 
L 340.517721 -223.240994 
L 344.370425 -237.186399 
L 348.223129 -234.072376 
L 352.075834 -236.509437 
L 355.928538 -246.934643 
L 359.781242 -247.882389 
L 363.633946 -256.547495 
L 367.486651 -255.870533 
L 371.339355 -256.141318 
L 375.192059 -256.682887 
L 379.044763 -258.442986 
L 382.897468 -258.849163 
L 386.750172 -259.25534 
L 390.602876 -259.390732 
L 394.45558 -258.849163 
L 398.308285 -259.932302 
L 402.160989 -258.307594 
L 406.013693 -259.796909 
L 406.013693 -264.535639 
L 406.013693 -264.535639 
L 402.160989 -266.024954 
L 398.308285 -265.347993 
L 394.45558 -265.889562 
L 390.602876 -265.077208 
L 386.750172 -264.941816 
L 382.897468 -265.2126 
L 379.044763 -264.129462 
L 375.192059 -264.941816 
L 371.339355 -264.400247 
L 367.486651 -264.806424 
L 363.633946 -264.671031 
L 359.781242 -265.483385 
L 355.928538 -264.941816 
L 352.075834 -265.889562 
L 348.223129 -265.618777 
L 344.370425 -265.077208 
L 340.517721 -264.806424 
L 336.665017 -261.557009 
L 332.812312 -266.295739 
L 328.959608 -245.445328 
L 325.106904 -245.58072 
L 321.2542 -239.62346 
L 317.401495 -235.832476 
L 313.548791 -251.808765 
L 309.696087 -235.561691 
L 305.843382 -255.599749 
L 301.990678 -250.861019 
L 298.137974 -263.046324 
L 294.28527 -242.331305 
L 290.432565 -227.934593 
L 286.579861 -218.366872 
L 282.727157 -225.678055 
L 278.874453 -225.271878 
L 275.021748 -219.720795 
L 271.169044 -214.169711 
L 267.31634 -194.402439 
L 263.463636 -185.872725 
L 259.610931 -211.597258 
L 255.758227 -189.528316 
L 251.905523 -191.017632 
L 248.052819 -229.198254 
L 244.200114 -213.357358 
L 240.34741 -200.088914 
L 236.494706 -212.680396 
L 232.642002 -193.860869 
L 228.789297 -185.331156 
L 224.936593 -207.670882 
L 221.083889 -196.704107 
L 217.231185 -217.419126 
L 213.37848 -191.694593 
L 209.525776 -197.787245 
L 205.673072 -191.153024 
L 201.820368 -226.084232 
L 197.967663 -161.366722 
L 194.114959 -174.635166 
L 190.262255 -177.478404 
L 186.40955 -161.772899 
L 182.556846 -177.749188 
L 178.704142 -172.468889 
L 174.851438 -191.153024 
L 170.998733 -140.380919 
L 167.146029 -152.566224 
L 163.293325 -144.171903 
L 159.440621 -131.309637 
L 155.587916 -183.435664 
L 151.735212 -118.041193 
L 147.882508 -120.749039 
L 144.029804 -126.16473 
L 140.177099 -130.90346 
L 136.324395 -142.411803 
L 132.471691 -106.668242 
L 128.618987 -117.905801 
L 124.766282 -144.848864 
L 120.913578 -137.131505 
L 117.060874 -138.485427 
L 113.20817 -130.90346 
L 109.355465 -150.129163 
L 105.502761 -112.896287 
L 101.650057 -114.656386 
z
" style="stroke: #2d1e3e; stroke-opacity: 0.2"/>
    </defs>
    <g clip-path="url(#p0d8197b7d8)">
     <use xlink:href="#m7b65a9325d" x="0" y="276.899375" style="fill: #2d1e3e; fill-opacity: 0.2; stroke: #2d1e3e; stroke-opacity: 0.2"/>
    </g>
   </g>
   <g id="line2d_9">
    <path d="M 101.650057 184.2668 
L 105.502761 173.435417 
L 109.355465 163.326127 
L 113.20817 157.54939 
L 117.060874 149.561245 
L 120.913578 144.687123 
L 124.766282 140.128917 
L 128.618987 135.751233 
L 132.471691 132.501818 
L 136.324395 125.145504 
L 140.177099 125.551681 
L 144.029804 118.33076 
L 147.882508 120.948344 
L 151.735212 116.074222 
L 155.587916 114.268991 
L 159.440621 109.891308 
L 163.293325 111.24523 
L 167.146029 106.325978 
L 170.998733 105.87467 
L 174.851438 103.211955 
L 178.704142 103.257086 
L 182.556846 100.910286 
L 186.40955 101.903163 
L 190.262255 98.202441 
L 194.114959 98.789141 
L 197.967663 95.043288 
L 201.820368 95.539726 
L 205.673072 91.387696 
L 209.525776 93.644234 
L 213.37848 90.530212 
L 217.231185 92.20005 
L 221.083889 90.078904 
L 224.936593 90.304558 
L 228.789297 86.558705 
L 232.642002 87.641843 
L 236.494706 84.933998 
L 240.34741 85.204782 
L 244.200114 85.295044 
L 248.052819 83.30929 
L 251.905523 84.888867 
L 255.758227 81.007621 
L 259.610931 83.850859 
L 263.463636 79.518306 
L 267.31634 82.271283 
L 271.169044 78.931606 
L 275.021748 80.375791 
L 278.874453 76.945853 
L 282.727157 80.014745 
L 286.579861 75.817584 
L 290.432565 78.57056 
L 294.28527 74.508792 
L 298.137974 77.036115 
L 301.990678 73.741569 
L 305.843382 75.321146 
L 309.696087 72.387646 
L 313.548791 74.012354 
L 317.401495 71.936339 
L 321.2542 72.658431 
L 325.106904 70.492154 
L 328.959608 71.123985 
L 332.812312 69.363885 
L 336.665017 69.589539 
L 340.517721 68.551532 
L 344.370425 67.558655 
L 348.223129 68.235616 
L 352.075834 67.24274 
L 355.928538 67.423263 
L 359.781242 67.82944 
L 363.633946 67.197609 
L 367.486651 66.475517 
L 371.339355 65.618032 
L 375.192059 66.06934 
L 379.044763 65.121594 
L 382.897468 64.128717 
L 386.750172 64.580025 
L 390.602876 63.542017 
L 394.45558 63.451756 
L 398.308285 63.361494 
L 402.160989 62.729664 
L 406.013693 63.045579 
" clip-path="url(#p0d8197b7d8)" style="fill: none; stroke: #edd1cb; stroke-width: 1.5; stroke-linecap: round"/>
   </g>
   <g id="line2d_10">
    <path d="M 101.650057 184.2668 
L 105.502761 159.625405 
L 109.355465 147.936538 
L 113.20817 131.508941 
L 117.060874 134.036264 
L 120.913578 115.622914 
L 124.766282 131.644334 
L 128.618987 107.318854 
L 132.471691 120.587298 
L 136.324395 98.247572 
L 140.177099 105.964932 
L 144.029804 96.893649 
L 147.882508 95.76538 
L 151.735212 99.96254 
L 155.587916 94.862765 
L 159.440621 95.314072 
L 163.293325 86.648966 
L 167.146029 87.010012 
L 170.998733 81.865106 
L 174.851438 78.931606 
L 178.704142 75.5468 
L 182.556846 75.050361 
L 186.40955 68.371009 
L 190.262255 73.515915 
L 194.114959 67.378132 
L 197.967663 71.800946 
L 201.820368 64.26411 
L 205.673072 66.791432 
L 209.525776 60.834172 
L 213.37848 63.271233 
L 217.231185 56.411357 
L 221.083889 60.834172 
L 224.936593 55.734396 
L 228.789297 59.389988 
L 232.642002 54.651258 
L 236.494706 58.306849 
L 240.34741 53.929166 
L 244.200114 55.779527 
L 248.052819 53.02655 
L 251.905523 53.56812 
L 255.758227 52.891158 
L 259.610931 52.169066 
L 263.463636 51.80802 
L 267.31634 51.717758 
L 271.169044 50.228443 
L 275.021748 51.176189 
L 278.874453 50.770012 
L 282.727157 50.860274 
L 286.579861 50.499228 
L 290.432565 49.822267 
L 294.28527 49.551482 
L 298.137974 47.791382 
L 301.990678 49.957659 
L 305.843382 47.520598 
L 309.696087 48.82939 
L 313.548791 45.354321 
L 317.401495 48.062167 
L 321.2542 45.173798 
L 325.106904 46.572852 
L 328.959608 45.760498 
L 332.812312 46.121544 
L 336.665017 44.722491 
L 340.517721 44.67736 
L 344.370425 45.309191 
L 348.223129 44.451706 
L 352.075834 44.226052 
L 355.928538 44.316314 
L 359.781242 44.226052 
L 363.633946 43.458829 
L 367.486651 44.226052 
L 371.339355 41.969514 
L 375.192059 43.729614 
L 379.044763 42.646476 
L 382.897468 43.007522 
L 386.750172 42.33056 
L 390.602876 42.511083 
L 394.45558 42.195168 
L 398.308285 41.969514 
L 402.160989 41.879253 
L 406.013693 41.247422 
" clip-path="url(#p0d8197b7d8)" style="fill: none; stroke: #e4b8b8; stroke-width: 1.5; stroke-linecap: round"/>
   </g>
   <g id="line2d_11">
    <path d="M 101.650057 184.2668 
L 105.502761 164.544658 
L 109.355465 163.822565 
L 113.20817 155.428244 
L 117.060874 148.162192 
L 120.913578 164.09335 
L 124.766282 161.430635 
L 128.618987 172.126625 
L 132.471691 176.775093 
L 136.324395 159.038705 
L 140.177099 172.848717 
L 144.029804 166.033973 
L 147.882508 164.454396 
L 151.735212 160.52802 
L 155.587916 120.812951 
L 159.440621 157.504259 
L 163.293325 134.39731 
L 167.146029 148.568369 
L 170.998733 148.523238 
L 174.851438 129.703711 
L 178.704142 128.936488 
L 182.556846 112.238107 
L 186.40955 138.820125 
L 190.262255 116.931706 
L 194.114959 133.449564 
L 197.967663 124.87472 
L 201.820368 114.675168 
L 205.673072 105.694147 
L 209.525776 104.70127 
L 213.37848 94.00528 
L 217.231185 99.105056 
L 221.083889 114.133599 
L 224.936593 99.736887 
L 228.789297 100.54924 
L 232.642002 109.394869 
L 236.494706 108.311731 
L 240.34741 107.454247 
L 244.200114 101.812902 
L 248.052819 76.539676 
L 251.905523 92.561096 
L 255.758227 92.741619 
L 259.610931 99.466102 
L 263.463636 101.181071 
L 267.31634 109.349738 
L 271.169044 95.449465 
L 275.021748 82.09076 
L 278.874453 91.387696 
L 282.727157 72.161993 
L 286.579861 81.323537 
L 290.432565 69.860324 
L 294.28527 68.055093 
L 298.137974 58.803288 
L 301.990678 40.660722 
L 305.843382 58.35198 
L 309.696087 70.22137 
L 313.548791 56.682142 
L 317.401495 60.518257 
L 321.2542 61.014695 
L 325.106904 49.822267 
L 328.959608 52.439851 
L 332.812312 42.465953 
L 336.665017 40.119153 
L 340.517721 38.855492 
L 344.370425 25.948095 
L 348.223129 25.812702 
L 352.075834 23.87208 
L 355.928538 20.758057 
L 359.781242 20.577534 
L 363.633946 16.967073 
L 367.486651 17.689166 
L 371.339355 17.237858 
L 375.192059 16.696289 
L 379.044763 16.109589 
L 382.897468 15.838804 
L 386.750172 15.477758 
L 390.602876 15.613151 
L 394.45558 15.342366 
L 398.308285 14.98132 
L 402.160989 15.252105 
L 406.013693 15.206974 
" clip-path="url(#p0d8197b7d8)" style="fill: none; stroke: #2d1e3e; stroke-width: 1.5; stroke-linecap: round"/>
   </g>
   <g id="line2d_12"/>
   <g id="line2d_13"/>
   <g id="line2d_14"/>
   <g id="patch_3">
    <path d="M 86.431875 218.16 
L 86.431875 0.72 
" style="fill: none; stroke: #ffffff; stroke-width: 1.25; stroke-linejoin: miter; stroke-linecap: square"/>
   </g>
   <g id="patch_4">
    <path d="M 421.231875 218.16 
L 421.231875 0.72 
" style="fill: none; stroke: #ffffff; stroke-width: 1.25; stroke-linejoin: miter; stroke-linecap: square"/>
   </g>
   <g id="patch_5">
    <path d="M 86.431875 218.16 
L 421.231875 218.16 
" style="fill: none; stroke: #ffffff; stroke-width: 1.25; stroke-linejoin: miter; stroke-linecap: square"/>
   </g>
   <g id="patch_6">
    <path d="M 86.431875 0.72 
L 421.231875 0.72 
" style="fill: none; stroke: #ffffff; stroke-width: 1.25; stroke-linejoin: miter; stroke-linecap: square"/>
   </g>
   <g id="legend_1">
    <g id="patch_7">
     <path d="M 258.4525 207.16 
L 405.831875 207.16 
Q 410.231875 207.16 410.231875 202.76 
L 410.231875 73.856875 
Q 410.231875 69.456875 405.831875 69.456875 
L 258.4525 69.456875 
Q 254.0525 69.456875 254.0525 73.856875 
L 254.0525 202.76 
Q 254.0525 207.16 258.4525 207.16 
z
" style="fill: #eaeaf2; opacity: 0.8; stroke: #cccccc; stroke-linejoin: miter"/>
    </g>
    <g id="text_11">
     <!-- lr -->
     <g style="fill: #262626" transform="translate(323.875313 96.493125)scale(0.24 -0.24)">
      <defs>
       <path id="DejaVuSans-6c" d="M 603 4863 
L 1178 4863 
L 1178 0 
L 603 0 
L 603 4863 
z
" transform="scale(0.015625)"/>
      </defs>
      <use xlink:href="#DejaVuSans-6c"/>
      <use xlink:href="#DejaVuSans-72" x="27.783203"/>
     </g>
    </g>
    <g id="line2d_15">
     <path d="M 262.8525 121.500937 
L 284.8525 121.500937 
L 306.8525 121.500937 
" style="fill: none; stroke: #edd1cb; stroke-width: 1.5; stroke-linecap: round"/>
    </g>
    <g id="text_12">
     <!-- 0.0005 -->
     <g style="fill: #262626" transform="translate(324.4525 129.200937)scale(0.22 -0.22)">
      <use xlink:href="#DejaVuSans-30"/>
      <use xlink:href="#DejaVuSans-2e" x="63.623047"/>
      <use xlink:href="#DejaVuSans-30" x="95.410156"/>
      <use xlink:href="#DejaVuSans-30" x="159.033203"/>
      <use xlink:href="#DejaVuSans-30" x="222.65625"/>
      <use xlink:href="#DejaVuSans-35" x="286.279297"/>
     </g>
    </g>
    <g id="line2d_16">
     <path d="M 262.8525 153.792812 
L 284.8525 153.792812 
L 306.8525 153.792812 
" style="fill: none; stroke: #e4b8b8; stroke-width: 1.5; stroke-linecap: round"/>
    </g>
    <g id="text_13">
     <!-- 0.001 -->
     <g style="fill: #262626" transform="translate(324.4525 161.492812)scale(0.22 -0.22)">
      <use xlink:href="#DejaVuSans-30"/>
      <use xlink:href="#DejaVuSans-2e" x="63.623047"/>
      <use xlink:href="#DejaVuSans-30" x="95.410156"/>
      <use xlink:href="#DejaVuSans-30" x="159.033203"/>
      <use xlink:href="#DejaVuSans-31" x="222.65625"/>
     </g>
    </g>
    <g id="line2d_17">
     <path d="M 262.8525 186.084687 
L 284.8525 186.084687 
L 306.8525 186.084687 
" style="fill: none; stroke: #2d1e3e; stroke-width: 1.5; stroke-linecap: round"/>
    </g>
    <g id="text_14">
     <!-- 0.005 -->
     <g style="fill: #262626" transform="translate(324.4525 193.784687)scale(0.22 -0.22)">
      <use xlink:href="#DejaVuSans-30"/>
      <use xlink:href="#DejaVuSans-2e" x="63.623047"/>
      <use xlink:href="#DejaVuSans-30" x="95.410156"/>
      <use xlink:href="#DejaVuSans-30" x="159.033203"/>
      <use xlink:href="#DejaVuSans-35" x="222.65625"/>
     </g>
    </g>
   </g>
  </g>
 </g>
 <defs>
  <clipPath id="p0d8197b7d8">
   <rect x="86.431875" y="0.72" width="334.8" height="217.44"/>
  </clipPath>
 </defs>
</svg>
