<?xml version="1.0" encoding="utf-8" standalone="no"?>
<!DOCTYPE svg PUBLIC "-//W3C//DTD SVG 1.1//EN"
  "http://www.w3.org/Graphics/SVG/1.1/DTD/svg11.dtd">
<svg height="648pt" version="1.1" viewBox="0 0 1152 648" width="1152pt" xmlns="http://www.w3.org/2000/svg" xmlns:xlink="http://www.w3.org/1999/xlink">
 <metadata>
  <rdf:RDF xmlns:cc="http://creativecommons.org/ns#" xmlns:dc="http://purl.org/dc/elements/1.1/" xmlns:rdf="http://www.w3.org/1999/02/22-rdf-syntax-ns#">
   <cc:Work>
    <dc:type rdf:resource="http://purl.org/dc/dcmitype/StillImage"/>
    <dc:date>2021-05-27T19:41:28.574447</dc:date>
    <dc:format>image/svg+xml</dc:format>
    <dc:creator>
     <cc:Agent>
      <dc:title>Matplotlib v3.4.2, https://matplotlib.org/</dc:title>
     </cc:Agent>
    </dc:creator>
   </cc:Work>
  </rdf:RDF>
 </metadata>
 <defs>
  <style type="text/css">*{stroke-linecap:butt;stroke-linejoin:round;}</style>
 </defs>
 <g id="figure_1">
  <g id="patch_1">
   <path d="M 0 648 
L 1152 648 
L 1152 0 
L 0 0 
z
" style="fill:#ffffff;"/>
  </g>
  <g id="axes_1">
   <g id="patch_2">
    <path d="M 144 567 
L 1036.8 567 
L 1036.8 77.76 
L 144 77.76 
z
" style="fill:#eaeaf2;"/>
   </g>
   <g id="matplotlib.axis_1">
    <g id="xtick_1">
     <g id="line2d_1">
      <path clip-path="url(#p8d192f8d77)" d="M 184.581818 567 
L 184.581818 77.76 
" style="fill:none;stroke:#ffffff;stroke-linecap:round;"/>
     </g>
     <g id="text_1">
      <!-- 0 -->
      <g style="fill:#262626;" transform="translate(181.082443 584.858281)scale(0.11 -0.11)">
       <defs>
        <path d="M 2034 4250 
Q 1547 4250 1301 3770 
Q 1056 3291 1056 2328 
Q 1056 1369 1301 889 
Q 1547 409 2034 409 
Q 2525 409 2770 889 
Q 3016 1369 3016 2328 
Q 3016 3291 2770 3770 
Q 2525 4250 2034 4250 
z
M 2034 4750 
Q 2819 4750 3233 4129 
Q 3647 3509 3647 2328 
Q 3647 1150 3233 529 
Q 2819 -91 2034 -91 
Q 1250 -91 836 529 
Q 422 1150 422 2328 
Q 422 3509 836 4129 
Q 1250 4750 2034 4750 
z
" id="DejaVuSans-30" transform="scale(0.015625)"/>
       </defs>
       <use xlink:href="#DejaVuSans-30"/>
      </g>
     </g>
    </g>
    <g id="xtick_2">
     <g id="line2d_2">
      <path clip-path="url(#p8d192f8d77)" d="M 287.320598 567 
L 287.320598 77.76 
" style="fill:none;stroke:#ffffff;stroke-linecap:round;"/>
     </g>
     <g id="text_2">
      <!-- 10 -->
      <g style="fill:#262626;" transform="translate(280.321848 584.858281)scale(0.11 -0.11)">
       <defs>
        <path d="M 794 531 
L 1825 531 
L 1825 4091 
L 703 3866 
L 703 4441 
L 1819 4666 
L 2450 4666 
L 2450 531 
L 3481 531 
L 3481 0 
L 794 0 
L 794 531 
z
" id="DejaVuSans-31" transform="scale(0.015625)"/>
       </defs>
       <use xlink:href="#DejaVuSans-31"/>
       <use x="63.623047" xlink:href="#DejaVuSans-30"/>
      </g>
     </g>
    </g>
    <g id="xtick_3">
     <g id="line2d_3">
      <path clip-path="url(#p8d192f8d77)" d="M 390.059379 567 
L 390.059379 77.76 
" style="fill:none;stroke:#ffffff;stroke-linecap:round;"/>
     </g>
     <g id="text_3">
      <!-- 20 -->
      <g style="fill:#262626;" transform="translate(383.060629 584.858281)scale(0.11 -0.11)">
       <defs>
        <path d="M 1228 531 
L 3431 531 
L 3431 0 
L 469 0 
L 469 531 
Q 828 903 1448 1529 
Q 2069 2156 2228 2338 
Q 2531 2678 2651 2914 
Q 2772 3150 2772 3378 
Q 2772 3750 2511 3984 
Q 2250 4219 1831 4219 
Q 1534 4219 1204 4116 
Q 875 4013 500 3803 
L 500 4441 
Q 881 4594 1212 4672 
Q 1544 4750 1819 4750 
Q 2544 4750 2975 4387 
Q 3406 4025 3406 3419 
Q 3406 3131 3298 2873 
Q 3191 2616 2906 2266 
Q 2828 2175 2409 1742 
Q 1991 1309 1228 531 
z
" id="DejaVuSans-32" transform="scale(0.015625)"/>
       </defs>
       <use xlink:href="#DejaVuSans-32"/>
       <use x="63.623047" xlink:href="#DejaVuSans-30"/>
      </g>
     </g>
    </g>
    <g id="xtick_4">
     <g id="line2d_4">
      <path clip-path="url(#p8d192f8d77)" d="M 492.798159 567 
L 492.798159 77.76 
" style="fill:none;stroke:#ffffff;stroke-linecap:round;"/>
     </g>
     <g id="text_4">
      <!-- 30 -->
      <g style="fill:#262626;" transform="translate(485.799409 584.858281)scale(0.11 -0.11)">
       <defs>
        <path d="M 2597 2516 
Q 3050 2419 3304 2112 
Q 3559 1806 3559 1356 
Q 3559 666 3084 287 
Q 2609 -91 1734 -91 
Q 1441 -91 1130 -33 
Q 819 25 488 141 
L 488 750 
Q 750 597 1062 519 
Q 1375 441 1716 441 
Q 2309 441 2620 675 
Q 2931 909 2931 1356 
Q 2931 1769 2642 2001 
Q 2353 2234 1838 2234 
L 1294 2234 
L 1294 2753 
L 1863 2753 
Q 2328 2753 2575 2939 
Q 2822 3125 2822 3475 
Q 2822 3834 2567 4026 
Q 2313 4219 1838 4219 
Q 1578 4219 1281 4162 
Q 984 4106 628 3988 
L 628 4550 
Q 988 4650 1302 4700 
Q 1616 4750 1894 4750 
Q 2613 4750 3031 4423 
Q 3450 4097 3450 3541 
Q 3450 3153 3228 2886 
Q 3006 2619 2597 2516 
z
" id="DejaVuSans-33" transform="scale(0.015625)"/>
       </defs>
       <use xlink:href="#DejaVuSans-33"/>
       <use x="63.623047" xlink:href="#DejaVuSans-30"/>
      </g>
     </g>
    </g>
    <g id="xtick_5">
     <g id="line2d_5">
      <path clip-path="url(#p8d192f8d77)" d="M 595.536939 567 
L 595.536939 77.76 
" style="fill:none;stroke:#ffffff;stroke-linecap:round;"/>
     </g>
     <g id="text_5">
      <!-- 40 -->
      <g style="fill:#262626;" transform="translate(588.538189 584.858281)scale(0.11 -0.11)">
       <defs>
        <path d="M 2419 4116 
L 825 1625 
L 2419 1625 
L 2419 4116 
z
M 2253 4666 
L 3047 4666 
L 3047 1625 
L 3713 1625 
L 3713 1100 
L 3047 1100 
L 3047 0 
L 2419 0 
L 2419 1100 
L 313 1100 
L 313 1709 
L 2253 4666 
z
" id="DejaVuSans-34" transform="scale(0.015625)"/>
       </defs>
       <use xlink:href="#DejaVuSans-34"/>
       <use x="63.623047" xlink:href="#DejaVuSans-30"/>
      </g>
     </g>
    </g>
    <g id="xtick_6">
     <g id="line2d_6">
      <path clip-path="url(#p8d192f8d77)" d="M 698.275719 567 
L 698.275719 77.76 
" style="fill:none;stroke:#ffffff;stroke-linecap:round;"/>
     </g>
     <g id="text_6">
      <!-- 50 -->
      <g style="fill:#262626;" transform="translate(691.276969 584.858281)scale(0.11 -0.11)">
       <defs>
        <path d="M 691 4666 
L 3169 4666 
L 3169 4134 
L 1269 4134 
L 1269 2991 
Q 1406 3038 1543 3061 
Q 1681 3084 1819 3084 
Q 2600 3084 3056 2656 
Q 3513 2228 3513 1497 
Q 3513 744 3044 326 
Q 2575 -91 1722 -91 
Q 1428 -91 1123 -41 
Q 819 9 494 109 
L 494 744 
Q 775 591 1075 516 
Q 1375 441 1709 441 
Q 2250 441 2565 725 
Q 2881 1009 2881 1497 
Q 2881 1984 2565 2268 
Q 2250 2553 1709 2553 
Q 1456 2553 1204 2497 
Q 953 2441 691 2322 
L 691 4666 
z
" id="DejaVuSans-35" transform="scale(0.015625)"/>
       </defs>
       <use xlink:href="#DejaVuSans-35"/>
       <use x="63.623047" xlink:href="#DejaVuSans-30"/>
      </g>
     </g>
    </g>
    <g id="xtick_7">
     <g id="line2d_7">
      <path clip-path="url(#p8d192f8d77)" d="M 801.014499 567 
L 801.014499 77.76 
" style="fill:none;stroke:#ffffff;stroke-linecap:round;"/>
     </g>
     <g id="text_7">
      <!-- 60 -->
      <g style="fill:#262626;" transform="translate(794.015749 584.858281)scale(0.11 -0.11)">
       <defs>
        <path d="M 2113 2584 
Q 1688 2584 1439 2293 
Q 1191 2003 1191 1497 
Q 1191 994 1439 701 
Q 1688 409 2113 409 
Q 2538 409 2786 701 
Q 3034 994 3034 1497 
Q 3034 2003 2786 2293 
Q 2538 2584 2113 2584 
z
M 3366 4563 
L 3366 3988 
Q 3128 4100 2886 4159 
Q 2644 4219 2406 4219 
Q 1781 4219 1451 3797 
Q 1122 3375 1075 2522 
Q 1259 2794 1537 2939 
Q 1816 3084 2150 3084 
Q 2853 3084 3261 2657 
Q 3669 2231 3669 1497 
Q 3669 778 3244 343 
Q 2819 -91 2113 -91 
Q 1303 -91 875 529 
Q 447 1150 447 2328 
Q 447 3434 972 4092 
Q 1497 4750 2381 4750 
Q 2619 4750 2861 4703 
Q 3103 4656 3366 4563 
z
" id="DejaVuSans-36" transform="scale(0.015625)"/>
       </defs>
       <use xlink:href="#DejaVuSans-36"/>
       <use x="63.623047" xlink:href="#DejaVuSans-30"/>
      </g>
     </g>
    </g>
    <g id="xtick_8">
     <g id="line2d_8">
      <path clip-path="url(#p8d192f8d77)" d="M 903.75328 567 
L 903.75328 77.76 
" style="fill:none;stroke:#ffffff;stroke-linecap:round;"/>
     </g>
     <g id="text_8">
      <!-- 70 -->
      <g style="fill:#262626;" transform="translate(896.75453 584.858281)scale(0.11 -0.11)">
       <defs>
        <path d="M 525 4666 
L 3525 4666 
L 3525 4397 
L 1831 0 
L 1172 0 
L 2766 4134 
L 525 4134 
L 525 4666 
z
" id="DejaVuSans-37" transform="scale(0.015625)"/>
       </defs>
       <use xlink:href="#DejaVuSans-37"/>
       <use x="63.623047" xlink:href="#DejaVuSans-30"/>
      </g>
     </g>
    </g>
    <g id="xtick_9">
     <g id="line2d_9">
      <path clip-path="url(#p8d192f8d77)" d="M 1006.49206 567 
L 1006.49206 77.76 
" style="fill:none;stroke:#ffffff;stroke-linecap:round;"/>
     </g>
     <g id="text_9">
      <!-- 80 -->
      <g style="fill:#262626;" transform="translate(999.49331 584.858281)scale(0.11 -0.11)">
       <defs>
        <path d="M 2034 2216 
Q 1584 2216 1326 1975 
Q 1069 1734 1069 1313 
Q 1069 891 1326 650 
Q 1584 409 2034 409 
Q 2484 409 2743 651 
Q 3003 894 3003 1313 
Q 3003 1734 2745 1975 
Q 2488 2216 2034 2216 
z
M 1403 2484 
Q 997 2584 770 2862 
Q 544 3141 544 3541 
Q 544 4100 942 4425 
Q 1341 4750 2034 4750 
Q 2731 4750 3128 4425 
Q 3525 4100 3525 3541 
Q 3525 3141 3298 2862 
Q 3072 2584 2669 2484 
Q 3125 2378 3379 2068 
Q 3634 1759 3634 1313 
Q 3634 634 3220 271 
Q 2806 -91 2034 -91 
Q 1263 -91 848 271 
Q 434 634 434 1313 
Q 434 1759 690 2068 
Q 947 2378 1403 2484 
z
M 1172 3481 
Q 1172 3119 1398 2916 
Q 1625 2713 2034 2713 
Q 2441 2713 2670 2916 
Q 2900 3119 2900 3481 
Q 2900 3844 2670 4047 
Q 2441 4250 2034 4250 
Q 1625 4250 1398 4047 
Q 1172 3844 1172 3481 
z
" id="DejaVuSans-38" transform="scale(0.015625)"/>
       </defs>
       <use xlink:href="#DejaVuSans-38"/>
       <use x="63.623047" xlink:href="#DejaVuSans-30"/>
      </g>
     </g>
    </g>
    <g id="text_10">
     <!-- epoch -->
     <g style="fill:#262626;" transform="translate(572.12625 600.264063)scale(0.12 -0.12)">
      <defs>
       <path d="M 3597 1894 
L 3597 1613 
L 953 1613 
Q 991 1019 1311 708 
Q 1631 397 2203 397 
Q 2534 397 2845 478 
Q 3156 559 3463 722 
L 3463 178 
Q 3153 47 2828 -22 
Q 2503 -91 2169 -91 
Q 1331 -91 842 396 
Q 353 884 353 1716 
Q 353 2575 817 3079 
Q 1281 3584 2069 3584 
Q 2775 3584 3186 3129 
Q 3597 2675 3597 1894 
z
M 3022 2063 
Q 3016 2534 2758 2815 
Q 2500 3097 2075 3097 
Q 1594 3097 1305 2825 
Q 1016 2553 972 2059 
L 3022 2063 
z
" id="DejaVuSans-65" transform="scale(0.015625)"/>
       <path d="M 1159 525 
L 1159 -1331 
L 581 -1331 
L 581 3500 
L 1159 3500 
L 1159 2969 
Q 1341 3281 1617 3432 
Q 1894 3584 2278 3584 
Q 2916 3584 3314 3078 
Q 3713 2572 3713 1747 
Q 3713 922 3314 415 
Q 2916 -91 2278 -91 
Q 1894 -91 1617 61 
Q 1341 213 1159 525 
z
M 3116 1747 
Q 3116 2381 2855 2742 
Q 2594 3103 2138 3103 
Q 1681 3103 1420 2742 
Q 1159 2381 1159 1747 
Q 1159 1113 1420 752 
Q 1681 391 2138 391 
Q 2594 391 2855 752 
Q 3116 1113 3116 1747 
z
" id="DejaVuSans-70" transform="scale(0.015625)"/>
       <path d="M 1959 3097 
Q 1497 3097 1228 2736 
Q 959 2375 959 1747 
Q 959 1119 1226 758 
Q 1494 397 1959 397 
Q 2419 397 2687 759 
Q 2956 1122 2956 1747 
Q 2956 2369 2687 2733 
Q 2419 3097 1959 3097 
z
M 1959 3584 
Q 2709 3584 3137 3096 
Q 3566 2609 3566 1747 
Q 3566 888 3137 398 
Q 2709 -91 1959 -91 
Q 1206 -91 779 398 
Q 353 888 353 1747 
Q 353 2609 779 3096 
Q 1206 3584 1959 3584 
z
" id="DejaVuSans-6f" transform="scale(0.015625)"/>
       <path d="M 3122 3366 
L 3122 2828 
Q 2878 2963 2633 3030 
Q 2388 3097 2138 3097 
Q 1578 3097 1268 2742 
Q 959 2388 959 1747 
Q 959 1106 1268 751 
Q 1578 397 2138 397 
Q 2388 397 2633 464 
Q 2878 531 3122 666 
L 3122 134 
Q 2881 22 2623 -34 
Q 2366 -91 2075 -91 
Q 1284 -91 818 406 
Q 353 903 353 1747 
Q 353 2603 823 3093 
Q 1294 3584 2113 3584 
Q 2378 3584 2631 3529 
Q 2884 3475 3122 3366 
z
" id="DejaVuSans-63" transform="scale(0.015625)"/>
       <path d="M 3513 2113 
L 3513 0 
L 2938 0 
L 2938 2094 
Q 2938 2591 2744 2837 
Q 2550 3084 2163 3084 
Q 1697 3084 1428 2787 
Q 1159 2491 1159 1978 
L 1159 0 
L 581 0 
L 581 4863 
L 1159 4863 
L 1159 2956 
Q 1366 3272 1645 3428 
Q 1925 3584 2291 3584 
Q 2894 3584 3203 3211 
Q 3513 2838 3513 2113 
z
" id="DejaVuSans-68" transform="scale(0.015625)"/>
      </defs>
      <use xlink:href="#DejaVuSans-65"/>
      <use x="61.523438" xlink:href="#DejaVuSans-70"/>
      <use x="125" xlink:href="#DejaVuSans-6f"/>
      <use x="186.181641" xlink:href="#DejaVuSans-63"/>
      <use x="241.162109" xlink:href="#DejaVuSans-68"/>
     </g>
    </g>
   </g>
   <g id="matplotlib.axis_2">
    <g id="ytick_1">
     <g id="line2d_10">
      <path clip-path="url(#p8d192f8d77)" d="M 144 512.957491 
L 1036.8 512.957491 
" style="fill:none;stroke:#ffffff;stroke-linecap:round;"/>
     </g>
     <g id="text_11">
      <!-- 0.10 -->
      <g style="fill:#262626;" transform="translate(110.007812 517.136632)scale(0.11 -0.11)">
       <defs>
        <path d="M 684 794 
L 1344 794 
L 1344 0 
L 684 0 
L 684 794 
z
" id="DejaVuSans-2e" transform="scale(0.015625)"/>
       </defs>
       <use xlink:href="#DejaVuSans-30"/>
       <use x="63.623047" xlink:href="#DejaVuSans-2e"/>
       <use x="95.410156" xlink:href="#DejaVuSans-31"/>
       <use x="159.033203" xlink:href="#DejaVuSans-30"/>
      </g>
     </g>
    </g>
    <g id="ytick_2">
     <g id="line2d_11">
      <path clip-path="url(#p8d192f8d77)" d="M 144 413.568969 
L 1036.8 413.568969 
" style="fill:none;stroke:#ffffff;stroke-linecap:round;"/>
     </g>
     <g id="text_12">
      <!-- 0.12 -->
      <g style="fill:#262626;" transform="translate(110.007812 417.74811)scale(0.11 -0.11)">
       <use xlink:href="#DejaVuSans-30"/>
       <use x="63.623047" xlink:href="#DejaVuSans-2e"/>
       <use x="95.410156" xlink:href="#DejaVuSans-31"/>
       <use x="159.033203" xlink:href="#DejaVuSans-32"/>
      </g>
     </g>
    </g>
    <g id="ytick_3">
     <g id="line2d_12">
      <path clip-path="url(#p8d192f8d77)" d="M 144 314.180447 
L 1036.8 314.180447 
" style="fill:none;stroke:#ffffff;stroke-linecap:round;"/>
     </g>
     <g id="text_13">
      <!-- 0.14 -->
      <g style="fill:#262626;" transform="translate(110.007812 318.359588)scale(0.11 -0.11)">
       <use xlink:href="#DejaVuSans-30"/>
       <use x="63.623047" xlink:href="#DejaVuSans-2e"/>
       <use x="95.410156" xlink:href="#DejaVuSans-31"/>
       <use x="159.033203" xlink:href="#DejaVuSans-34"/>
      </g>
     </g>
    </g>
    <g id="ytick_4">
     <g id="line2d_13">
      <path clip-path="url(#p8d192f8d77)" d="M 144 214.791925 
L 1036.8 214.791925 
" style="fill:none;stroke:#ffffff;stroke-linecap:round;"/>
     </g>
     <g id="text_14">
      <!-- 0.16 -->
      <g style="fill:#262626;" transform="translate(110.007812 218.971065)scale(0.11 -0.11)">
       <use xlink:href="#DejaVuSans-30"/>
       <use x="63.623047" xlink:href="#DejaVuSans-2e"/>
       <use x="95.410156" xlink:href="#DejaVuSans-31"/>
       <use x="159.033203" xlink:href="#DejaVuSans-36"/>
      </g>
     </g>
    </g>
    <g id="ytick_5">
     <g id="line2d_14">
      <path clip-path="url(#p8d192f8d77)" d="M 144 115.403403 
L 1036.8 115.403403 
" style="fill:none;stroke:#ffffff;stroke-linecap:round;"/>
     </g>
     <g id="text_15">
      <!-- 0.18 -->
      <g style="fill:#262626;" transform="translate(110.007812 119.582543)scale(0.11 -0.11)">
       <use xlink:href="#DejaVuSans-30"/>
       <use x="63.623047" xlink:href="#DejaVuSans-2e"/>
       <use x="95.410156" xlink:href="#DejaVuSans-31"/>
       <use x="159.033203" xlink:href="#DejaVuSans-38"/>
      </g>
     </g>
    </g>
    <g id="text_16">
     <!-- correct -->
     <g style="fill:#262626;" transform="translate(103.512187 343.386562)rotate(-90)scale(0.12 -0.12)">
      <defs>
       <path d="M 2631 2963 
Q 2534 3019 2420 3045 
Q 2306 3072 2169 3072 
Q 1681 3072 1420 2755 
Q 1159 2438 1159 1844 
L 1159 0 
L 581 0 
L 581 3500 
L 1159 3500 
L 1159 2956 
Q 1341 3275 1631 3429 
Q 1922 3584 2338 3584 
Q 2397 3584 2469 3576 
Q 2541 3569 2628 3553 
L 2631 2963 
z
" id="DejaVuSans-72" transform="scale(0.015625)"/>
       <path d="M 1172 4494 
L 1172 3500 
L 2356 3500 
L 2356 3053 
L 1172 3053 
L 1172 1153 
Q 1172 725 1289 603 
Q 1406 481 1766 481 
L 2356 481 
L 2356 0 
L 1766 0 
Q 1100 0 847 248 
Q 594 497 594 1153 
L 594 3053 
L 172 3053 
L 172 3500 
L 594 3500 
L 594 4494 
L 1172 4494 
z
" id="DejaVuSans-74" transform="scale(0.015625)"/>
      </defs>
      <use xlink:href="#DejaVuSans-63"/>
      <use x="54.980469" xlink:href="#DejaVuSans-6f"/>
      <use x="116.162109" xlink:href="#DejaVuSans-72"/>
      <use x="155.525391" xlink:href="#DejaVuSans-72"/>
      <use x="194.388672" xlink:href="#DejaVuSans-65"/>
      <use x="255.912109" xlink:href="#DejaVuSans-63"/>
      <use x="310.892578" xlink:href="#DejaVuSans-74"/>
     </g>
    </g>
   </g>
   <g id="line2d_15">
    <path clip-path="url(#p8d192f8d77)" d="M 184.581818 544.761818 
L 194.855696 543.767933 
L 205.129574 542.277105 
L 215.403452 542.774048 
L 225.67733 540.786277 
L 235.951208 538.798507 
L 246.225086 537.307679 
L 256.498964 535.319909 
L 266.772842 533.332138 
L 277.04672 532.338253 
L 287.320598 530.350482 
L 297.594476 527.865769 
L 307.868354 526.871884 
L 318.142232 522.896343 
L 328.41611 517.926917 
L 338.689988 518.42386 
L 348.963867 517.926917 
L 359.237745 515.939147 
L 369.511623 514.448319 
L 379.785501 510.969721 
L 390.059379 508.485008 
L 400.333257 507.491122 
L 410.607135 506.99418 
L 420.881013 505.006409 
L 431.154891 505.503352 
L 441.428769 504.012524 
L 451.702647 506.497237 
L 461.976525 505.006409 
L 472.250403 501.030868 
L 482.524281 499.043098 
L 492.798159 494.570615 
L 503.072037 495.067557 
L 513.345915 491.588959 
L 523.619793 489.601188 
L 533.893671 485.625648 
L 544.167549 485.128705 
L 554.441427 480.159279 
L 564.715305 480.656221 
L 574.989183 479.662336 
L 585.263061 478.668451 
L 595.536939 476.680681 
L 605.810817 473.699025 
L 616.084695 472.208197 
L 626.358573 471.711254 
L 636.632451 471.711254 
L 646.906329 470.220427 
L 657.180207 467.735714 
L 667.454085 468.729599 
L 677.727963 466.244886 
L 688.001841 464.754058 
L 698.275719 462.269345 
L 708.549597 460.281574 
L 718.823475 458.293804 
L 729.097353 459.784632 
L 739.371231 457.796861 
L 749.645109 456.306034 
L 759.918987 455.809091 
L 770.192865 453.324378 
L 780.466743 454.815206 
L 790.740621 452.330493 
L 801.014499 451.336607 
L 811.288377 451.336607 
L 821.562255 447.858009 
L 831.836133 446.864124 
L 842.110012 444.876353 
L 852.38389 444.379411 
L 862.657768 442.39164 
L 872.931646 439.906927 
L 883.205524 440.40387 
L 893.479402 438.913042 
L 903.75328 437.422214 
L 914.027158 436.925272 
L 924.301036 437.422214 
L 934.574914 436.925272 
L 944.848792 435.931386 
L 955.12267 435.931386 
L 965.396548 433.943616 
L 975.670426 431.458903 
L 985.944304 431.458903 
L 996.218182 429.968075 
" style="fill:none;stroke:#edd1cb;stroke-linecap:round;stroke-width:1.5;"/>
   </g>
   <g id="line2d_16">
    <path clip-path="url(#p8d192f8d77)" d="M 184.581818 544.761818 
L 194.855696 542.774048 
L 205.129574 540.289335 
L 215.403452 538.301564 
L 225.67733 532.835196 
L 235.951208 530.350482 
L 246.225086 526.374942 
L 256.498964 517.926917 
L 266.772842 517.926917 
L 277.04672 513.951376 
L 287.320598 508.485008 
L 297.594476 506.99418 
L 307.868354 506.497237 
L 318.142232 505.006409 
L 328.41611 502.024754 
L 338.689988 496.558385 
L 348.963867 491.092016 
L 359.237745 485.128705 
L 369.511623 479.165394 
L 379.785501 480.656221 
L 390.059379 475.686795 
L 400.333257 471.214312 
L 410.607135 471.214312 
L 420.881013 467.238771 
L 431.154891 466.741828 
L 441.428769 463.26323 
L 451.702647 459.784632 
L 461.976525 458.790747 
L 472.250403 455.809091 
L 482.524281 456.306034 
L 492.798159 452.330493 
L 503.072037 446.864124 
L 513.345915 444.876353 
L 523.619793 444.379411 
L 533.893671 440.40387 
L 544.167549 438.913042 
L 554.441427 437.919157 
L 564.715305 438.4161 
L 574.989183 432.949731 
L 585.263061 432.949731 
L 595.536939 430.465018 
L 605.810817 429.968075 
L 616.084695 427.980305 
L 626.358573 425.992534 
L 636.632451 424.501706 
L 646.906329 421.023108 
L 657.180207 417.047567 
L 667.454085 413.072026 
L 677.727963 410.587313 
L 688.001841 409.593428 
L 698.275719 407.605658 
L 708.549597 407.108715 
L 718.823475 406.611772 
L 729.097353 408.1026 
L 739.371231 404.624002 
L 749.645109 402.139289 
L 759.918987 398.660691 
L 770.192865 395.679035 
L 780.466743 393.194322 
L 790.740621 392.200437 
L 801.014499 390.212666 
L 811.288377 388.721838 
L 821.562255 382.758527 
L 831.836133 384.746298 
L 842.110012 382.758527 
L 852.38389 380.273814 
L 862.657768 378.782986 
L 872.931646 376.795216 
L 883.205524 375.801331 
L 893.479402 372.819675 
L 903.75328 370.831905 
L 914.027158 367.850249 
L 924.301036 367.850249 
L 934.574914 365.862478 
L 944.848792 364.371651 
L 955.12267 362.38388 
L 965.396548 360.39611 
L 975.670426 359.402224 
L 985.944304 358.408339 
L 996.218182 356.420569 
" style="fill:none;stroke:#e9c6c2;stroke-linecap:round;stroke-width:1.5;"/>
   </g>
   <g id="line2d_17">
    <path clip-path="url(#p8d192f8d77)" d="M 184.581818 544.761818 
L 194.855696 532.338253 
L 205.129574 512.957491 
L 215.403452 497.055328 
L 225.67733 473.699025 
L 235.951208 460.778517 
L 246.225086 449.84578 
L 256.498964 438.913042 
L 266.772842 423.507821 
L 277.04672 416.053682 
L 287.320598 407.108715 
L 297.594476 399.157633 
L 307.868354 389.218781 
L 318.142232 384.249355 
L 328.41611 372.819675 
L 338.689988 359.899167 
L 348.963867 351.948085 
L 359.237745 345.984774 
L 369.511623 344.990889 
L 379.785501 342.009233 
L 390.059379 340.518405 
L 400.333257 337.039807 
L 410.607135 332.567324 
L 420.881013 331.573438 
L 431.154891 324.616242 
L 441.428769 318.65293 
L 451.702647 321.137643 
L 461.976525 310.701849 
L 472.250403 308.714078 
L 482.524281 304.738537 
L 492.798159 301.259939 
L 503.072037 291.818029 
L 513.345915 288.339431 
L 523.619793 282.37612 
L 533.893671 284.36389 
L 544.167549 276.412809 
L 554.441427 268.461727 
L 564.715305 265.480071 
L 574.989183 262.995358 
L 585.263061 260.013702 
L 595.536939 261.007588 
L 605.810817 257.032047 
L 616.084695 258.025932 
L 626.358573 256.038162 
L 636.632451 255.044276 
L 646.906329 250.571793 
L 657.180207 251.068735 
L 667.454085 246.596252 
L 677.727963 248.584022 
L 688.001841 245.602367 
L 698.275719 245.602367 
L 708.549597 238.64517 
L 718.823475 244.111539 
L 729.097353 236.160457 
L 739.371231 237.651285 
L 749.645109 229.203261 
L 759.918987 235.663514 
L 770.192865 226.221605 
L 780.466743 231.687974 
L 790.740621 219.761351 
L 801.014499 223.239949 
L 811.288377 218.270523 
L 821.562255 219.761351 
L 831.836133 213.301097 
L 842.110012 218.767466 
L 852.38389 214.294982 
L 862.657768 211.313327 
L 872.931646 208.828614 
L 883.205524 209.325556 
L 893.479402 204.853073 
L 903.75328 201.871417 
L 914.027158 199.883647 
L 924.301036 192.429507 
L 934.574914 188.453966 
L 944.848792 189.447852 
L 955.12267 183.981483 
L 965.396548 187.460081 
L 975.670426 179.012057 
L 985.944304 183.981483 
L 996.218182 176.527344 
" style="fill:none;stroke:#af6c91;stroke-linecap:round;stroke-width:1.5;"/>
   </g>
   <g id="line2d_18">
    <path clip-path="url(#p8d192f8d77)" d="M 184.581818 544.761818 
L 194.855696 511.466663 
L 205.129574 474.69291 
L 215.403452 449.348837 
L 225.67733 425.495592 
L 235.951208 401.145404 
L 246.225086 387.727953 
L 256.498964 372.819675 
L 266.772842 350.457257 
L 277.04672 344.990889 
L 287.320598 335.052037 
L 297.594476 333.561209 
L 307.868354 321.634586 
L 318.142232 313.683504 
L 328.41611 303.247709 
L 338.689988 302.750767 
L 348.963867 285.357776 
L 359.237745 283.866948 
L 369.511623 275.418923 
L 379.785501 272.93421 
L 390.059379 269.455612 
L 400.333257 274.921981 
L 410.607135 258.025932 
L 420.881013 266.473956 
L 431.154891 246.596252 
L 441.428769 255.044276 
L 451.702647 236.6574 
L 461.976525 246.099309 
L 472.250403 222.743007 
L 482.524281 243.117654 
L 492.798159 210.319441 
L 503.072037 239.142113 
L 513.345915 204.853073 
L 523.619793 227.21549 
L 533.893671 204.853073 
L 544.167549 223.239949 
L 554.441427 195.908106 
L 564.715305 215.288867 
L 574.989183 184.975368 
L 585.263061 201.871417 
L 595.536939 172.551803 
L 605.810817 195.908106 
L 616.084695 167.582377 
L 626.358573 184.975368 
L 636.632451 154.661869 
L 646.906329 178.018172 
L 657.180207 158.140467 
L 667.454085 172.05486 
L 677.727963 154.164926 
L 688.001841 158.140467 
L 698.275719 150.686328 
L 708.549597 148.698558 
L 718.823475 145.716902 
L 729.097353 145.716902 
L 739.371231 137.76582 
L 749.645109 137.268878 
L 759.918987 134.287222 
L 770.192865 139.256648 
L 780.466743 129.317796 
L 790.740621 140.250533 
L 801.014499 125.342255 
L 811.288377 130.808624 
L 821.562255 121.863657 
L 831.836133 129.317796 
L 842.110012 121.366714 
L 852.38389 125.839198 
L 862.657768 119.378944 
L 872.931646 118.385058 
L 883.205524 118.385058 
L 893.479402 112.421747 
L 903.75328 115.900345 
L 914.027158 111.924804 
L 924.301036 117.391173 
L 934.574914 111.427862 
L 944.848792 109.937034 
L 955.12267 107.452321 
L 965.396548 110.433977 
L 975.670426 110.930919 
L 985.944304 104.470665 
L 996.218182 99.998182 
" style="fill:none;stroke:#2d1e3e;stroke-linecap:round;stroke-width:1.5;"/>
   </g>
   <g id="line2d_19"/>
   <g id="line2d_20"/>
   <g id="line2d_21"/>
   <g id="line2d_22"/>
   <g id="patch_3">
    <path d="M 144 567 
L 144 77.76 
" style="fill:none;stroke:#ffffff;stroke-linecap:square;stroke-linejoin:miter;stroke-width:1.25;"/>
   </g>
   <g id="patch_4">
    <path d="M 1036.8 567 
L 1036.8 77.76 
" style="fill:none;stroke:#ffffff;stroke-linecap:square;stroke-linejoin:miter;stroke-width:1.25;"/>
   </g>
   <g id="patch_5">
    <path d="M 144 567 
L 1036.8 567 
" style="fill:none;stroke:#ffffff;stroke-linecap:square;stroke-linejoin:miter;stroke-width:1.25;"/>
   </g>
   <g id="patch_6">
    <path d="M 144 77.76 
L 1036.8 77.76 
" style="fill:none;stroke:#ffffff;stroke-linecap:square;stroke-linejoin:miter;stroke-width:1.25;"/>
   </g>
   <g id="legend_1">
    <g id="patch_7">
     <path d="M 151.7 168.2575 
L 225.389688 168.2575 
Q 227.589687 168.2575 227.589687 166.0575 
L 227.589687 85.46 
Q 227.589687 83.26 225.389688 83.26 
L 151.7 83.26 
Q 149.5 83.26 149.5 85.46 
L 149.5 166.0575 
Q 149.5 168.2575 151.7 168.2575 
z
" style="fill:#eaeaf2;opacity:0.8;stroke:#cccccc;stroke-linejoin:miter;"/>
    </g>
    <g id="text_17">
     <!-- lr -->
     <g style="fill:#262626;" transform="translate(184.411406 96.778125)scale(0.12 -0.12)">
      <defs>
       <path d="M 603 4863 
L 1178 4863 
L 1178 0 
L 603 0 
L 603 4863 
z
" id="DejaVuSans-6c" transform="scale(0.015625)"/>
      </defs>
      <use xlink:href="#DejaVuSans-6c"/>
      <use x="27.783203" xlink:href="#DejaVuSans-72"/>
     </g>
    </g>
    <g id="line2d_23">
     <path d="M 153.9 109.282031 
L 175.9 109.282031 
" style="fill:none;stroke:#edd1cb;stroke-linecap:round;stroke-width:1.5;"/>
    </g>
    <g id="line2d_24"/>
    <g id="text_18">
     <!-- 0.0005 -->
     <g style="fill:#262626;" transform="translate(184.7 113.132031)scale(0.11 -0.11)">
      <use xlink:href="#DejaVuSans-30"/>
      <use x="63.623047" xlink:href="#DejaVuSans-2e"/>
      <use x="95.410156" xlink:href="#DejaVuSans-30"/>
      <use x="159.033203" xlink:href="#DejaVuSans-30"/>
      <use x="222.65625" xlink:href="#DejaVuSans-30"/>
      <use x="286.279297" xlink:href="#DejaVuSans-35"/>
     </g>
    </g>
    <g id="line2d_25">
     <path d="M 153.9 125.427969 
L 175.9 125.427969 
" style="fill:none;stroke:#e9c6c2;stroke-linecap:round;stroke-width:1.5;"/>
    </g>
    <g id="line2d_26"/>
    <g id="text_19">
     <!-- 0.001 -->
     <g style="fill:#262626;" transform="translate(184.7 129.277969)scale(0.11 -0.11)">
      <use xlink:href="#DejaVuSans-30"/>
      <use x="63.623047" xlink:href="#DejaVuSans-2e"/>
      <use x="95.410156" xlink:href="#DejaVuSans-30"/>
      <use x="159.033203" xlink:href="#DejaVuSans-30"/>
      <use x="222.65625" xlink:href="#DejaVuSans-31"/>
     </g>
    </g>
    <g id="line2d_27">
     <path d="M 153.9 141.573906 
L 175.9 141.573906 
" style="fill:none;stroke:#af6c91;stroke-linecap:round;stroke-width:1.5;"/>
    </g>
    <g id="line2d_28"/>
    <g id="text_20">
     <!-- 0.005 -->
     <g style="fill:#262626;" transform="translate(184.7 145.423906)scale(0.11 -0.11)">
      <use xlink:href="#DejaVuSans-30"/>
      <use x="63.623047" xlink:href="#DejaVuSans-2e"/>
      <use x="95.410156" xlink:href="#DejaVuSans-30"/>
      <use x="159.033203" xlink:href="#DejaVuSans-30"/>
      <use x="222.65625" xlink:href="#DejaVuSans-35"/>
     </g>
    </g>
    <g id="line2d_29">
     <path d="M 153.9 157.719844 
L 175.9 157.719844 
" style="fill:none;stroke:#2d1e3e;stroke-linecap:round;stroke-width:1.5;"/>
    </g>
    <g id="line2d_30"/>
    <g id="text_21">
     <!-- 0.01 -->
     <g style="fill:#262626;" transform="translate(184.7 161.569844)scale(0.11 -0.11)">
      <use xlink:href="#DejaVuSans-30"/>
      <use x="63.623047" xlink:href="#DejaVuSans-2e"/>
      <use x="95.410156" xlink:href="#DejaVuSans-30"/>
      <use x="159.033203" xlink:href="#DejaVuSans-31"/>
     </g>
    </g>
   </g>
  </g>
 </g>
 <defs>
  <clipPath id="p8d192f8d77">
   <rect height="489.24" width="892.8" x="144" y="77.76"/>
  </clipPath>
 </defs>
</svg>
