<?xml version="1.0" encoding="utf-8" standalone="no"?>
<!DOCTYPE svg PUBLIC "-//W3C//DTD SVG 1.1//EN"
  "http://www.w3.org/Graphics/SVG/1.1/DTD/svg11.dtd">
<svg xmlns:xlink="http://www.w3.org/1999/xlink" width="1152pt" height="648pt" viewBox="0 0 1152 648" xmlns="http://www.w3.org/2000/svg" version="1.1">
 <metadata>
  <rdf:RDF xmlns:dc="http://purl.org/dc/elements/1.1/" xmlns:cc="http://creativecommons.org/ns#" xmlns:rdf="http://www.w3.org/1999/02/22-rdf-syntax-ns#">
   <cc:Work>
    <dc:type rdf:resource="http://purl.org/dc/dcmitype/StillImage"/>
    <dc:date>2022-07-27T11:28:34.331422</dc:date>
    <dc:format>image/svg+xml</dc:format>
    <dc:creator>
     <cc:Agent>
      <dc:title>Matplotlib v3.5.2, https://matplotlib.org/</dc:title>
     </cc:Agent>
    </dc:creator>
   </cc:Work>
  </rdf:RDF>
 </metadata>
 <defs>
  <style type="text/css">*{stroke-linejoin: round; stroke-linecap: butt}</style>
 </defs>
 <g id="figure_1">
  <g id="patch_1">
   <path d="M 0 648 
L 1152 648 
L 1152 0 
L 0 0 
z
" style="fill: #ffffff"/>
  </g>
  <g id="axes_1">
   <g id="patch_2">
    <path d="M 144 567 
L 1036.8 567 
L 1036.8 77.76 
L 144 77.76 
z
" style="fill: #eaeaf2"/>
   </g>
   <g id="matplotlib.axis_1">
    <g id="xtick_1">
     <g id="line2d_1">
      <path d="M 184.581818 567 
L 184.581818 77.76 
" clip-path="url(#p35b25e7ccb)" style="fill: none; stroke: #ffffff; stroke-linecap: round"/>
     </g>
     <g id="text_1">
      <!-- 0 -->
      <g style="fill: #262626" transform="translate(177.583068 593.216563)scale(0.22 -0.22)">
       <defs>
        <path id="DejaVuSans-30" d="M 2034 4250 
Q 1547 4250 1301 3770 
Q 1056 3291 1056 2328 
Q 1056 1369 1301 889 
Q 1547 409 2034 409 
Q 2525 409 2770 889 
Q 3016 1369 3016 2328 
Q 3016 3291 2770 3770 
Q 2525 4250 2034 4250 
z
M 2034 4750 
Q 2819 4750 3233 4129 
Q 3647 3509 3647 2328 
Q 3647 1150 3233 529 
Q 2819 -91 2034 -91 
Q 1250 -91 836 529 
Q 422 1150 422 2328 
Q 422 3509 836 4129 
Q 1250 4750 2034 4750 
z
" transform="scale(0.015625)"/>
       </defs>
       <use xlink:href="#DejaVuSans-30"/>
      </g>
     </g>
    </g>
    <g id="xtick_2">
     <g id="line2d_2">
      <path d="M 287.320598 567 
L 287.320598 77.76 
" clip-path="url(#p35b25e7ccb)" style="fill: none; stroke: #ffffff; stroke-linecap: round"/>
     </g>
     <g id="text_2">
      <!-- 10 -->
      <g style="fill: #262626" transform="translate(273.323098 593.216563)scale(0.22 -0.22)">
       <defs>
        <path id="DejaVuSans-31" d="M 794 531 
L 1825 531 
L 1825 4091 
L 703 3866 
L 703 4441 
L 1819 4666 
L 2450 4666 
L 2450 531 
L 3481 531 
L 3481 0 
L 794 0 
L 794 531 
z
" transform="scale(0.015625)"/>
       </defs>
       <use xlink:href="#DejaVuSans-31"/>
       <use xlink:href="#DejaVuSans-30" x="63.623047"/>
      </g>
     </g>
    </g>
    <g id="xtick_3">
     <g id="line2d_3">
      <path d="M 390.059379 567 
L 390.059379 77.76 
" clip-path="url(#p35b25e7ccb)" style="fill: none; stroke: #ffffff; stroke-linecap: round"/>
     </g>
     <g id="text_3">
      <!-- 20 -->
      <g style="fill: #262626" transform="translate(376.061879 593.216563)scale(0.22 -0.22)">
       <defs>
        <path id="DejaVuSans-32" d="M 1228 531 
L 3431 531 
L 3431 0 
L 469 0 
L 469 531 
Q 828 903 1448 1529 
Q 2069 2156 2228 2338 
Q 2531 2678 2651 2914 
Q 2772 3150 2772 3378 
Q 2772 3750 2511 3984 
Q 2250 4219 1831 4219 
Q 1534 4219 1204 4116 
Q 875 4013 500 3803 
L 500 4441 
Q 881 4594 1212 4672 
Q 1544 4750 1819 4750 
Q 2544 4750 2975 4387 
Q 3406 4025 3406 3419 
Q 3406 3131 3298 2873 
Q 3191 2616 2906 2266 
Q 2828 2175 2409 1742 
Q 1991 1309 1228 531 
z
" transform="scale(0.015625)"/>
       </defs>
       <use xlink:href="#DejaVuSans-32"/>
       <use xlink:href="#DejaVuSans-30" x="63.623047"/>
      </g>
     </g>
    </g>
    <g id="xtick_4">
     <g id="line2d_4">
      <path d="M 492.798159 567 
L 492.798159 77.76 
" clip-path="url(#p35b25e7ccb)" style="fill: none; stroke: #ffffff; stroke-linecap: round"/>
     </g>
     <g id="text_4">
      <!-- 30 -->
      <g style="fill: #262626" transform="translate(478.800659 593.216563)scale(0.22 -0.22)">
       <defs>
        <path id="DejaVuSans-33" d="M 2597 2516 
Q 3050 2419 3304 2112 
Q 3559 1806 3559 1356 
Q 3559 666 3084 287 
Q 2609 -91 1734 -91 
Q 1441 -91 1130 -33 
Q 819 25 488 141 
L 488 750 
Q 750 597 1062 519 
Q 1375 441 1716 441 
Q 2309 441 2620 675 
Q 2931 909 2931 1356 
Q 2931 1769 2642 2001 
Q 2353 2234 1838 2234 
L 1294 2234 
L 1294 2753 
L 1863 2753 
Q 2328 2753 2575 2939 
Q 2822 3125 2822 3475 
Q 2822 3834 2567 4026 
Q 2313 4219 1838 4219 
Q 1578 4219 1281 4162 
Q 984 4106 628 3988 
L 628 4550 
Q 988 4650 1302 4700 
Q 1616 4750 1894 4750 
Q 2613 4750 3031 4423 
Q 3450 4097 3450 3541 
Q 3450 3153 3228 2886 
Q 3006 2619 2597 2516 
z
" transform="scale(0.015625)"/>
       </defs>
       <use xlink:href="#DejaVuSans-33"/>
       <use xlink:href="#DejaVuSans-30" x="63.623047"/>
      </g>
     </g>
    </g>
    <g id="xtick_5">
     <g id="line2d_5">
      <path d="M 595.536939 567 
L 595.536939 77.76 
" clip-path="url(#p35b25e7ccb)" style="fill: none; stroke: #ffffff; stroke-linecap: round"/>
     </g>
     <g id="text_5">
      <!-- 40 -->
      <g style="fill: #262626" transform="translate(581.539439 593.216563)scale(0.22 -0.22)">
       <defs>
        <path id="DejaVuSans-34" d="M 2419 4116 
L 825 1625 
L 2419 1625 
L 2419 4116 
z
M 2253 4666 
L 3047 4666 
L 3047 1625 
L 3713 1625 
L 3713 1100 
L 3047 1100 
L 3047 0 
L 2419 0 
L 2419 1100 
L 313 1100 
L 313 1709 
L 2253 4666 
z
" transform="scale(0.015625)"/>
       </defs>
       <use xlink:href="#DejaVuSans-34"/>
       <use xlink:href="#DejaVuSans-30" x="63.623047"/>
      </g>
     </g>
    </g>
    <g id="xtick_6">
     <g id="line2d_6">
      <path d="M 698.275719 567 
L 698.275719 77.76 
" clip-path="url(#p35b25e7ccb)" style="fill: none; stroke: #ffffff; stroke-linecap: round"/>
     </g>
     <g id="text_6">
      <!-- 50 -->
      <g style="fill: #262626" transform="translate(684.278219 593.216563)scale(0.22 -0.22)">
       <defs>
        <path id="DejaVuSans-35" d="M 691 4666 
L 3169 4666 
L 3169 4134 
L 1269 4134 
L 1269 2991 
Q 1406 3038 1543 3061 
Q 1681 3084 1819 3084 
Q 2600 3084 3056 2656 
Q 3513 2228 3513 1497 
Q 3513 744 3044 326 
Q 2575 -91 1722 -91 
Q 1428 -91 1123 -41 
Q 819 9 494 109 
L 494 744 
Q 775 591 1075 516 
Q 1375 441 1709 441 
Q 2250 441 2565 725 
Q 2881 1009 2881 1497 
Q 2881 1984 2565 2268 
Q 2250 2553 1709 2553 
Q 1456 2553 1204 2497 
Q 953 2441 691 2322 
L 691 4666 
z
" transform="scale(0.015625)"/>
       </defs>
       <use xlink:href="#DejaVuSans-35"/>
       <use xlink:href="#DejaVuSans-30" x="63.623047"/>
      </g>
     </g>
    </g>
    <g id="xtick_7">
     <g id="line2d_7">
      <path d="M 801.014499 567 
L 801.014499 77.76 
" clip-path="url(#p35b25e7ccb)" style="fill: none; stroke: #ffffff; stroke-linecap: round"/>
     </g>
     <g id="text_7">
      <!-- 60 -->
      <g style="fill: #262626" transform="translate(787.016999 593.216563)scale(0.22 -0.22)">
       <defs>
        <path id="DejaVuSans-36" d="M 2113 2584 
Q 1688 2584 1439 2293 
Q 1191 2003 1191 1497 
Q 1191 994 1439 701 
Q 1688 409 2113 409 
Q 2538 409 2786 701 
Q 3034 994 3034 1497 
Q 3034 2003 2786 2293 
Q 2538 2584 2113 2584 
z
M 3366 4563 
L 3366 3988 
Q 3128 4100 2886 4159 
Q 2644 4219 2406 4219 
Q 1781 4219 1451 3797 
Q 1122 3375 1075 2522 
Q 1259 2794 1537 2939 
Q 1816 3084 2150 3084 
Q 2853 3084 3261 2657 
Q 3669 2231 3669 1497 
Q 3669 778 3244 343 
Q 2819 -91 2113 -91 
Q 1303 -91 875 529 
Q 447 1150 447 2328 
Q 447 3434 972 4092 
Q 1497 4750 2381 4750 
Q 2619 4750 2861 4703 
Q 3103 4656 3366 4563 
z
" transform="scale(0.015625)"/>
       </defs>
       <use xlink:href="#DejaVuSans-36"/>
       <use xlink:href="#DejaVuSans-30" x="63.623047"/>
      </g>
     </g>
    </g>
    <g id="xtick_8">
     <g id="line2d_8">
      <path d="M 903.75328 567 
L 903.75328 77.76 
" clip-path="url(#p35b25e7ccb)" style="fill: none; stroke: #ffffff; stroke-linecap: round"/>
     </g>
     <g id="text_8">
      <!-- 70 -->
      <g style="fill: #262626" transform="translate(889.75578 593.216563)scale(0.22 -0.22)">
       <defs>
        <path id="DejaVuSans-37" d="M 525 4666 
L 3525 4666 
L 3525 4397 
L 1831 0 
L 1172 0 
L 2766 4134 
L 525 4134 
L 525 4666 
z
" transform="scale(0.015625)"/>
       </defs>
       <use xlink:href="#DejaVuSans-37"/>
       <use xlink:href="#DejaVuSans-30" x="63.623047"/>
      </g>
     </g>
    </g>
    <g id="xtick_9">
     <g id="line2d_9">
      <path d="M 1006.49206 567 
L 1006.49206 77.76 
" clip-path="url(#p35b25e7ccb)" style="fill: none; stroke: #ffffff; stroke-linecap: round"/>
     </g>
     <g id="text_9">
      <!-- 80 -->
      <g style="fill: #262626" transform="translate(992.49456 593.216563)scale(0.22 -0.22)">
       <defs>
        <path id="DejaVuSans-38" d="M 2034 2216 
Q 1584 2216 1326 1975 
Q 1069 1734 1069 1313 
Q 1069 891 1326 650 
Q 1584 409 2034 409 
Q 2484 409 2743 651 
Q 3003 894 3003 1313 
Q 3003 1734 2745 1975 
Q 2488 2216 2034 2216 
z
M 1403 2484 
Q 997 2584 770 2862 
Q 544 3141 544 3541 
Q 544 4100 942 4425 
Q 1341 4750 2034 4750 
Q 2731 4750 3128 4425 
Q 3525 4100 3525 3541 
Q 3525 3141 3298 2862 
Q 3072 2584 2669 2484 
Q 3125 2378 3379 2068 
Q 3634 1759 3634 1313 
Q 3634 634 3220 271 
Q 2806 -91 2034 -91 
Q 1263 -91 848 271 
Q 434 634 434 1313 
Q 434 1759 690 2068 
Q 947 2378 1403 2484 
z
M 1172 3481 
Q 1172 3119 1398 2916 
Q 1625 2713 2034 2713 
Q 2441 2713 2670 2916 
Q 2900 3119 2900 3481 
Q 2900 3844 2670 4047 
Q 2441 4250 2034 4250 
Q 1625 4250 1398 4047 
Q 1172 3844 1172 3481 
z
" transform="scale(0.015625)"/>
       </defs>
       <use xlink:href="#DejaVuSans-38"/>
       <use xlink:href="#DejaVuSans-30" x="63.623047"/>
      </g>
     </g>
    </g>
    <g id="text_10">
     <!-- epoch -->
     <g style="fill: #262626" transform="translate(553.8525 620.028125)scale(0.24 -0.24)">
      <defs>
       <path id="DejaVuSans-65" d="M 3597 1894 
L 3597 1613 
L 953 1613 
Q 991 1019 1311 708 
Q 1631 397 2203 397 
Q 2534 397 2845 478 
Q 3156 559 3463 722 
L 3463 178 
Q 3153 47 2828 -22 
Q 2503 -91 2169 -91 
Q 1331 -91 842 396 
Q 353 884 353 1716 
Q 353 2575 817 3079 
Q 1281 3584 2069 3584 
Q 2775 3584 3186 3129 
Q 3597 2675 3597 1894 
z
M 3022 2063 
Q 3016 2534 2758 2815 
Q 2500 3097 2075 3097 
Q 1594 3097 1305 2825 
Q 1016 2553 972 2059 
L 3022 2063 
z
" transform="scale(0.015625)"/>
       <path id="DejaVuSans-70" d="M 1159 525 
L 1159 -1331 
L 581 -1331 
L 581 3500 
L 1159 3500 
L 1159 2969 
Q 1341 3281 1617 3432 
Q 1894 3584 2278 3584 
Q 2916 3584 3314 3078 
Q 3713 2572 3713 1747 
Q 3713 922 3314 415 
Q 2916 -91 2278 -91 
Q 1894 -91 1617 61 
Q 1341 213 1159 525 
z
M 3116 1747 
Q 3116 2381 2855 2742 
Q 2594 3103 2138 3103 
Q 1681 3103 1420 2742 
Q 1159 2381 1159 1747 
Q 1159 1113 1420 752 
Q 1681 391 2138 391 
Q 2594 391 2855 752 
Q 3116 1113 3116 1747 
z
" transform="scale(0.015625)"/>
       <path id="DejaVuSans-6f" d="M 1959 3097 
Q 1497 3097 1228 2736 
Q 959 2375 959 1747 
Q 959 1119 1226 758 
Q 1494 397 1959 397 
Q 2419 397 2687 759 
Q 2956 1122 2956 1747 
Q 2956 2369 2687 2733 
Q 2419 3097 1959 3097 
z
M 1959 3584 
Q 2709 3584 3137 3096 
Q 3566 2609 3566 1747 
Q 3566 888 3137 398 
Q 2709 -91 1959 -91 
Q 1206 -91 779 398 
Q 353 888 353 1747 
Q 353 2609 779 3096 
Q 1206 3584 1959 3584 
z
" transform="scale(0.015625)"/>
       <path id="DejaVuSans-63" d="M 3122 3366 
L 3122 2828 
Q 2878 2963 2633 3030 
Q 2388 3097 2138 3097 
Q 1578 3097 1268 2742 
Q 959 2388 959 1747 
Q 959 1106 1268 751 
Q 1578 397 2138 397 
Q 2388 397 2633 464 
Q 2878 531 3122 666 
L 3122 134 
Q 2881 22 2623 -34 
Q 2366 -91 2075 -91 
Q 1284 -91 818 406 
Q 353 903 353 1747 
Q 353 2603 823 3093 
Q 1294 3584 2113 3584 
Q 2378 3584 2631 3529 
Q 2884 3475 3122 3366 
z
" transform="scale(0.015625)"/>
       <path id="DejaVuSans-68" d="M 3513 2113 
L 3513 0 
L 2938 0 
L 2938 2094 
Q 2938 2591 2744 2837 
Q 2550 3084 2163 3084 
Q 1697 3084 1428 2787 
Q 1159 2491 1159 1978 
L 1159 0 
L 581 0 
L 581 4863 
L 1159 4863 
L 1159 2956 
Q 1366 3272 1645 3428 
Q 1925 3584 2291 3584 
Q 2894 3584 3203 3211 
Q 3513 2838 3513 2113 
z
" transform="scale(0.015625)"/>
      </defs>
      <use xlink:href="#DejaVuSans-65"/>
      <use xlink:href="#DejaVuSans-70" x="61.523438"/>
      <use xlink:href="#DejaVuSans-6f" x="125"/>
      <use xlink:href="#DejaVuSans-63" x="186.181641"/>
      <use xlink:href="#DejaVuSans-68" x="241.162109"/>
     </g>
    </g>
   </g>
   <g id="matplotlib.axis_2">
    <g id="ytick_1">
     <g id="line2d_10">
      <path d="M 144 547.829154 
L 1036.8 547.829154 
" clip-path="url(#p35b25e7ccb)" style="fill: none; stroke: #ffffff; stroke-linecap: round"/>
     </g>
     <g id="text_11">
      <!-- 0.08 -->
      <g style="fill: #262626" transform="translate(85.515625 556.187435)scale(0.22 -0.22)">
       <defs>
        <path id="DejaVuSans-2e" d="M 684 794 
L 1344 794 
L 1344 0 
L 684 0 
L 684 794 
z
" transform="scale(0.015625)"/>
       </defs>
       <use xlink:href="#DejaVuSans-30"/>
       <use xlink:href="#DejaVuSans-2e" x="63.623047"/>
       <use xlink:href="#DejaVuSans-30" x="95.410156"/>
       <use xlink:href="#DejaVuSans-38" x="159.033203"/>
      </g>
     </g>
    </g>
    <g id="ytick_2">
     <g id="line2d_11">
      <path d="M 144 492.059419 
L 1036.8 492.059419 
" clip-path="url(#p35b25e7ccb)" style="fill: none; stroke: #ffffff; stroke-linecap: round"/>
     </g>
     <g id="text_12">
      <!-- 0.10 -->
      <g style="fill: #262626" transform="translate(85.515625 500.4177)scale(0.22 -0.22)">
       <use xlink:href="#DejaVuSans-30"/>
       <use xlink:href="#DejaVuSans-2e" x="63.623047"/>
       <use xlink:href="#DejaVuSans-31" x="95.410156"/>
       <use xlink:href="#DejaVuSans-30" x="159.033203"/>
      </g>
     </g>
    </g>
    <g id="ytick_3">
     <g id="line2d_12">
      <path d="M 144 436.289684 
L 1036.8 436.289684 
" clip-path="url(#p35b25e7ccb)" style="fill: none; stroke: #ffffff; stroke-linecap: round"/>
     </g>
     <g id="text_13">
      <!-- 0.12 -->
      <g style="fill: #262626" transform="translate(85.515625 444.647965)scale(0.22 -0.22)">
       <use xlink:href="#DejaVuSans-30"/>
       <use xlink:href="#DejaVuSans-2e" x="63.623047"/>
       <use xlink:href="#DejaVuSans-31" x="95.410156"/>
       <use xlink:href="#DejaVuSans-32" x="159.033203"/>
      </g>
     </g>
    </g>
    <g id="ytick_4">
     <g id="line2d_13">
      <path d="M 144 380.519949 
L 1036.8 380.519949 
" clip-path="url(#p35b25e7ccb)" style="fill: none; stroke: #ffffff; stroke-linecap: round"/>
     </g>
     <g id="text_14">
      <!-- 0.14 -->
      <g style="fill: #262626" transform="translate(85.515625 388.87823)scale(0.22 -0.22)">
       <use xlink:href="#DejaVuSans-30"/>
       <use xlink:href="#DejaVuSans-2e" x="63.623047"/>
       <use xlink:href="#DejaVuSans-31" x="95.410156"/>
       <use xlink:href="#DejaVuSans-34" x="159.033203"/>
      </g>
     </g>
    </g>
    <g id="ytick_5">
     <g id="line2d_14">
      <path d="M 144 324.750214 
L 1036.8 324.750214 
" clip-path="url(#p35b25e7ccb)" style="fill: none; stroke: #ffffff; stroke-linecap: round"/>
     </g>
     <g id="text_15">
      <!-- 0.16 -->
      <g style="fill: #262626" transform="translate(85.515625 333.108495)scale(0.22 -0.22)">
       <use xlink:href="#DejaVuSans-30"/>
       <use xlink:href="#DejaVuSans-2e" x="63.623047"/>
       <use xlink:href="#DejaVuSans-31" x="95.410156"/>
       <use xlink:href="#DejaVuSans-36" x="159.033203"/>
      </g>
     </g>
    </g>
    <g id="ytick_6">
     <g id="line2d_15">
      <path d="M 144 268.980479 
L 1036.8 268.980479 
" clip-path="url(#p35b25e7ccb)" style="fill: none; stroke: #ffffff; stroke-linecap: round"/>
     </g>
     <g id="text_16">
      <!-- 0.18 -->
      <g style="fill: #262626" transform="translate(85.515625 277.33876)scale(0.22 -0.22)">
       <use xlink:href="#DejaVuSans-30"/>
       <use xlink:href="#DejaVuSans-2e" x="63.623047"/>
       <use xlink:href="#DejaVuSans-31" x="95.410156"/>
       <use xlink:href="#DejaVuSans-38" x="159.033203"/>
      </g>
     </g>
    </g>
    <g id="ytick_7">
     <g id="line2d_16">
      <path d="M 144 213.210744 
L 1036.8 213.210744 
" clip-path="url(#p35b25e7ccb)" style="fill: none; stroke: #ffffff; stroke-linecap: round"/>
     </g>
     <g id="text_17">
      <!-- 0.20 -->
      <g style="fill: #262626" transform="translate(85.515625 221.569025)scale(0.22 -0.22)">
       <use xlink:href="#DejaVuSans-30"/>
       <use xlink:href="#DejaVuSans-2e" x="63.623047"/>
       <use xlink:href="#DejaVuSans-32" x="95.410156"/>
       <use xlink:href="#DejaVuSans-30" x="159.033203"/>
      </g>
     </g>
    </g>
    <g id="ytick_8">
     <g id="line2d_17">
      <path d="M 144 157.441009 
L 1036.8 157.441009 
" clip-path="url(#p35b25e7ccb)" style="fill: none; stroke: #ffffff; stroke-linecap: round"/>
     </g>
     <g id="text_18">
      <!-- 0.22 -->
      <g style="fill: #262626" transform="translate(85.515625 165.79929)scale(0.22 -0.22)">
       <use xlink:href="#DejaVuSans-30"/>
       <use xlink:href="#DejaVuSans-2e" x="63.623047"/>
       <use xlink:href="#DejaVuSans-32" x="95.410156"/>
       <use xlink:href="#DejaVuSans-32" x="159.033203"/>
      </g>
     </g>
    </g>
    <g id="ytick_9">
     <g id="line2d_18">
      <path d="M 144 101.671274 
L 1036.8 101.671274 
" clip-path="url(#p35b25e7ccb)" style="fill: none; stroke: #ffffff; stroke-linecap: round"/>
     </g>
     <g id="text_19">
      <!-- 0.24 -->
      <g style="fill: #262626" transform="translate(85.515625 110.029555)scale(0.22 -0.22)">
       <use xlink:href="#DejaVuSans-30"/>
       <use xlink:href="#DejaVuSans-2e" x="63.623047"/>
       <use xlink:href="#DejaVuSans-32" x="95.410156"/>
       <use xlink:href="#DejaVuSans-34" x="159.033203"/>
      </g>
     </g>
    </g>
    <g id="text_20">
     <!-- correct -->
     <g style="fill: #262626" transform="translate(76.524375 364.393125)rotate(-90)scale(0.24 -0.24)">
      <defs>
       <path id="DejaVuSans-72" d="M 2631 2963 
Q 2534 3019 2420 3045 
Q 2306 3072 2169 3072 
Q 1681 3072 1420 2755 
Q 1159 2438 1159 1844 
L 1159 0 
L 581 0 
L 581 3500 
L 1159 3500 
L 1159 2956 
Q 1341 3275 1631 3429 
Q 1922 3584 2338 3584 
Q 2397 3584 2469 3576 
Q 2541 3569 2628 3553 
L 2631 2963 
z
" transform="scale(0.015625)"/>
       <path id="DejaVuSans-74" d="M 1172 4494 
L 1172 3500 
L 2356 3500 
L 2356 3053 
L 1172 3053 
L 1172 1153 
Q 1172 725 1289 603 
Q 1406 481 1766 481 
L 2356 481 
L 2356 0 
L 1766 0 
Q 1100 0 847 248 
Q 594 497 594 1153 
L 594 3053 
L 172 3053 
L 172 3500 
L 594 3500 
L 594 4494 
L 1172 4494 
z
" transform="scale(0.015625)"/>
      </defs>
      <use xlink:href="#DejaVuSans-63"/>
      <use xlink:href="#DejaVuSans-6f" x="54.980469"/>
      <use xlink:href="#DejaVuSans-72" x="116.162109"/>
      <use xlink:href="#DejaVuSans-72" x="155.525391"/>
      <use xlink:href="#DejaVuSans-65" x="194.388672"/>
      <use xlink:href="#DejaVuSans-63" x="255.912109"/>
      <use xlink:href="#DejaVuSans-74" x="310.892578"/>
     </g>
    </g>
   </g>
   <g id="PolyCollection_1">
    <defs>
     <path id="m45e7313005" d="M 184.581818 -182.710054 
L 184.581818 -103.238182 
L 194.855696 -153.988641 
L 205.129574 -173.786897 
L 215.403452 -182.988903 
L 225.67733 -193.306304 
L 235.951208 -199.162126 
L 246.225086 -210.594922 
L 256.498964 -223.143112 
L 266.772842 -237.922092 
L 277.04672 -251.027979 
L 287.320598 -263.297321 
L 297.594476 -272.778176 
L 307.868354 -285.047518 
L 318.142232 -297.31686 
L 328.41611 -303.172682 
L 338.689988 -308.470806 
L 348.963867 -317.672813 
L 359.237745 -323.528635 
L 369.511623 -328.171465 
L 379.785501 -331.894095 
L 390.059379 -337.19222 
L 400.333257 -339.144161 
L 410.607135 -343.60574 
L 420.881013 -346.951924 
L 431.154891 -351.134654 
L 441.428769 -354.759687 
L 451.702647 -358.663568 
L 461.976525 -360.615509 
L 472.250403 -361.173206 
L 482.524281 -363.682844 
L 492.798159 -366.192482 
L 503.072037 -368.70212 
L 513.345915 -370.654061 
L 523.619793 -371.769456 
L 533.893671 -374.279094 
L 544.167549 -377.067581 
L 554.441427 -378.740673 
L 564.715305 -380.134916 
L 574.989183 -382.644554 
L 585.263061 -384.596495 
L 595.536939 -384.317646 
L 605.810817 -385.711889 
L 616.084695 -385.433041 
L 626.358573 -386.827284 
L 636.632451 -388.500376 
L 646.906329 -389.89462 
L 657.180207 -391.567712 
L 667.454085 -391.567712 
L 677.727963 -392.404258 
L 688.001841 -393.519652 
L 698.275719 -394.356198 
L 708.549597 -396.02929 
L 718.823475 -397.423534 
L 729.097353 -399.096626 
L 739.371231 -399.933172 
L 749.645109 -399.375474 
L 759.918987 -398.817777 
L 770.192865 -399.375474 
L 780.466743 -400.490869 
L 790.740621 -402.163961 
L 801.014499 -403.837053 
L 811.288377 -406.067843 
L 821.562255 -406.904389 
L 831.836133 -407.740935 
L 842.110012 -407.462086 
L 852.38389 -406.346691 
L 862.657768 -409.135178 
L 872.931646 -410.80827 
L 883.205524 -413.317908 
L 893.479402 -414.712152 
L 903.75328 -415.548698 
L 914.027158 -414.433303 
L 924.301036 -414.154454 
L 934.574914 -414.991 
L 944.848792 -415.548698 
L 955.12267 -416.106395 
L 965.396548 -418.337184 
L 975.670426 -432.930265 
L 985.944304 -418.616033 
L 996.218182 -418.616033 
L 996.218182 -477.174255 
L 996.218182 -477.174255 
L 985.944304 -475.222314 
L 975.670426 -475.780011 
L 965.396548 -475.501163 
L 955.12267 -474.943465 
L 944.848792 -472.991525 
L 934.574914 -472.991525 
L 924.301036 -473.270373 
L 914.027158 -473.549222 
L 903.75328 -470.760735 
L 893.479402 -470.203038 
L 883.205524 -471.318433 
L 872.931646 -470.760735 
L 862.657768 -471.039584 
L 852.38389 -470.760735 
L 842.110012 -471.87613 
L 831.836133 -472.712676 
L 821.562255 -472.154979 
L 811.288377 -471.87613 
L 801.014499 -472.433827 
L 790.740621 -472.991525 
L 780.466743 -473.828071 
L 770.192865 -472.712676 
L 759.918987 -471.597281 
L 749.645109 -470.203038 
L 739.371231 -469.645341 
L 729.097353 -468.529946 
L 718.823475 -467.972249 
L 708.549597 -468.529946 
L 698.275719 -468.529946 
L 688.001841 -467.6934 
L 677.727963 -469.924189 
L 667.454085 -470.481887 
L 657.180207 -469.645341 
L 646.906329 -468.808795 
L 636.632451 -469.645341 
L 626.358573 -469.924189 
L 616.084695 -467.972249 
L 605.810817 -466.578005 
L 595.536939 -462.952972 
L 585.263061 -461.27988 
L 574.989183 -461.001032 
L 564.715305 -459.606788 
L 554.441427 -457.09715 
L 544.167549 -458.212545 
L 533.893671 -454.029815 
L 523.619793 -453.472117 
L 513.345915 -451.799025 
L 503.072037 -450.404782 
L 492.798159 -448.173993 
L 482.524281 -446.779749 
L 472.250403 -444.54896 
L 461.976525 -442.039322 
L 451.702647 -439.250835 
L 441.428769 -435.625802 
L 431.154891 -433.95271 
L 420.881013 -431.164223 
L 410.607135 -429.491131 
L 400.333257 -427.818039 
L 390.059379 -422.241066 
L 379.785501 -422.519915 
L 369.511623 -419.17373 
L 359.237745 -408.577481 
L 348.963867 -404.394751 
L 338.689988 -396.865836 
L 328.41611 -387.106133 
L 318.142232 -379.856067 
L 307.868354 -369.817515 
L 297.594476 -364.798239 
L 287.320598 -358.384719 
L 277.04672 -350.855805 
L 266.772842 -335.240279 
L 256.498964 -322.970938 
L 246.225086 -306.518866 
L 235.951208 -284.48982 
L 225.67733 -266.922354 
L 215.403452 -245.172157 
L 205.129574 -217.28729 
L 194.855696 -202.50831 
L 184.581818 -182.710054 
z
" style="stroke: #edd1cb; stroke-opacity: 0.2"/>
    </defs>
    <g clip-path="url(#p35b25e7ccb)">
     <use xlink:href="#m45e7313005" x="0" y="648" style="fill: #edd1cb; fill-opacity: 0.2; stroke: #edd1cb; stroke-opacity: 0.2"/>
    </g>
   </g>
   <g id="PolyCollection_2">
    <defs>
     <path id="m323955147b" d="M 184.581818 -182.710054 
L 184.581818 -103.238182 
L 194.855696 -168.488772 
L 205.129574 -181.594659 
L 215.403452 -209.479527 
L 225.67733 -240.152881 
L 235.951208 -265.249262 
L 246.225086 -280.864788 
L 256.498964 -302.614984 
L 266.772842 -316.836267 
L 277.04672 -328.631566 
L 287.320598 -337.471069 
L 297.594476 -342.211496 
L 307.868354 -350.855805 
L 318.142232 -359.221265 
L 328.41611 -363.125147 
L 338.689988 -367.029028 
L 348.963867 -370.654061 
L 359.237745 -373.721396 
L 369.511623 -377.346429 
L 379.785501 -380.971462 
L 390.059379 -384.038797 
L 400.333257 -385.990738 
L 410.607135 -388.221528 
L 420.881013 -392.961955 
L 431.154891 -394.635047 
L 441.428769 -395.471593 
L 451.702647 -396.02929 
L 461.976525 -399.654323 
L 472.250403 -400.769718 
L 482.524281 -401.327415 
L 492.798159 -403.558205 
L 503.072037 -404.952448 
L 513.345915 -405.231297 
L 523.619793 -408.856329 
L 533.893671 -410.529421 
L 544.167549 -414.154454 
L 554.441427 -415.548698 
L 564.715305 -416.664092 
L 574.989183 -418.058336 
L 585.263061 -420.289125 
L 595.536939 -420.010276 
L 605.810817 -422.519915 
L 616.084695 -424.471855 
L 626.358573 -425.58725 
L 636.632451 -428.933434 
L 646.906329 -432.558467 
L 657.180207 -433.116164 
L 667.454085 -435.068105 
L 677.727963 -434.510408 
L 688.001841 -435.346954 
L 698.275719 -450.146847 
L 708.549597 -437.856592 
L 718.823475 -437.856592 
L 729.097353 -440.087381 
L 739.371231 -440.087381 
L 749.645109 -442.31817 
L 759.918987 -443.433565 
L 770.192865 -445.385506 
L 780.466743 -446.779749 
L 790.740621 -447.058598 
L 801.014499 -447.337447 
L 811.288377 -448.173993 
L 821.562255 -449.289387 
L 831.836133 -450.404782 
L 842.110012 -448.73169 
L 852.38389 -448.173993 
L 862.657768 -461.465779 
L 872.931646 -447.895144 
L 883.205524 -449.010539 
L 893.479402 -449.289387 
L 903.75328 -448.173993 
L 914.027158 -462.674124 
L 924.301036 -449.010539 
L 934.574914 -449.289387 
L 944.848792 -449.568236 
L 955.12267 -449.568236 
L 965.396548 -450.962479 
L 975.670426 -452.91442 
L 985.944304 -453.193269 
L 996.218182 -453.750966 
L 996.218182 -503.664879 
L 996.218182 -503.664879 
L 985.944304 -503.107182 
L 975.670426 -501.434089 
L 965.396548 -500.597543 
L 955.12267 -500.876392 
L 944.848792 -499.482149 
L 934.574914 -496.321864 
L 924.301036 -498.087905 
L 914.027158 -496.693662 
L 903.75328 -495.857116 
L 893.479402 -493.905175 
L 883.205524 -492.789781 
L 872.931646 -491.395537 
L 862.657768 -491.116689 
L 852.38389 -490.83784 
L 842.110012 -489.164748 
L 831.836133 -487.770504 
L 821.562255 -487.770504 
L 811.288377 -486.097412 
L 801.014499 -484.982018 
L 790.740621 -485.539715 
L 780.466743 -485.260866 
L 770.192865 -484.982018 
L 759.918987 -483.308926 
L 749.645109 -482.193531 
L 739.371231 -481.914682 
L 729.097353 -483.587774 
L 718.823475 -483.030077 
L 708.549597 -483.308926 
L 698.275719 -483.308926 
L 688.001841 -482.47238 
L 677.727963 -484.42432 
L 667.454085 -483.866623 
L 657.180207 -483.866623 
L 646.906329 -483.308926 
L 636.632451 -481.356985 
L 626.358573 -481.356985 
L 616.084695 -480.799288 
L 605.810817 -478.568498 
L 595.536939 -477.174255 
L 585.263061 -475.222314 
L 574.989183 -474.106919 
L 564.715305 -474.664617 
L 554.441427 -473.549222 
L 544.167549 -472.154979 
L 533.893671 -472.433827 
L 523.619793 -473.549222 
L 513.345915 -474.106919 
L 503.072037 -472.433827 
L 492.798159 -474.664617 
L 482.524281 -474.943465 
L 472.250403 -473.828071 
L 461.976525 -471.87613 
L 451.702647 -470.203038 
L 441.428769 -470.203038 
L 431.154891 -470.760735 
L 420.881013 -469.645341 
L 410.607135 -471.597281 
L 400.333257 -468.808795 
L 390.059379 -463.789518 
L 379.785501 -461.001032 
L 369.511623 -459.606788 
L 359.237745 -456.539453 
L 348.963867 -451.799025 
L 338.689988 -450.125933 
L 328.41611 -444.827808 
L 318.142232 -440.645078 
L 307.868354 -436.1835 
L 297.594476 -430.885375 
L 287.320598 -422.519915 
L 277.04672 -419.17373 
L 266.772842 -405.231297 
L 256.498964 -385.990738 
L 246.225086 -372.048304 
L 235.951208 -360.894357 
L 225.67733 -340.538404 
L 215.403452 -305.124622 
L 205.129574 -264.226817 
L 194.855696 -236.806697 
L 184.581818 -182.710054 
z
" style="stroke: #e9c6c2; stroke-opacity: 0.2"/>
    </defs>
    <g clip-path="url(#p35b25e7ccb)">
     <use xlink:href="#m323955147b" x="0" y="648" style="fill: #e9c6c2; fill-opacity: 0.2; stroke: #e9c6c2; stroke-opacity: 0.2"/>
    </g>
   </g>
   <g id="PolyCollection_3">
    <defs>
     <path id="m9e3e43eb49" d="M 184.581818 -182.710054 
L 184.581818 -103.238182 
L 194.855696 -166.81568 
L 205.129574 -231.229724 
L 215.403452 -194.700547 
L 225.67733 -217.008441 
L 235.951208 -249.912585 
L 246.225086 -176.296535 
L 256.498964 -291.182189 
L 266.772842 -290.066794 
L 277.04672 -350.576956 
L 287.320598 -281.422485 
L 297.594476 -271.94163 
L 307.868354 -342.211496 
L 318.142232 -322.970938 
L 328.41611 -283.374426 
L 338.689988 -310.143899 
L 348.963867 -301.778438 
L 359.237745 -266.085808 
L 369.511623 -263.669119 
L 379.785501 -321.576694 
L 390.059379 -338.028766 
L 400.333257 -420.010276 
L 410.607135 -366.471331 
L 420.881013 -351.9712 
L 431.154891 -404.394751 
L 441.428769 -333.00949 
L 451.702647 -372.606002 
L 461.976525 -423.635309 
L 472.250403 -382.086857 
L 482.524281 -430.048829 
L 492.798159 -428.933434 
L 503.072037 -456.818302 
L 513.345915 -451.241328 
L 523.619793 -433.673861 
L 533.893671 -394.635047 
L 544.167549 -316.557418 
L 554.441427 -425.029553 
L 564.715305 -431.443072 
L 574.989183 -464.626064 
L 585.263061 -468.808795 
L 595.536939 -488.60705 
L 605.810817 -481.078136 
L 616.084695 -488.60705 
L 626.358573 -476.05886 
L 636.632451 -484.982018 
L 646.906329 -478.289649 
L 657.180207 -487.212807 
L 667.454085 -484.982018 
L 677.727963 -493.347478 
L 688.001841 -489.443596 
L 698.275719 -502.270636 
L 708.549597 -497.251359 
L 718.823475 -505.337971 
L 729.097353 -498.645603 
L 739.371231 -504.222576 
L 749.645109 -503.38603 
L 759.918987 -502.270636 
L 770.192865 -504.222576 
L 780.466743 -503.107182 
L 790.740621 -504.501425 
L 801.014499 -503.107182 
L 811.288377 -503.664879 
L 821.562255 -503.664879 
L 831.836133 -503.943728 
L 842.110012 -505.059122 
L 852.38389 -505.61682 
L 862.657768 -505.61682 
L 872.931646 -505.895668 
L 883.205524 -508.126458 
L 893.479402 -508.126458 
L 903.75328 -507.56876 
L 914.027158 -508.684155 
L 924.301036 -507.847609 
L 934.574914 -508.126458 
L 944.848792 -507.011063 
L 955.12267 -507.56876 
L 965.396548 -507.847609 
L 975.670426 -508.126458 
L 985.944304 -507.56876 
L 996.218182 -507.011063 
L 996.218182 -541.30945 
L 996.218182 -541.30945 
L 985.944304 -540.751753 
L 975.670426 -541.030601 
L 965.396548 -539.915207 
L 955.12267 -538.799812 
L 944.848792 -539.357509 
L 934.574914 -539.915207 
L 924.301036 -540.194055 
L 914.027158 -541.588299 
L 903.75328 -540.751753 
L 893.479402 -538.520963 
L 883.205524 -542.145996 
L 872.931646 -542.424845 
L 862.657768 -542.703693 
L 852.38389 -541.867147 
L 842.110012 -542.424845 
L 831.836133 -540.751753 
L 821.562255 -541.867147 
L 811.288377 -541.867147 
L 801.014499 -541.30945 
L 790.740621 -540.194055 
L 780.466743 -540.194055 
L 770.192865 -540.472904 
L 759.918987 -540.194055 
L 749.645109 -540.194055 
L 739.371231 -540.194055 
L 729.097353 -541.867147 
L 718.823475 -542.145996 
L 708.549597 -538.242115 
L 698.275719 -543.819088 
L 688.001841 -536.847871 
L 677.727963 -542.424845 
L 667.454085 -542.145996 
L 657.180207 -544.097937 
L 646.906329 -540.751753 
L 636.632451 -541.30945 
L 626.358573 -538.520963 
L 616.084695 -518.16501 
L 605.810817 -546.328726 
L 595.536939 -503.943728 
L 585.263061 -537.12672 
L 574.989183 -506.732214 
L 564.715305 -535.453628 
L 554.441427 -447.895144 
L 544.167549 -505.059122 
L 533.893671 -438.693138 
L 523.619793 -470.481887 
L 513.345915 -483.308926 
L 503.072037 -476.05886 
L 492.798159 -485.260866 
L 482.524281 -471.87613 
L 472.250403 -455.145209 
L 461.976525 -464.904913 
L 451.702647 -385.460926 
L 441.428769 -424.471855 
L 431.154891 -425.308401 
L 420.881013 -427.260342 
L 410.607135 -472.154979 
L 400.333257 -437.577743 
L 390.059379 -425.029553 
L 379.785501 -410.250573 
L 369.511623 -341.096101 
L 359.237745 -373.721396 
L 348.963867 -399.933172 
L 338.689988 -439.529684 
L 328.41611 -423.914158 
L 318.142232 -367.865574 
L 307.868354 -348.067318 
L 297.594476 -375.673337 
L 287.320598 -356.990476 
L 277.04672 -374.557942 
L 266.772842 -377.904127 
L 256.498964 -345.836529 
L 246.225086 -398.26008 
L 235.951208 -305.68232 
L 225.67733 -343.326891 
L 215.403452 -314.326629 
L 205.129574 -302.336136 
L 194.855696 -230.393178 
L 184.581818 -182.710054 
z
" style="stroke: #af6c91; stroke-opacity: 0.2"/>
    </defs>
    <g clip-path="url(#p35b25e7ccb)">
     <use xlink:href="#m9e3e43eb49" x="0" y="648" style="fill: #af6c91; fill-opacity: 0.2; stroke: #af6c91; stroke-opacity: 0.2"/>
    </g>
   </g>
   <g id="PolyCollection_4">
    <defs>
     <path id="md831e1effe" d="M 184.581818 -182.710054 
L 184.581818 -103.238182 
L 194.855696 -163.469496 
L 205.129574 -159.007917 
L 215.403452 -186.056238 
L 225.67733 -188.844725 
L 235.951208 -172.950351 
L 246.225086 -191.633212 
L 256.498964 -153.152095 
L 266.772842 -171.277258 
L 277.04672 -234.854756 
L 287.320598 -289.787945 
L 297.594476 -248.239493 
L 307.868354 -261.34538 
L 318.142232 -262.739624 
L 328.41611 -239.316335 
L 338.689988 -177.690778 
L 348.963867 -199.719823 
L 359.237745 -226.210447 
L 369.511623 -164.027193 
L 379.785501 -231.229724 
L 390.059379 -206.969889 
L 400.333257 -173.786897 
L 410.607135 -237.364394 
L 420.881013 -291.182189 
L 431.154891 -226.210447 
L 441.428769 -245.172157 
L 451.702647 -335.240279 
L 461.976525 -365.355936 
L 472.250403 -358.942417 
L 482.524281 -243.499065 
L 492.798159 -235.691302 
L 503.072037 -250.470282 
L 513.345915 -297.874557 
L 523.619793 -304.288076 
L 533.893671 -291.739886 
L 544.167549 -322.134392 
L 554.441427 -363.403995 
L 564.715305 -304.845774 
L 574.989183 -392.404258 
L 585.263061 -269.989689 
L 595.536939 -227.883539 
L 605.810817 -275.566663 
L 616.084695 -293.134129 
L 626.358573 -254.374164 
L 636.632451 -328.82676 
L 646.906329 -255.489558 
L 657.180207 -279.749393 
L 667.454085 -329.384457 
L 677.727963 -360.894357 
L 688.001841 -296.759162 
L 698.275719 -251.864526 
L 708.549597 -330.221003 
L 718.823475 -293.970675 
L 729.097353 -322.970938 
L 739.371231 -399.654323 
L 749.645109 -458.491394 
L 759.918987 -427.818039 
L 770.192865 -406.62554 
L 780.466743 -435.346954 
L 790.740621 -440.36623 
L 801.014499 -441.202776 
L 811.288377 -432.279618 
L 821.562255 -415.269849 
L 831.836133 -450.404782 
L 842.110012 -485.260866 
L 852.38389 -481.635834 
L 862.657768 -497.251359 
L 872.931646 -475.222314 
L 883.205524 -457.09715 
L 893.479402 -426.144947 
L 903.75328 -453.750966 
L 914.027158 -505.059122 
L 924.301036 -486.097412 
L 934.574914 -520.395799 
L 944.848792 -521.511194 
L 955.12267 -521.232345 
L 965.396548 -521.790043 
L 975.670426 -522.626589 
L 985.944304 -522.34774 
L 996.218182 -520.953497 
L 996.218182 -546.886423 
L 996.218182 -546.886423 
L 985.944304 -546.328726 
L 975.670426 -548.001818 
L 965.396548 -547.165272 
L 955.12267 -546.049877 
L 944.848792 -542.145996 
L 934.574914 -541.867147 
L 924.301036 -520.953497 
L 914.027158 -519.838102 
L 903.75328 -522.34774 
L 893.479402 -519.001556 
L 883.205524 -519.001556 
L 872.931646 -514.818826 
L 862.657768 -510.914944 
L 852.38389 -507.289912 
L 842.110012 -507.289912 
L 831.836133 -513.703431 
L 821.562255 -501.155241 
L 811.288377 -498.366754 
L 801.014499 -493.626327 
L 790.740621 -480.799288 
L 780.466743 -469.924189 
L 770.192865 -436.1835 
L 759.918987 -471.597281 
L 749.645109 -509.520701 
L 739.371231 -474.385768 
L 729.097353 -437.298894 
L 718.823475 -398.538928 
L 708.549597 -461.001032 
L 698.275719 -404.673599 
L 688.001841 -403.558205 
L 677.727963 -417.500638 
L 667.454085 -367.586726 
L 657.180207 -450.962479 
L 646.906329 -428.096888 
L 636.632451 -441.202776 
L 626.358573 -383.759949 
L 616.084695 -418.616033 
L 605.810817 -436.741197 
L 595.536939 -469.087643 
L 585.263061 -392.578538 
L 574.989183 -417.22179 
L 564.715305 -361.173206 
L 554.441427 -377.346429 
L 544.167549 -365.077087 
L 533.893671 -457.375999 
L 523.619793 -363.125147 
L 513.345915 -389.615771 
L 503.072037 -306.797714 
L 492.798159 -355.038535 
L 482.524281 -347.78847 
L 472.250403 -406.904389 
L 461.976525 -408.577481 
L 451.702647 -356.990476 
L 441.428769 -410.250573 
L 431.154891 -356.990476 
L 420.881013 -315.999721 
L 410.607135 -257.16265 
L 400.333257 -240.989427 
L 390.059379 -309.028504 
L 379.785501 -333.567187 
L 369.511623 -292.297583 
L 359.237745 -376.231034 
L 348.963867 -265.249262 
L 338.689988 -340.259555 
L 328.41611 -289.230248 
L 318.142232 -392.404258 
L 307.868354 -341.932647 
L 297.594476 -403.000507 
L 287.320598 -356.15393 
L 277.04672 -277.239755 
L 266.772842 -254.095315 
L 256.498964 -271.662781 
L 246.225086 -300.663044 
L 235.951208 -255.21071 
L 225.67733 -280.864788 
L 215.403452 -267.7589 
L 205.129574 -217.844987 
L 194.855696 -223.421961 
L 184.581818 -182.710054 
z
" style="stroke: #2d1e3e; stroke-opacity: 0.2"/>
    </defs>
    <g clip-path="url(#p35b25e7ccb)">
     <use xlink:href="#md831e1effe" x="0" y="648" style="fill: #2d1e3e; fill-opacity: 0.2; stroke: #2d1e3e; stroke-opacity: 0.2"/>
    </g>
   </g>
   <g id="line2d_19">
    <path d="M 184.581818 496.149199 
L 194.855696 473.004759 
L 205.129574 447.908378 
L 215.403452 426.065232 
L 225.67733 411.286252 
L 235.951208 399.574608 
L 246.225086 386.65462 
L 256.498964 376.337219 
L 266.772842 366.112767 
L 277.04672 353.657526 
L 287.320598 344.920268 
L 297.594476 338.506748 
L 307.868354 330.327187 
L 318.142232 321.961727 
L 328.41611 316.756552 
L 338.689988 308.76289 
L 348.963867 300.955127 
L 359.237745 296.12175 
L 369.511623 289.429382 
L 379.785501 285.246651 
L 390.059379 282.365215 
L 400.333257 277.810687 
L 410.607135 274.185654 
L 420.881013 271.768966 
L 431.154891 268.236882 
L 441.428769 264.147102 
L 451.702647 260.24322 
L 461.976525 258.29128 
L 472.250403 256.989986 
L 482.524281 254.852146 
L 492.798159 252.435457 
L 503.072037 248.531576 
L 513.345915 247.230282 
L 523.619793 245.464241 
L 533.893671 243.791148 
L 544.167549 240.073166 
L 554.441427 239.32957 
L 564.715305 235.239789 
L 574.989183 233.101949 
L 585.263061 231.335908 
L 595.536939 229.755765 
L 605.810817 226.68843 
L 616.084695 225.851884 
L 626.358573 224.178792 
L 636.632451 223.063397 
L 646.906329 221.297355 
L 657.180207 220.553759 
L 667.454085 219.624263 
L 677.727963 219.717213 
L 688.001841 220.181961 
L 698.275719 218.32297 
L 708.549597 216.928726 
L 718.823475 215.813331 
L 729.097353 214.604987 
L 739.371231 213.489592 
L 749.645109 213.024845 
L 759.918987 211.351753 
L 770.192865 210.515207 
L 780.466743 208.935064 
L 790.740621 207.912619 
L 801.014499 207.819669 
L 811.288377 206.983123 
L 821.562255 206.332476 
L 831.836133 205.867729 
L 842.110012 205.49593 
L 852.38389 206.518376 
L 862.657768 204.845284 
L 872.931646 203.54399 
L 883.205524 202.056797 
L 893.479402 201.499099 
L 903.75328 200.569604 
L 914.027158 200.104856 
L 924.301036 199.733058 
L 934.574914 199.547159 
L 944.848792 199.547159 
L 955.12267 198.059966 
L 965.396548 196.200975 
L 975.670426 195.829176 
L 985.944304 196.015076 
L 996.218182 195.178529 
" clip-path="url(#p35b25e7ccb)" style="fill: none; stroke: #edd1cb; stroke-width: 1.5; stroke-linecap: round"/>
   </g>
   <g id="line2d_20">
    <path d="M 184.581818 496.149199 
L 194.855696 435.639037 
L 205.129574 412.773445 
L 215.403452 387.955913 
L 225.67733 362.952482 
L 235.951208 342.596529 
L 246.225086 330.327187 
L 256.498964 317.314249 
L 266.772842 301.512824 
L 277.04672 289.057583 
L 287.320598 281.993417 
L 297.594476 273.999755 
L 307.868354 268.422781 
L 318.142232 260.800918 
L 328.41611 255.688692 
L 338.689988 250.855315 
L 348.963867 247.60208 
L 359.237745 243.047552 
L 369.511623 239.143671 
L 379.785501 234.217344 
L 390.059379 229.941664 
L 400.333257 225.387136 
L 410.607135 221.483254 
L 420.881013 219.996062 
L 431.154891 218.32297 
L 441.428769 217.858222 
L 451.702647 215.720382 
L 461.976525 213.489592 
L 472.250403 210.608156 
L 482.524281 208.470316 
L 492.798159 207.169023 
L 503.072037 206.425426 
L 513.345915 204.752334 
L 523.619793 203.172192 
L 533.893671 201.777948 
L 544.167549 200.476654 
L 554.441427 199.082411 
L 564.715305 197.502268 
L 574.989183 196.479823 
L 585.263061 194.899681 
L 595.536939 193.598387 
L 605.810817 192.668891 
L 616.084695 191.367598 
L 626.358573 189.694506 
L 636.632451 187.184867 
L 646.906329 184.303431 
L 657.180207 183.373936 
L 667.454085 182.816238 
L 677.727963 182.630339 
L 688.001841 182.630339 
L 698.275719 181.886743 
L 708.549597 181.050197 
L 718.823475 180.678398 
L 729.097353 179.841852 
L 739.371231 180.678398 
L 749.645109 179.748903 
L 759.918987 178.447609 
L 770.192865 176.588618 
L 780.466743 175.752072 
L 790.740621 175.473223 
L 801.014499 175.752072 
L 811.288377 174.915526 
L 821.562255 173.521282 
L 831.836133 172.963585 
L 842.110012 172.684736 
L 852.38389 171.84819 
L 862.657768 171.755241 
L 872.931646 171.197543 
L 883.205524 170.453947 
L 893.479402 170.360997 
L 903.75328 169.710351 
L 914.027158 169.245603 
L 924.301036 169.059704 
L 934.574914 168.223158 
L 944.848792 168.223158 
L 955.12267 167.851359 
L 965.396548 167.200712 
L 975.670426 166.178267 
L 985.944304 165.248772 
L 996.218182 164.319276 
" clip-path="url(#p35b25e7ccb)" style="fill: none; stroke: #e9c6c2; stroke-width: 1.5; stroke-linecap: round"/>
   </g>
   <g id="line2d_21">
    <path d="M 184.581818 496.149199 
L 194.855696 456.180889 
L 205.129574 391.209148 
L 215.403452 378.19621 
L 225.67733 372.340388 
L 235.951208 373.083984 
L 246.225086 369.180103 
L 256.498964 329.76949 
L 266.772842 326.702154 
L 277.04672 283.015862 
L 287.320598 319.080291 
L 297.594476 316.012955 
L 307.868354 301.977572 
L 318.142232 309.971234 
L 328.41611 304.58016 
L 338.689988 282.458165 
L 348.963867 289.70823 
L 359.237745 321.589929 
L 369.511623 352.82098 
L 379.785501 269.817025 
L 390.059379 255.502793 
L 400.333257 220.646708 
L 410.607135 238.028276 
L 420.881013 269.724075 
L 431.154891 233.380798 
L 441.428769 256.804087 
L 451.702647 268.515731 
L 461.976525 208.470316 
L 472.250403 218.508869 
L 482.524281 192.854791 
L 492.798159 189.880405 
L 503.072037 180.39955 
L 513.345915 185.883574 
L 523.619793 191.088749 
L 533.893671 236.355184 
L 544.167549 216.371029 
L 554.441427 209.306862 
L 564.715305 169.431502 
L 574.989183 168.780855 
L 585.263061 151.956985 
L 595.536939 151.399288 
L 605.810817 139.129946 
L 616.084695 140.617139 
L 626.358573 139.501744 
L 636.632451 132.716426 
L 646.906329 134.01772 
L 657.180207 129.92794 
L 667.454085 128.626646 
L 677.727963 126.953554 
L 688.001841 127.883049 
L 698.275719 122.213126 
L 708.549597 125.001613 
L 718.823475 120.632984 
L 729.097353 123.328521 
L 739.371231 122.027227 
L 749.645109 122.399025 
L 759.918987 122.213126 
L 770.192865 121.655429 
L 780.466743 122.770824 
L 790.740621 121.841328 
L 801.014499 122.120177 
L 811.288377 122.027227 
L 821.562255 122.120177 
L 831.836133 122.120177 
L 842.110012 121.46953 
L 852.38389 121.46953 
L 862.657768 121.46953 
L 872.931646 121.562479 
L 883.205524 120.540034 
L 893.479402 120.632984 
L 903.75328 120.725933 
L 914.027158 120.168236 
L 924.301036 121.004782 
L 934.574914 120.911832 
L 944.848792 121.562479 
L 955.12267 121.841328 
L 965.396548 121.562479 
L 975.670426 121.190681 
L 985.944304 121.190681 
L 996.218182 121.097732 
" clip-path="url(#p35b25e7ccb)" style="fill: none; stroke: #af6c91; stroke-width: 1.5; stroke-linecap: round"/>
   </g>
   <g id="line2d_22">
    <path d="M 184.581818 496.149199 
L 194.855696 451.81226 
L 205.129574 463.616854 
L 215.403452 416.305529 
L 225.67733 404.593884 
L 235.951208 437.312129 
L 246.225086 390.651451 
L 256.498964 418.350419 
L 266.772842 441.401909 
L 277.04672 387.305266 
L 287.320598 331.442582 
L 297.594476 320.753383 
L 307.868354 354.679972 
L 318.142232 329.397692 
L 328.41611 391.116198 
L 338.689988 402.177196 
L 348.963867 418.536318 
L 359.237745 362.022987 
L 369.511623 406.452875 
L 379.785501 350.311342 
L 390.059379 395.577777 
L 400.333257 435.081339 
L 410.607135 397.529718 
L 420.881013 348.452351 
L 431.154891 360.628743 
L 441.428769 319.452089 
L 451.702647 301.884622 
L 461.976525 258.756027 
L 472.250403 268.515731 
L 482.524281 360.256945 
L 492.798159 362.673634 
L 503.072037 372.247438 
L 513.345915 293.98391 
L 523.619793 305.695554 
L 533.893671 299.746783 
L 544.167549 298.910237 
L 554.441427 278.647233 
L 564.715305 312.573822 
L 574.989183 244.813594 
L 585.263061 300.025631 
L 595.536939 297.330094 
L 605.810817 292.310818 
L 616.084695 278.089535 
L 626.358573 315.455258 
L 636.632451 281.528669 
L 646.906329 302.44232 
L 657.180207 310.621881 
L 667.454085 304.115412 
L 677.727963 261.451565 
L 688.001841 283.294711 
L 698.275719 303.371815 
L 708.549597 258.012431 
L 718.823475 295.564052 
L 729.097353 249.089273 
L 739.371231 206.797224 
L 749.645109 158.928202 
L 759.918987 194.806731 
L 770.192865 227.060228 
L 780.466743 197.22342 
L 790.740621 190.995799 
L 801.014499 181.143146 
L 811.288377 186.998968 
L 821.562255 194.341983 
L 831.836133 172.034089 
L 842.110012 151.585187 
L 852.38389 154.094825 
L 862.657768 144.706919 
L 872.931646 147.960154 
L 883.205524 169.524451 
L 893.479402 166.271217 
L 903.75328 168.873805 
L 914.027158 135.040165 
L 924.301036 139.594694 
L 934.574914 115.14896 
L 944.848792 117.2868 
L 955.12267 113.10407 
L 965.396548 111.709826 
L 975.670426 111.152129 
L 985.944304 112.546372 
L 996.218182 113.10407 
" clip-path="url(#p35b25e7ccb)" style="fill: none; stroke: #2d1e3e; stroke-width: 1.5; stroke-linecap: round"/>
   </g>
   <g id="line2d_23"/>
   <g id="line2d_24"/>
   <g id="line2d_25"/>
   <g id="line2d_26"/>
   <g id="patch_3">
    <path d="M 144 567 
L 144 77.76 
" style="fill: none; stroke: #ffffff; stroke-width: 1.25; stroke-linejoin: miter; stroke-linecap: square"/>
   </g>
   <g id="patch_4">
    <path d="M 1036.8 567 
L 1036.8 77.76 
" style="fill: none; stroke: #ffffff; stroke-width: 1.25; stroke-linejoin: miter; stroke-linecap: square"/>
   </g>
   <g id="patch_5">
    <path d="M 144 567 
L 1036.8 567 
" style="fill: none; stroke: #ffffff; stroke-width: 1.25; stroke-linejoin: miter; stroke-linecap: square"/>
   </g>
   <g id="patch_6">
    <path d="M 144 77.76 
L 1036.8 77.76 
" style="fill: none; stroke: #ffffff; stroke-width: 1.25; stroke-linejoin: miter; stroke-linecap: square"/>
   </g>
   <g id="legend_1">
    <g id="patch_7">
     <path d="M 159.4 258.755 
L 306.779375 258.755 
Q 311.179375 258.755 311.179375 254.355 
L 311.179375 93.16 
Q 311.179375 88.76 306.779375 88.76 
L 159.4 88.76 
Q 155 88.76 155 93.16 
L 155 254.355 
Q 155 258.755 159.4 258.755 
z
" style="fill: #eaeaf2; opacity: 0.8; stroke: #cccccc; stroke-linejoin: miter"/>
    </g>
    <g id="text_21">
     <!-- lr -->
     <g style="fill: #262626" transform="translate(224.822812 115.79625)scale(0.24 -0.24)">
      <defs>
       <path id="DejaVuSans-6c" d="M 603 4863 
L 1178 4863 
L 1178 0 
L 603 0 
L 603 4863 
z
" transform="scale(0.015625)"/>
      </defs>
      <use xlink:href="#DejaVuSans-6c"/>
      <use xlink:href="#DejaVuSans-72" x="27.783203"/>
     </g>
    </g>
    <g id="line2d_27">
     <path d="M 163.8 140.804062 
L 185.8 140.804062 
L 207.8 140.804062 
" style="fill: none; stroke: #edd1cb; stroke-width: 1.5; stroke-linecap: round"/>
    </g>
    <g id="text_22">
     <!-- 0.0005 -->
     <g style="fill: #262626" transform="translate(225.4 148.504062)scale(0.22 -0.22)">
      <use xlink:href="#DejaVuSans-30"/>
      <use xlink:href="#DejaVuSans-2e" x="63.623047"/>
      <use xlink:href="#DejaVuSans-30" x="95.410156"/>
      <use xlink:href="#DejaVuSans-30" x="159.033203"/>
      <use xlink:href="#DejaVuSans-30" x="222.65625"/>
      <use xlink:href="#DejaVuSans-35" x="286.279297"/>
     </g>
    </g>
    <g id="line2d_28">
     <path d="M 163.8 173.095937 
L 185.8 173.095937 
L 207.8 173.095937 
" style="fill: none; stroke: #e9c6c2; stroke-width: 1.5; stroke-linecap: round"/>
    </g>
    <g id="text_23">
     <!-- 0.001 -->
     <g style="fill: #262626" transform="translate(225.4 180.795937)scale(0.22 -0.22)">
      <use xlink:href="#DejaVuSans-30"/>
      <use xlink:href="#DejaVuSans-2e" x="63.623047"/>
      <use xlink:href="#DejaVuSans-30" x="95.410156"/>
      <use xlink:href="#DejaVuSans-30" x="159.033203"/>
      <use xlink:href="#DejaVuSans-31" x="222.65625"/>
     </g>
    </g>
    <g id="line2d_29">
     <path d="M 163.8 205.387812 
L 185.8 205.387812 
L 207.8 205.387812 
" style="fill: none; stroke: #af6c91; stroke-width: 1.5; stroke-linecap: round"/>
    </g>
    <g id="text_24">
     <!-- 0.005 -->
     <g style="fill: #262626" transform="translate(225.4 213.087812)scale(0.22 -0.22)">
      <use xlink:href="#DejaVuSans-30"/>
      <use xlink:href="#DejaVuSans-2e" x="63.623047"/>
      <use xlink:href="#DejaVuSans-30" x="95.410156"/>
      <use xlink:href="#DejaVuSans-30" x="159.033203"/>
      <use xlink:href="#DejaVuSans-35" x="222.65625"/>
     </g>
    </g>
    <g id="line2d_30">
     <path d="M 163.8 237.679688 
L 185.8 237.679688 
L 207.8 237.679688 
" style="fill: none; stroke: #2d1e3e; stroke-width: 1.5; stroke-linecap: round"/>
    </g>
    <g id="text_25">
     <!-- 0.01 -->
     <g style="fill: #262626" transform="translate(225.4 245.379687)scale(0.22 -0.22)">
      <use xlink:href="#DejaVuSans-30"/>
      <use xlink:href="#DejaVuSans-2e" x="63.623047"/>
      <use xlink:href="#DejaVuSans-30" x="95.410156"/>
      <use xlink:href="#DejaVuSans-31" x="159.033203"/>
     </g>
    </g>
   </g>
  </g>
 </g>
 <defs>
  <clipPath id="p35b25e7ccb">
   <rect x="144" y="77.76" width="892.8" height="489.24"/>
  </clipPath>
 </defs>
</svg>
