<?xml version="1.0" encoding="utf-8" standalone="no"?>
<!DOCTYPE svg PUBLIC "-//W3C//DTD SVG 1.1//EN"
  "http://www.w3.org/Graphics/SVG/1.1/DTD/svg11.dtd">
<svg xmlns:xlink="http://www.w3.org/1999/xlink" width="965.954375pt" height="548.699375pt" viewBox="0 0 965.954375 548.699375" xmlns="http://www.w3.org/2000/svg" version="1.1">
 <metadata>
  <rdf:RDF xmlns:dc="http://purl.org/dc/elements/1.1/" xmlns:cc="http://creativecommons.org/ns#" xmlns:rdf="http://www.w3.org/1999/02/22-rdf-syntax-ns#">
   <cc:Work>
    <dc:type rdf:resource="http://purl.org/dc/dcmitype/StillImage"/>
    <dc:date>2022-11-09T17:26:06.729934</dc:date>
    <dc:format>image/svg+xml</dc:format>
    <dc:creator>
     <cc:Agent>
      <dc:title>Matplotlib v3.5.2, https://matplotlib.org/</dc:title>
     </cc:Agent>
    </dc:creator>
   </cc:Work>
  </rdf:RDF>
 </metadata>
 <defs>
  <style type="text/css">*{stroke-linejoin: round; stroke-linecap: butt}</style>
 </defs>
 <g id="figure_1">
  <g id="patch_1">
   <path d="M 0 548.699375 
L 965.954375 548.699375 
L 965.954375 0 
L 0 0 
L 0 548.699375 
z
" style="fill: none"/>
  </g>
  <g id="axes_1">
   <g id="patch_2">
    <path d="M 72.434375 489.96 
L 965.234375 489.96 
L 965.234375 0.72 
L 72.434375 0.72 
z
" style="fill: #eaeaf2"/>
   </g>
   <g id="matplotlib.axis_1">
    <g id="xtick_1">
     <g id="line2d_1">
      <path d="M 102.610599 489.96 
L 102.610599 0.72 
" clip-path="url(#p7f10443545)" style="fill: none; stroke: #ffffff; stroke-linecap: round"/>
     </g>
     <g id="text_1">
      <!-- 0 -->
      <g style="fill: #262626" transform="translate(95.611849 516.176563)scale(0.22 -0.22)">
       <defs>
        <path id="DejaVuSans-30" d="M 2034 4250 
Q 1547 4250 1301 3770 
Q 1056 3291 1056 2328 
Q 1056 1369 1301 889 
Q 1547 409 2034 409 
Q 2525 409 2770 889 
Q 3016 1369 3016 2328 
Q 3016 3291 2770 3770 
Q 2525 4250 2034 4250 
z
M 2034 4750 
Q 2819 4750 3233 4129 
Q 3647 3509 3647 2328 
Q 3647 1150 3233 529 
Q 2819 -91 2034 -91 
Q 1250 -91 836 529 
Q 422 1150 422 2328 
Q 422 3509 836 4129 
Q 1250 4750 2034 4750 
z
" transform="scale(0.015625)"/>
       </defs>
       <use xlink:href="#DejaVuSans-30"/>
      </g>
     </g>
    </g>
    <g id="xtick_2">
     <g id="line2d_2">
      <path d="M 206.666543 489.96 
L 206.666543 0.72 
" clip-path="url(#p7f10443545)" style="fill: none; stroke: #ffffff; stroke-linecap: round"/>
     </g>
     <g id="text_2">
      <!-- 10 -->
      <g style="fill: #262626" transform="translate(192.669043 516.176563)scale(0.22 -0.22)">
       <defs>
        <path id="DejaVuSans-31" d="M 794 531 
L 1825 531 
L 1825 4091 
L 703 3866 
L 703 4441 
L 1819 4666 
L 2450 4666 
L 2450 531 
L 3481 531 
L 3481 0 
L 794 0 
L 794 531 
z
" transform="scale(0.015625)"/>
       </defs>
       <use xlink:href="#DejaVuSans-31"/>
       <use xlink:href="#DejaVuSans-30" x="63.623047"/>
      </g>
     </g>
    </g>
    <g id="xtick_3">
     <g id="line2d_3">
      <path d="M 310.722487 489.96 
L 310.722487 0.72 
" clip-path="url(#p7f10443545)" style="fill: none; stroke: #ffffff; stroke-linecap: round"/>
     </g>
     <g id="text_3">
      <!-- 20 -->
      <g style="fill: #262626" transform="translate(296.724987 516.176563)scale(0.22 -0.22)">
       <defs>
        <path id="DejaVuSans-32" d="M 1228 531 
L 3431 531 
L 3431 0 
L 469 0 
L 469 531 
Q 828 903 1448 1529 
Q 2069 2156 2228 2338 
Q 2531 2678 2651 2914 
Q 2772 3150 2772 3378 
Q 2772 3750 2511 3984 
Q 2250 4219 1831 4219 
Q 1534 4219 1204 4116 
Q 875 4013 500 3803 
L 500 4441 
Q 881 4594 1212 4672 
Q 1544 4750 1819 4750 
Q 2544 4750 2975 4387 
Q 3406 4025 3406 3419 
Q 3406 3131 3298 2873 
Q 3191 2616 2906 2266 
Q 2828 2175 2409 1742 
Q 1991 1309 1228 531 
z
" transform="scale(0.015625)"/>
       </defs>
       <use xlink:href="#DejaVuSans-32"/>
       <use xlink:href="#DejaVuSans-30" x="63.623047"/>
      </g>
     </g>
    </g>
    <g id="xtick_4">
     <g id="line2d_4">
      <path d="M 414.778431 489.96 
L 414.778431 0.72 
" clip-path="url(#p7f10443545)" style="fill: none; stroke: #ffffff; stroke-linecap: round"/>
     </g>
     <g id="text_4">
      <!-- 30 -->
      <g style="fill: #262626" transform="translate(400.780931 516.176563)scale(0.22 -0.22)">
       <defs>
        <path id="DejaVuSans-33" d="M 2597 2516 
Q 3050 2419 3304 2112 
Q 3559 1806 3559 1356 
Q 3559 666 3084 287 
Q 2609 -91 1734 -91 
Q 1441 -91 1130 -33 
Q 819 25 488 141 
L 488 750 
Q 750 597 1062 519 
Q 1375 441 1716 441 
Q 2309 441 2620 675 
Q 2931 909 2931 1356 
Q 2931 1769 2642 2001 
Q 2353 2234 1838 2234 
L 1294 2234 
L 1294 2753 
L 1863 2753 
Q 2328 2753 2575 2939 
Q 2822 3125 2822 3475 
Q 2822 3834 2567 4026 
Q 2313 4219 1838 4219 
Q 1578 4219 1281 4162 
Q 984 4106 628 3988 
L 628 4550 
Q 988 4650 1302 4700 
Q 1616 4750 1894 4750 
Q 2613 4750 3031 4423 
Q 3450 4097 3450 3541 
Q 3450 3153 3228 2886 
Q 3006 2619 2597 2516 
z
" transform="scale(0.015625)"/>
       </defs>
       <use xlink:href="#DejaVuSans-33"/>
       <use xlink:href="#DejaVuSans-30" x="63.623047"/>
      </g>
     </g>
    </g>
    <g id="xtick_5">
     <g id="line2d_5">
      <path d="M 518.834375 489.96 
L 518.834375 0.72 
" clip-path="url(#p7f10443545)" style="fill: none; stroke: #ffffff; stroke-linecap: round"/>
     </g>
     <g id="text_5">
      <!-- 40 -->
      <g style="fill: #262626" transform="translate(504.836875 516.176563)scale(0.22 -0.22)">
       <defs>
        <path id="DejaVuSans-34" d="M 2419 4116 
L 825 1625 
L 2419 1625 
L 2419 4116 
z
M 2253 4666 
L 3047 4666 
L 3047 1625 
L 3713 1625 
L 3713 1100 
L 3047 1100 
L 3047 0 
L 2419 0 
L 2419 1100 
L 313 1100 
L 313 1709 
L 2253 4666 
z
" transform="scale(0.015625)"/>
       </defs>
       <use xlink:href="#DejaVuSans-34"/>
       <use xlink:href="#DejaVuSans-30" x="63.623047"/>
      </g>
     </g>
    </g>
    <g id="xtick_6">
     <g id="line2d_6">
      <path d="M 622.890319 489.96 
L 622.890319 0.72 
" clip-path="url(#p7f10443545)" style="fill: none; stroke: #ffffff; stroke-linecap: round"/>
     </g>
     <g id="text_6">
      <!-- 50 -->
      <g style="fill: #262626" transform="translate(608.892819 516.176563)scale(0.22 -0.22)">
       <defs>
        <path id="DejaVuSans-35" d="M 691 4666 
L 3169 4666 
L 3169 4134 
L 1269 4134 
L 1269 2991 
Q 1406 3038 1543 3061 
Q 1681 3084 1819 3084 
Q 2600 3084 3056 2656 
Q 3513 2228 3513 1497 
Q 3513 744 3044 326 
Q 2575 -91 1722 -91 
Q 1428 -91 1123 -41 
Q 819 9 494 109 
L 494 744 
Q 775 591 1075 516 
Q 1375 441 1709 441 
Q 2250 441 2565 725 
Q 2881 1009 2881 1497 
Q 2881 1984 2565 2268 
Q 2250 2553 1709 2553 
Q 1456 2553 1204 2497 
Q 953 2441 691 2322 
L 691 4666 
z
" transform="scale(0.015625)"/>
       </defs>
       <use xlink:href="#DejaVuSans-35"/>
       <use xlink:href="#DejaVuSans-30" x="63.623047"/>
      </g>
     </g>
    </g>
    <g id="xtick_7">
     <g id="line2d_7">
      <path d="M 726.946263 489.96 
L 726.946263 0.72 
" clip-path="url(#p7f10443545)" style="fill: none; stroke: #ffffff; stroke-linecap: round"/>
     </g>
     <g id="text_7">
      <!-- 60 -->
      <g style="fill: #262626" transform="translate(712.948763 516.176563)scale(0.22 -0.22)">
       <defs>
        <path id="DejaVuSans-36" d="M 2113 2584 
Q 1688 2584 1439 2293 
Q 1191 2003 1191 1497 
Q 1191 994 1439 701 
Q 1688 409 2113 409 
Q 2538 409 2786 701 
Q 3034 994 3034 1497 
Q 3034 2003 2786 2293 
Q 2538 2584 2113 2584 
z
M 3366 4563 
L 3366 3988 
Q 3128 4100 2886 4159 
Q 2644 4219 2406 4219 
Q 1781 4219 1451 3797 
Q 1122 3375 1075 2522 
Q 1259 2794 1537 2939 
Q 1816 3084 2150 3084 
Q 2853 3084 3261 2657 
Q 3669 2231 3669 1497 
Q 3669 778 3244 343 
Q 2819 -91 2113 -91 
Q 1303 -91 875 529 
Q 447 1150 447 2328 
Q 447 3434 972 4092 
Q 1497 4750 2381 4750 
Q 2619 4750 2861 4703 
Q 3103 4656 3366 4563 
z
" transform="scale(0.015625)"/>
       </defs>
       <use xlink:href="#DejaVuSans-36"/>
       <use xlink:href="#DejaVuSans-30" x="63.623047"/>
      </g>
     </g>
    </g>
    <g id="xtick_8">
     <g id="line2d_8">
      <path d="M 831.002207 489.96 
L 831.002207 0.72 
" clip-path="url(#p7f10443545)" style="fill: none; stroke: #ffffff; stroke-linecap: round"/>
     </g>
     <g id="text_8">
      <!-- 70 -->
      <g style="fill: #262626" transform="translate(817.004707 516.176563)scale(0.22 -0.22)">
       <defs>
        <path id="DejaVuSans-37" d="M 525 4666 
L 3525 4666 
L 3525 4397 
L 1831 0 
L 1172 0 
L 2766 4134 
L 525 4134 
L 525 4666 
z
" transform="scale(0.015625)"/>
       </defs>
       <use xlink:href="#DejaVuSans-37"/>
       <use xlink:href="#DejaVuSans-30" x="63.623047"/>
      </g>
     </g>
    </g>
    <g id="xtick_9">
     <g id="line2d_9">
      <path d="M 935.058151 489.96 
L 935.058151 0.72 
" clip-path="url(#p7f10443545)" style="fill: none; stroke: #ffffff; stroke-linecap: round"/>
     </g>
     <g id="text_9">
      <!-- 80 -->
      <g style="fill: #262626" transform="translate(921.060651 516.176563)scale(0.22 -0.22)">
       <defs>
        <path id="DejaVuSans-38" d="M 2034 2216 
Q 1584 2216 1326 1975 
Q 1069 1734 1069 1313 
Q 1069 891 1326 650 
Q 1584 409 2034 409 
Q 2484 409 2743 651 
Q 3003 894 3003 1313 
Q 3003 1734 2745 1975 
Q 2488 2216 2034 2216 
z
M 1403 2484 
Q 997 2584 770 2862 
Q 544 3141 544 3541 
Q 544 4100 942 4425 
Q 1341 4750 2034 4750 
Q 2731 4750 3128 4425 
Q 3525 4100 3525 3541 
Q 3525 3141 3298 2862 
Q 3072 2584 2669 2484 
Q 3125 2378 3379 2068 
Q 3634 1759 3634 1313 
Q 3634 634 3220 271 
Q 2806 -91 2034 -91 
Q 1263 -91 848 271 
Q 434 634 434 1313 
Q 434 1759 690 2068 
Q 947 2378 1403 2484 
z
M 1172 3481 
Q 1172 3119 1398 2916 
Q 1625 2713 2034 2713 
Q 2441 2713 2670 2916 
Q 2900 3119 2900 3481 
Q 2900 3844 2670 4047 
Q 2441 4250 2034 4250 
Q 1625 4250 1398 4047 
Q 1172 3844 1172 3481 
z
" transform="scale(0.015625)"/>
       </defs>
       <use xlink:href="#DejaVuSans-38"/>
       <use xlink:href="#DejaVuSans-30" x="63.623047"/>
      </g>
     </g>
    </g>
    <g id="text_10">
     <!-- Epochs -->
     <g style="fill: #262626" transform="translate(475.836875 542.988125)scale(0.24 -0.24)">
      <defs>
       <path id="DejaVuSans-45" d="M 628 4666 
L 3578 4666 
L 3578 4134 
L 1259 4134 
L 1259 2753 
L 3481 2753 
L 3481 2222 
L 1259 2222 
L 1259 531 
L 3634 531 
L 3634 0 
L 628 0 
L 628 4666 
z
" transform="scale(0.015625)"/>
       <path id="DejaVuSans-70" d="M 1159 525 
L 1159 -1331 
L 581 -1331 
L 581 3500 
L 1159 3500 
L 1159 2969 
Q 1341 3281 1617 3432 
Q 1894 3584 2278 3584 
Q 2916 3584 3314 3078 
Q 3713 2572 3713 1747 
Q 3713 922 3314 415 
Q 2916 -91 2278 -91 
Q 1894 -91 1617 61 
Q 1341 213 1159 525 
z
M 3116 1747 
Q 3116 2381 2855 2742 
Q 2594 3103 2138 3103 
Q 1681 3103 1420 2742 
Q 1159 2381 1159 1747 
Q 1159 1113 1420 752 
Q 1681 391 2138 391 
Q 2594 391 2855 752 
Q 3116 1113 3116 1747 
z
" transform="scale(0.015625)"/>
       <path id="DejaVuSans-6f" d="M 1959 3097 
Q 1497 3097 1228 2736 
Q 959 2375 959 1747 
Q 959 1119 1226 758 
Q 1494 397 1959 397 
Q 2419 397 2687 759 
Q 2956 1122 2956 1747 
Q 2956 2369 2687 2733 
Q 2419 3097 1959 3097 
z
M 1959 3584 
Q 2709 3584 3137 3096 
Q 3566 2609 3566 1747 
Q 3566 888 3137 398 
Q 2709 -91 1959 -91 
Q 1206 -91 779 398 
Q 353 888 353 1747 
Q 353 2609 779 3096 
Q 1206 3584 1959 3584 
z
" transform="scale(0.015625)"/>
       <path id="DejaVuSans-63" d="M 3122 3366 
L 3122 2828 
Q 2878 2963 2633 3030 
Q 2388 3097 2138 3097 
Q 1578 3097 1268 2742 
Q 959 2388 959 1747 
Q 959 1106 1268 751 
Q 1578 397 2138 397 
Q 2388 397 2633 464 
Q 2878 531 3122 666 
L 3122 134 
Q 2881 22 2623 -34 
Q 2366 -91 2075 -91 
Q 1284 -91 818 406 
Q 353 903 353 1747 
Q 353 2603 823 3093 
Q 1294 3584 2113 3584 
Q 2378 3584 2631 3529 
Q 2884 3475 3122 3366 
z
" transform="scale(0.015625)"/>
       <path id="DejaVuSans-68" d="M 3513 2113 
L 3513 0 
L 2938 0 
L 2938 2094 
Q 2938 2591 2744 2837 
Q 2550 3084 2163 3084 
Q 1697 3084 1428 2787 
Q 1159 2491 1159 1978 
L 1159 0 
L 581 0 
L 581 4863 
L 1159 4863 
L 1159 2956 
Q 1366 3272 1645 3428 
Q 1925 3584 2291 3584 
Q 2894 3584 3203 3211 
Q 3513 2838 3513 2113 
z
" transform="scale(0.015625)"/>
       <path id="DejaVuSans-73" d="M 2834 3397 
L 2834 2853 
Q 2591 2978 2328 3040 
Q 2066 3103 1784 3103 
Q 1356 3103 1142 2972 
Q 928 2841 928 2578 
Q 928 2378 1081 2264 
Q 1234 2150 1697 2047 
L 1894 2003 
Q 2506 1872 2764 1633 
Q 3022 1394 3022 966 
Q 3022 478 2636 193 
Q 2250 -91 1575 -91 
Q 1294 -91 989 -36 
Q 684 19 347 128 
L 347 722 
Q 666 556 975 473 
Q 1284 391 1588 391 
Q 1994 391 2212 530 
Q 2431 669 2431 922 
Q 2431 1156 2273 1281 
Q 2116 1406 1581 1522 
L 1381 1569 
Q 847 1681 609 1914 
Q 372 2147 372 2553 
Q 372 3047 722 3315 
Q 1072 3584 1716 3584 
Q 2034 3584 2315 3537 
Q 2597 3491 2834 3397 
z
" transform="scale(0.015625)"/>
      </defs>
      <use xlink:href="#DejaVuSans-45"/>
      <use xlink:href="#DejaVuSans-70" x="63.183594"/>
      <use xlink:href="#DejaVuSans-6f" x="126.660156"/>
      <use xlink:href="#DejaVuSans-63" x="187.841797"/>
      <use xlink:href="#DejaVuSans-68" x="242.822266"/>
      <use xlink:href="#DejaVuSans-73" x="306.201172"/>
     </g>
    </g>
   </g>
   <g id="matplotlib.axis_2">
    <g id="ytick_1">
     <g id="line2d_10">
      <path d="M 72.434375 479.593812 
L 965.234375 479.593812 
" clip-path="url(#p7f10443545)" style="fill: none; stroke: #ffffff; stroke-linecap: round"/>
     </g>
     <g id="text_11">
      <!-- 1.0 -->
      <g style="fill: #262626" transform="translate(27.9475 487.952093)scale(0.22 -0.22)">
       <defs>
        <path id="DejaVuSans-2e" d="M 684 794 
L 1344 794 
L 1344 0 
L 684 0 
L 684 794 
z
" transform="scale(0.015625)"/>
       </defs>
       <use xlink:href="#DejaVuSans-31"/>
       <use xlink:href="#DejaVuSans-2e" x="63.623047"/>
       <use xlink:href="#DejaVuSans-30" x="95.410156"/>
      </g>
     </g>
    </g>
    <g id="text_12">
     <!-- Ratio between predicted and actual loss -->
     <g style="fill: #262626" transform="translate(18.95625 486.729375)rotate(-90)scale(0.24 -0.24)">
      <defs>
       <path id="DejaVuSans-52" d="M 2841 2188 
Q 3044 2119 3236 1894 
Q 3428 1669 3622 1275 
L 4263 0 
L 3584 0 
L 2988 1197 
Q 2756 1666 2539 1819 
Q 2322 1972 1947 1972 
L 1259 1972 
L 1259 0 
L 628 0 
L 628 4666 
L 2053 4666 
Q 2853 4666 3247 4331 
Q 3641 3997 3641 3322 
Q 3641 2881 3436 2590 
Q 3231 2300 2841 2188 
z
M 1259 4147 
L 1259 2491 
L 2053 2491 
Q 2509 2491 2742 2702 
Q 2975 2913 2975 3322 
Q 2975 3731 2742 3939 
Q 2509 4147 2053 4147 
L 1259 4147 
z
" transform="scale(0.015625)"/>
       <path id="DejaVuSans-61" d="M 2194 1759 
Q 1497 1759 1228 1600 
Q 959 1441 959 1056 
Q 959 750 1161 570 
Q 1363 391 1709 391 
Q 2188 391 2477 730 
Q 2766 1069 2766 1631 
L 2766 1759 
L 2194 1759 
z
M 3341 1997 
L 3341 0 
L 2766 0 
L 2766 531 
Q 2569 213 2275 61 
Q 1981 -91 1556 -91 
Q 1019 -91 701 211 
Q 384 513 384 1019 
Q 384 1609 779 1909 
Q 1175 2209 1959 2209 
L 2766 2209 
L 2766 2266 
Q 2766 2663 2505 2880 
Q 2244 3097 1772 3097 
Q 1472 3097 1187 3025 
Q 903 2953 641 2809 
L 641 3341 
Q 956 3463 1253 3523 
Q 1550 3584 1831 3584 
Q 2591 3584 2966 3190 
Q 3341 2797 3341 1997 
z
" transform="scale(0.015625)"/>
       <path id="DejaVuSans-74" d="M 1172 4494 
L 1172 3500 
L 2356 3500 
L 2356 3053 
L 1172 3053 
L 1172 1153 
Q 1172 725 1289 603 
Q 1406 481 1766 481 
L 2356 481 
L 2356 0 
L 1766 0 
Q 1100 0 847 248 
Q 594 497 594 1153 
L 594 3053 
L 172 3053 
L 172 3500 
L 594 3500 
L 594 4494 
L 1172 4494 
z
" transform="scale(0.015625)"/>
       <path id="DejaVuSans-69" d="M 603 3500 
L 1178 3500 
L 1178 0 
L 603 0 
L 603 3500 
z
M 603 4863 
L 1178 4863 
L 1178 4134 
L 603 4134 
L 603 4863 
z
" transform="scale(0.015625)"/>
       <path id="DejaVuSans-20" transform="scale(0.015625)"/>
       <path id="DejaVuSans-62" d="M 3116 1747 
Q 3116 2381 2855 2742 
Q 2594 3103 2138 3103 
Q 1681 3103 1420 2742 
Q 1159 2381 1159 1747 
Q 1159 1113 1420 752 
Q 1681 391 2138 391 
Q 2594 391 2855 752 
Q 3116 1113 3116 1747 
z
M 1159 2969 
Q 1341 3281 1617 3432 
Q 1894 3584 2278 3584 
Q 2916 3584 3314 3078 
Q 3713 2572 3713 1747 
Q 3713 922 3314 415 
Q 2916 -91 2278 -91 
Q 1894 -91 1617 61 
Q 1341 213 1159 525 
L 1159 0 
L 581 0 
L 581 4863 
L 1159 4863 
L 1159 2969 
z
" transform="scale(0.015625)"/>
       <path id="DejaVuSans-65" d="M 3597 1894 
L 3597 1613 
L 953 1613 
Q 991 1019 1311 708 
Q 1631 397 2203 397 
Q 2534 397 2845 478 
Q 3156 559 3463 722 
L 3463 178 
Q 3153 47 2828 -22 
Q 2503 -91 2169 -91 
Q 1331 -91 842 396 
Q 353 884 353 1716 
Q 353 2575 817 3079 
Q 1281 3584 2069 3584 
Q 2775 3584 3186 3129 
Q 3597 2675 3597 1894 
z
M 3022 2063 
Q 3016 2534 2758 2815 
Q 2500 3097 2075 3097 
Q 1594 3097 1305 2825 
Q 1016 2553 972 2059 
L 3022 2063 
z
" transform="scale(0.015625)"/>
       <path id="DejaVuSans-77" d="M 269 3500 
L 844 3500 
L 1563 769 
L 2278 3500 
L 2956 3500 
L 3675 769 
L 4391 3500 
L 4966 3500 
L 4050 0 
L 3372 0 
L 2619 2869 
L 1863 0 
L 1184 0 
L 269 3500 
z
" transform="scale(0.015625)"/>
       <path id="DejaVuSans-6e" d="M 3513 2113 
L 3513 0 
L 2938 0 
L 2938 2094 
Q 2938 2591 2744 2837 
Q 2550 3084 2163 3084 
Q 1697 3084 1428 2787 
Q 1159 2491 1159 1978 
L 1159 0 
L 581 0 
L 581 3500 
L 1159 3500 
L 1159 2956 
Q 1366 3272 1645 3428 
Q 1925 3584 2291 3584 
Q 2894 3584 3203 3211 
Q 3513 2838 3513 2113 
z
" transform="scale(0.015625)"/>
       <path id="DejaVuSans-72" d="M 2631 2963 
Q 2534 3019 2420 3045 
Q 2306 3072 2169 3072 
Q 1681 3072 1420 2755 
Q 1159 2438 1159 1844 
L 1159 0 
L 581 0 
L 581 3500 
L 1159 3500 
L 1159 2956 
Q 1341 3275 1631 3429 
Q 1922 3584 2338 3584 
Q 2397 3584 2469 3576 
Q 2541 3569 2628 3553 
L 2631 2963 
z
" transform="scale(0.015625)"/>
       <path id="DejaVuSans-64" d="M 2906 2969 
L 2906 4863 
L 3481 4863 
L 3481 0 
L 2906 0 
L 2906 525 
Q 2725 213 2448 61 
Q 2172 -91 1784 -91 
Q 1150 -91 751 415 
Q 353 922 353 1747 
Q 353 2572 751 3078 
Q 1150 3584 1784 3584 
Q 2172 3584 2448 3432 
Q 2725 3281 2906 2969 
z
M 947 1747 
Q 947 1113 1208 752 
Q 1469 391 1925 391 
Q 2381 391 2643 752 
Q 2906 1113 2906 1747 
Q 2906 2381 2643 2742 
Q 2381 3103 1925 3103 
Q 1469 3103 1208 2742 
Q 947 2381 947 1747 
z
" transform="scale(0.015625)"/>
       <path id="DejaVuSans-75" d="M 544 1381 
L 544 3500 
L 1119 3500 
L 1119 1403 
Q 1119 906 1312 657 
Q 1506 409 1894 409 
Q 2359 409 2629 706 
Q 2900 1003 2900 1516 
L 2900 3500 
L 3475 3500 
L 3475 0 
L 2900 0 
L 2900 538 
Q 2691 219 2414 64 
Q 2138 -91 1772 -91 
Q 1169 -91 856 284 
Q 544 659 544 1381 
z
M 1991 3584 
L 1991 3584 
z
" transform="scale(0.015625)"/>
       <path id="DejaVuSans-6c" d="M 603 4863 
L 1178 4863 
L 1178 0 
L 603 0 
L 603 4863 
z
" transform="scale(0.015625)"/>
      </defs>
      <use xlink:href="#DejaVuSans-52"/>
      <use xlink:href="#DejaVuSans-61" x="67.232422"/>
      <use xlink:href="#DejaVuSans-74" x="128.511719"/>
      <use xlink:href="#DejaVuSans-69" x="167.720703"/>
      <use xlink:href="#DejaVuSans-6f" x="195.503906"/>
      <use xlink:href="#DejaVuSans-20" x="256.685547"/>
      <use xlink:href="#DejaVuSans-62" x="288.472656"/>
      <use xlink:href="#DejaVuSans-65" x="351.949219"/>
      <use xlink:href="#DejaVuSans-74" x="413.472656"/>
      <use xlink:href="#DejaVuSans-77" x="452.681641"/>
      <use xlink:href="#DejaVuSans-65" x="534.46875"/>
      <use xlink:href="#DejaVuSans-65" x="595.992188"/>
      <use xlink:href="#DejaVuSans-6e" x="657.515625"/>
      <use xlink:href="#DejaVuSans-20" x="720.894531"/>
      <use xlink:href="#DejaVuSans-70" x="752.681641"/>
      <use xlink:href="#DejaVuSans-72" x="816.158203"/>
      <use xlink:href="#DejaVuSans-65" x="855.021484"/>
      <use xlink:href="#DejaVuSans-64" x="916.544922"/>
      <use xlink:href="#DejaVuSans-69" x="980.021484"/>
      <use xlink:href="#DejaVuSans-63" x="1007.804688"/>
      <use xlink:href="#DejaVuSans-74" x="1062.785156"/>
      <use xlink:href="#DejaVuSans-65" x="1101.994141"/>
      <use xlink:href="#DejaVuSans-64" x="1163.517578"/>
      <use xlink:href="#DejaVuSans-20" x="1226.994141"/>
      <use xlink:href="#DejaVuSans-61" x="1258.78125"/>
      <use xlink:href="#DejaVuSans-6e" x="1320.060547"/>
      <use xlink:href="#DejaVuSans-64" x="1383.439453"/>
      <use xlink:href="#DejaVuSans-20" x="1446.916016"/>
      <use xlink:href="#DejaVuSans-61" x="1478.703125"/>
      <use xlink:href="#DejaVuSans-63" x="1539.982422"/>
      <use xlink:href="#DejaVuSans-74" x="1594.962891"/>
      <use xlink:href="#DejaVuSans-75" x="1634.171875"/>
      <use xlink:href="#DejaVuSans-61" x="1697.550781"/>
      <use xlink:href="#DejaVuSans-6c" x="1758.830078"/>
      <use xlink:href="#DejaVuSans-20" x="1786.613281"/>
      <use xlink:href="#DejaVuSans-6c" x="1818.400391"/>
      <use xlink:href="#DejaVuSans-6f" x="1846.183594"/>
      <use xlink:href="#DejaVuSans-73" x="1907.365234"/>
      <use xlink:href="#DejaVuSans-73" x="1959.464844"/>
     </g>
    </g>
   </g>
   <g id="PolyCollection_1">
    <defs>
     <path id="m7f326fa9b5" d="M 113.016193 -525.741193 
L 113.016193 -308.45967 
L 123.421788 -299.39796 
L 133.827382 -277.968178 
L 144.232976 -277.194787 
L 154.638571 -276.338426 
L 165.044165 -261.00878 
L 175.44976 -266.219425 
L 185.855354 -245.862798 
L 196.260948 -245.568767 
L 206.666543 -246.769481 
L 217.072137 -241.824739 
L 227.477732 -230.593993 
L 237.883326 -231.079887 
L 248.28892 -218.53133 
L 258.694515 -225.517897 
L 269.100109 -239.110383 
L 279.505704 -233.788529 
L 289.911298 -230.191184 
L 300.316892 -203.960022 
L 310.722487 -215.944004 
L 321.128081 -218.756302 
L 331.533676 -203.541828 
L 341.93927 -216.485104 
L 352.344865 -214.383076 
L 362.750459 -194.823625 
L 373.156053 -201.002609 
L 383.561648 -205.339165 
L 393.967242 -205.308003 
L 404.372837 -219.125754 
L 414.778431 -198.156827 
L 425.184025 -201.926015 
L 435.58962 -193.860641 
L 445.995214 -189.152836 
L 456.400809 -188.60766 
L 466.806403 -176.684596 
L 477.211997 -195.694615 
L 487.617592 -159.896596 
L 498.023186 -169.468259 
L 508.428781 -159.28324 
L 518.834375 -159.556074 
L 529.239969 -156.89249 
L 539.645564 -154.140766 
L 550.051158 -141.482208 
L 560.456753 -146.638302 
L 570.862347 -129.857056 
L 581.267941 -141.362482 
L 591.673536 -132.117679 
L 602.07913 -129.259287 
L 612.484725 -115.700856 
L 622.890319 -110.363522 
L 633.295913 -120.775054 
L 643.701508 -105.57329 
L 654.107102 -117.468375 
L 664.512697 -121.206337 
L 674.918291 -95.937601 
L 685.323885 -98.358791 
L 695.72948 -99.908746 
L 706.135074 -87.327197 
L 716.540669 -107.860213 
L 726.946263 -113.273716 
L 737.351858 -84.923869 
L 747.757452 -111.184368 
L 758.163046 -112.055096 
L 768.568641 -98.09323 
L 778.974235 -111.28582 
L 789.37983 -99.012859 
L 799.785424 -94.832372 
L 810.191018 -104.593668 
L 820.596613 -88.539509 
L 831.002207 -104.170898 
L 841.407802 -96.603065 
L 851.813396 -95.482927 
L 862.21899 -92.102224 
L 872.624585 -110.04874 
L 883.030179 -80.977557 
L 893.435774 -91.877144 
L 903.841368 -108.094795 
L 914.246962 -99.524814 
L 924.652557 -89.318811 
L 924.652557 -506.617388 
L 924.652557 -506.617388 
L 914.246962 -465.806804 
L 903.841368 -459.938678 
L 893.435774 -480.911781 
L 883.030179 -490.136442 
L 872.624585 -505.721168 
L 862.21899 -498.817237 
L 851.813396 -454.762426 
L 841.407802 -478.367488 
L 831.002207 -452.131386 
L 820.596613 -435.36193 
L 810.191018 -439.354924 
L 799.785424 -452.734162 
L 789.37983 -404.806249 
L 778.974235 -411.696893 
L 768.568641 -403.846318 
L 758.163046 -417.737125 
L 747.757452 -398.892666 
L 737.351858 -407.567291 
L 726.946263 -468.991818 
L 716.540669 -414.797775 
L 706.135074 -418.028747 
L 695.72948 -374.015113 
L 685.323885 -387.987827 
L 674.918291 -373.293578 
L 664.512697 -411.554522 
L 654.107102 -371.658112 
L 643.701508 -349.132085 
L 633.295913 -390.094635 
L 622.890319 -380.563636 
L 612.484725 -363.672968 
L 602.07913 -368.316296 
L 591.673536 -344.524359 
L 581.267941 -357.617568 
L 570.862347 -342.933478 
L 560.456753 -343.547229 
L 550.051158 -376.560923 
L 539.645564 -387.022661 
L 529.239969 -359.885678 
L 518.834375 -367.292384 
L 508.428781 -386.75854 
L 498.023186 -401.017684 
L 487.617592 -353.853952 
L 477.211997 -361.988112 
L 466.806403 -364.960361 
L 456.400809 -368.812551 
L 445.995214 -380.076756 
L 435.58962 -403.513053 
L 425.184025 -441.050222 
L 414.778431 -429.696887 
L 404.372837 -383.25838 
L 393.967242 -384.382624 
L 383.561648 -387.542935 
L 373.156053 -395.433877 
L 362.750459 -385.780153 
L 352.344865 -395.129995 
L 341.93927 -392.533269 
L 331.533676 -405.753391 
L 321.128081 -400.381106 
L 310.722487 -384.066466 
L 300.316892 -406.142872 
L 289.911298 -405.810827 
L 279.505704 -448.624465 
L 269.100109 -431.100066 
L 258.694515 -461.626188 
L 248.28892 -451.055615 
L 237.883326 -493.798076 
L 227.477732 -450.74732 
L 217.072137 -443.952204 
L 206.666543 -432.620962 
L 196.260948 -462.561812 
L 185.855354 -498.778205 
L 175.44976 -486.018534 
L 165.044165 -489.179102 
L 154.638571 -477.822228 
L 144.232976 -479.749126 
L 133.827382 -503.284301 
L 123.421788 -513.518406 
L 113.016193 -525.741193 
z
" style="stroke: #4c72b0; stroke-opacity: 0.2"/>
    </defs>
    <g clip-path="url(#p7f10443545)">
     <use xlink:href="#m7f326fa9b5" x="0" y="548.699375" style="fill: #4c72b0; fill-opacity: 0.2; stroke: #4c72b0; stroke-opacity: 0.2"/>
    </g>
   </g>
   <g id="line2d_11">
    <path d="M 113.016193 128.77498 
L 123.421788 142.241192 
L 133.827382 158.073136 
L 144.232976 170.227419 
L 154.638571 171.619048 
L 165.044165 173.556367 
L 175.44976 182.459509 
L 185.855354 176.378873 
L 196.260948 189.693597 
L 206.666543 209.004154 
L 217.072137 205.810904 
L 227.477732 207.929829 
L 237.883326 203.115719 
L 248.28892 210.578452 
L 258.694515 205.127333 
L 269.100109 213.594151 
L 279.505704 207.492878 
L 289.911298 230.698369 
L 300.316892 243.948386 
L 310.722487 248.576036 
L 321.128081 239.130671 
L 331.533676 244.051766 
L 341.93927 244.190188 
L 352.344865 243.94284 
L 362.750459 258.397486 
L 373.156053 249.567201 
L 383.561648 252.258325 
L 393.967242 253.854061 
L 404.372837 247.507308 
L 414.778431 251.702703 
L 425.184025 245.322177 
L 435.58962 252.36852 
L 445.995214 264.700242 
L 456.400809 269.989269 
L 466.806403 277.876896 
L 477.211997 269.858011 
L 487.617592 286.30658 
L 498.023186 269.123992 
L 508.428781 280.39136 
L 518.834375 284.720466 
L 529.239969 290.326588 
L 539.645564 284.170894 
L 550.051158 293.221902 
L 560.456753 304.555688 
L 570.862347 312.304108 
L 581.267941 299.20935 
L 591.673536 310.378356 
L 602.07913 303.708207 
L 612.484725 309.012463 
L 622.890319 299.559281 
L 633.295913 300.765796 
L 643.701508 321.346688 
L 654.107102 306.991449 
L 664.512697 305.087636 
L 674.918291 319.573398 
L 685.323885 311.993176 
L 695.72948 315.724687 
L 706.135074 304.262655 
L 716.540669 300.200683 
L 726.946263 290.745471 
L 737.351858 305.542154 
L 747.757452 307.994499 
L 758.163046 300.652483 
L 768.568641 311.014339 
L 778.974235 299.917087 
L 789.37983 310.872561 
L 799.785424 296.55118 
L 810.191018 296.684909 
L 820.596613 304.476376 
L 831.002207 291.546799 
L 841.407802 285.198795 
L 851.813396 306.458485 
L 862.21899 293.386851 
L 872.624585 282.742499 
L 883.030179 301.198207 
L 893.435774 288.887324 
L 903.841368 286.989624 
L 914.246962 292.307832 
L 924.652557 285.232234 
" clip-path="url(#p7f10443545)" style="fill: none; stroke: #4c72b0; stroke-width: 1.5; stroke-linecap: round"/>
   </g>
   <g id="line2d_12"/>
   <g id="patch_3">
    <path d="M 72.434375 489.96 
L 72.434375 0.72 
" style="fill: none; stroke: #ffffff; stroke-width: 1.25; stroke-linejoin: miter; stroke-linecap: square"/>
   </g>
   <g id="patch_4">
    <path d="M 965.234375 489.96 
L 965.234375 0.72 
" style="fill: none; stroke: #ffffff; stroke-width: 1.25; stroke-linejoin: miter; stroke-linecap: square"/>
   </g>
   <g id="patch_5">
    <path d="M 72.434375 489.96 
L 965.234375 489.96 
" style="fill: none; stroke: #ffffff; stroke-width: 1.25; stroke-linejoin: miter; stroke-linecap: square"/>
   </g>
   <g id="patch_6">
    <path d="M 72.434375 0.72 
L 965.234375 0.72 
" style="fill: none; stroke: #ffffff; stroke-width: 1.25; stroke-linejoin: miter; stroke-linecap: square"/>
   </g>
   <g id="legend_1">
    <g id="patch_7">
     <path d="M 816.4525 84.839375 
L 949.834375 84.839375 
Q 954.234375 84.839375 954.234375 80.439375 
L 954.234375 16.12 
Q 954.234375 11.72 949.834375 11.72 
L 816.4525 11.72 
Q 812.0525 11.72 812.0525 16.12 
L 812.0525 80.439375 
Q 812.0525 84.839375 816.4525 84.839375 
z
" style="fill: #eaeaf2; opacity: 0.8; stroke: #cccccc; stroke-linejoin: miter"/>
    </g>
    <g id="text_13">
     <!-- lr -->
     <g style="fill: #262626" transform="translate(874.876562 38.75625)scale(0.24 -0.24)">
      <use xlink:href="#DejaVuSans-6c"/>
      <use xlink:href="#DejaVuSans-72" x="27.783203"/>
     </g>
    </g>
    <g id="line2d_13">
     <path d="M 820.8525 63.764063 
L 842.8525 63.764063 
L 864.8525 63.764063 
" style="fill: none; stroke: #333333; stroke-width: 1.5; stroke-linecap: round"/>
    </g>
    <g id="text_14">
     <!-- 0.001 -->
     <g style="fill: #262626" transform="translate(882.4525 71.464063)scale(0.22 -0.22)">
      <use xlink:href="#DejaVuSans-30"/>
      <use xlink:href="#DejaVuSans-2e" x="63.623047"/>
      <use xlink:href="#DejaVuSans-30" x="95.410156"/>
      <use xlink:href="#DejaVuSans-30" x="159.033203"/>
      <use xlink:href="#DejaVuSans-31" x="222.65625"/>
     </g>
    </g>
   </g>
  </g>
 </g>
 <defs>
  <clipPath id="p7f10443545">
   <rect x="72.434375" y="0.72" width="892.8" height="489.24"/>
  </clipPath>
 </defs>
</svg>
