<?xml version="1.0" encoding="utf-8" standalone="no"?>
<!DOCTYPE svg PUBLIC "-//W3C//DTD SVG 1.1//EN"
  "http://www.w3.org/Graphics/SVG/1.1/DTD/svg11.dtd">
<svg height="648pt" version="1.1" viewBox="0 0 1152 648" width="1152pt" xmlns="http://www.w3.org/2000/svg" xmlns:xlink="http://www.w3.org/1999/xlink">
 <metadata>
  <rdf:RDF xmlns:cc="http://creativecommons.org/ns#" xmlns:dc="http://purl.org/dc/elements/1.1/" xmlns:rdf="http://www.w3.org/1999/02/22-rdf-syntax-ns#">
   <cc:Work>
    <dc:type rdf:resource="http://purl.org/dc/dcmitype/StillImage"/>
    <dc:date>2021-05-27T19:50:06.638583</dc:date>
    <dc:format>image/svg+xml</dc:format>
    <dc:creator>
     <cc:Agent>
      <dc:title>Matplotlib v3.4.2, https://matplotlib.org/</dc:title>
     </cc:Agent>
    </dc:creator>
   </cc:Work>
  </rdf:RDF>
 </metadata>
 <defs>
  <style type="text/css">*{stroke-linecap:butt;stroke-linejoin:round;}</style>
 </defs>
 <g id="figure_1">
  <g id="patch_1">
   <path d="M 0 648 
L 1152 648 
L 1152 0 
L 0 0 
z
" style="fill:#ffffff;"/>
  </g>
  <g id="axes_1">
   <g id="patch_2">
    <path d="M 144 567 
L 1036.8 567 
L 1036.8 77.76 
L 144 77.76 
z
" style="fill:#eaeaf2;"/>
   </g>
   <g id="matplotlib.axis_1">
    <g id="xtick_1">
     <g id="line2d_1">
      <path clip-path="url(#pbe805e4f30)" d="M 184.581818 567 
L 184.581818 77.76 
" style="fill:none;stroke:#ffffff;stroke-linecap:round;"/>
     </g>
     <g id="text_1">
      <!-- 0 -->
      <g style="fill:#262626;" transform="translate(181.082443 584.858281)scale(0.11 -0.11)">
       <defs>
        <path d="M 2034 4250 
Q 1547 4250 1301 3770 
Q 1056 3291 1056 2328 
Q 1056 1369 1301 889 
Q 1547 409 2034 409 
Q 2525 409 2770 889 
Q 3016 1369 3016 2328 
Q 3016 3291 2770 3770 
Q 2525 4250 2034 4250 
z
M 2034 4750 
Q 2819 4750 3233 4129 
Q 3647 3509 3647 2328 
Q 3647 1150 3233 529 
Q 2819 -91 2034 -91 
Q 1250 -91 836 529 
Q 422 1150 422 2328 
Q 422 3509 836 4129 
Q 1250 4750 2034 4750 
z
" id="DejaVuSans-30" transform="scale(0.015625)"/>
       </defs>
       <use xlink:href="#DejaVuSans-30"/>
      </g>
     </g>
    </g>
    <g id="xtick_2">
     <g id="line2d_2">
      <path clip-path="url(#pbe805e4f30)" d="M 286.036364 567 
L 286.036364 77.76 
" style="fill:none;stroke:#ffffff;stroke-linecap:round;"/>
     </g>
     <g id="text_2">
      <!-- 10 -->
      <g style="fill:#262626;" transform="translate(279.037614 584.858281)scale(0.11 -0.11)">
       <defs>
        <path d="M 794 531 
L 1825 531 
L 1825 4091 
L 703 3866 
L 703 4441 
L 1819 4666 
L 2450 4666 
L 2450 531 
L 3481 531 
L 3481 0 
L 794 0 
L 794 531 
z
" id="DejaVuSans-31" transform="scale(0.015625)"/>
       </defs>
       <use xlink:href="#DejaVuSans-31"/>
       <use x="63.623047" xlink:href="#DejaVuSans-30"/>
      </g>
     </g>
    </g>
    <g id="xtick_3">
     <g id="line2d_3">
      <path clip-path="url(#pbe805e4f30)" d="M 387.490909 567 
L 387.490909 77.76 
" style="fill:none;stroke:#ffffff;stroke-linecap:round;"/>
     </g>
     <g id="text_3">
      <!-- 20 -->
      <g style="fill:#262626;" transform="translate(380.492159 584.858281)scale(0.11 -0.11)">
       <defs>
        <path d="M 1228 531 
L 3431 531 
L 3431 0 
L 469 0 
L 469 531 
Q 828 903 1448 1529 
Q 2069 2156 2228 2338 
Q 2531 2678 2651 2914 
Q 2772 3150 2772 3378 
Q 2772 3750 2511 3984 
Q 2250 4219 1831 4219 
Q 1534 4219 1204 4116 
Q 875 4013 500 3803 
L 500 4441 
Q 881 4594 1212 4672 
Q 1544 4750 1819 4750 
Q 2544 4750 2975 4387 
Q 3406 4025 3406 3419 
Q 3406 3131 3298 2873 
Q 3191 2616 2906 2266 
Q 2828 2175 2409 1742 
Q 1991 1309 1228 531 
z
" id="DejaVuSans-32" transform="scale(0.015625)"/>
       </defs>
       <use xlink:href="#DejaVuSans-32"/>
       <use x="63.623047" xlink:href="#DejaVuSans-30"/>
      </g>
     </g>
    </g>
    <g id="xtick_4">
     <g id="line2d_4">
      <path clip-path="url(#pbe805e4f30)" d="M 488.945455 567 
L 488.945455 77.76 
" style="fill:none;stroke:#ffffff;stroke-linecap:round;"/>
     </g>
     <g id="text_4">
      <!-- 30 -->
      <g style="fill:#262626;" transform="translate(481.946705 584.858281)scale(0.11 -0.11)">
       <defs>
        <path d="M 2597 2516 
Q 3050 2419 3304 2112 
Q 3559 1806 3559 1356 
Q 3559 666 3084 287 
Q 2609 -91 1734 -91 
Q 1441 -91 1130 -33 
Q 819 25 488 141 
L 488 750 
Q 750 597 1062 519 
Q 1375 441 1716 441 
Q 2309 441 2620 675 
Q 2931 909 2931 1356 
Q 2931 1769 2642 2001 
Q 2353 2234 1838 2234 
L 1294 2234 
L 1294 2753 
L 1863 2753 
Q 2328 2753 2575 2939 
Q 2822 3125 2822 3475 
Q 2822 3834 2567 4026 
Q 2313 4219 1838 4219 
Q 1578 4219 1281 4162 
Q 984 4106 628 3988 
L 628 4550 
Q 988 4650 1302 4700 
Q 1616 4750 1894 4750 
Q 2613 4750 3031 4423 
Q 3450 4097 3450 3541 
Q 3450 3153 3228 2886 
Q 3006 2619 2597 2516 
z
" id="DejaVuSans-33" transform="scale(0.015625)"/>
       </defs>
       <use xlink:href="#DejaVuSans-33"/>
       <use x="63.623047" xlink:href="#DejaVuSans-30"/>
      </g>
     </g>
    </g>
    <g id="xtick_5">
     <g id="line2d_5">
      <path clip-path="url(#pbe805e4f30)" d="M 590.4 567 
L 590.4 77.76 
" style="fill:none;stroke:#ffffff;stroke-linecap:round;"/>
     </g>
     <g id="text_5">
      <!-- 40 -->
      <g style="fill:#262626;" transform="translate(583.40125 584.858281)scale(0.11 -0.11)">
       <defs>
        <path d="M 2419 4116 
L 825 1625 
L 2419 1625 
L 2419 4116 
z
M 2253 4666 
L 3047 4666 
L 3047 1625 
L 3713 1625 
L 3713 1100 
L 3047 1100 
L 3047 0 
L 2419 0 
L 2419 1100 
L 313 1100 
L 313 1709 
L 2253 4666 
z
" id="DejaVuSans-34" transform="scale(0.015625)"/>
       </defs>
       <use xlink:href="#DejaVuSans-34"/>
       <use x="63.623047" xlink:href="#DejaVuSans-30"/>
      </g>
     </g>
    </g>
    <g id="xtick_6">
     <g id="line2d_6">
      <path clip-path="url(#pbe805e4f30)" d="M 691.854545 567 
L 691.854545 77.76 
" style="fill:none;stroke:#ffffff;stroke-linecap:round;"/>
     </g>
     <g id="text_6">
      <!-- 50 -->
      <g style="fill:#262626;" transform="translate(684.855795 584.858281)scale(0.11 -0.11)">
       <defs>
        <path d="M 691 4666 
L 3169 4666 
L 3169 4134 
L 1269 4134 
L 1269 2991 
Q 1406 3038 1543 3061 
Q 1681 3084 1819 3084 
Q 2600 3084 3056 2656 
Q 3513 2228 3513 1497 
Q 3513 744 3044 326 
Q 2575 -91 1722 -91 
Q 1428 -91 1123 -41 
Q 819 9 494 109 
L 494 744 
Q 775 591 1075 516 
Q 1375 441 1709 441 
Q 2250 441 2565 725 
Q 2881 1009 2881 1497 
Q 2881 1984 2565 2268 
Q 2250 2553 1709 2553 
Q 1456 2553 1204 2497 
Q 953 2441 691 2322 
L 691 4666 
z
" id="DejaVuSans-35" transform="scale(0.015625)"/>
       </defs>
       <use xlink:href="#DejaVuSans-35"/>
       <use x="63.623047" xlink:href="#DejaVuSans-30"/>
      </g>
     </g>
    </g>
    <g id="xtick_7">
     <g id="line2d_7">
      <path clip-path="url(#pbe805e4f30)" d="M 793.309091 567 
L 793.309091 77.76 
" style="fill:none;stroke:#ffffff;stroke-linecap:round;"/>
     </g>
     <g id="text_7">
      <!-- 60 -->
      <g style="fill:#262626;" transform="translate(786.310341 584.858281)scale(0.11 -0.11)">
       <defs>
        <path d="M 2113 2584 
Q 1688 2584 1439 2293 
Q 1191 2003 1191 1497 
Q 1191 994 1439 701 
Q 1688 409 2113 409 
Q 2538 409 2786 701 
Q 3034 994 3034 1497 
Q 3034 2003 2786 2293 
Q 2538 2584 2113 2584 
z
M 3366 4563 
L 3366 3988 
Q 3128 4100 2886 4159 
Q 2644 4219 2406 4219 
Q 1781 4219 1451 3797 
Q 1122 3375 1075 2522 
Q 1259 2794 1537 2939 
Q 1816 3084 2150 3084 
Q 2853 3084 3261 2657 
Q 3669 2231 3669 1497 
Q 3669 778 3244 343 
Q 2819 -91 2113 -91 
Q 1303 -91 875 529 
Q 447 1150 447 2328 
Q 447 3434 972 4092 
Q 1497 4750 2381 4750 
Q 2619 4750 2861 4703 
Q 3103 4656 3366 4563 
z
" id="DejaVuSans-36" transform="scale(0.015625)"/>
       </defs>
       <use xlink:href="#DejaVuSans-36"/>
       <use x="63.623047" xlink:href="#DejaVuSans-30"/>
      </g>
     </g>
    </g>
    <g id="xtick_8">
     <g id="line2d_8">
      <path clip-path="url(#pbe805e4f30)" d="M 894.763636 567 
L 894.763636 77.76 
" style="fill:none;stroke:#ffffff;stroke-linecap:round;"/>
     </g>
     <g id="text_8">
      <!-- 70 -->
      <g style="fill:#262626;" transform="translate(887.764886 584.858281)scale(0.11 -0.11)">
       <defs>
        <path d="M 525 4666 
L 3525 4666 
L 3525 4397 
L 1831 0 
L 1172 0 
L 2766 4134 
L 525 4134 
L 525 4666 
z
" id="DejaVuSans-37" transform="scale(0.015625)"/>
       </defs>
       <use xlink:href="#DejaVuSans-37"/>
       <use x="63.623047" xlink:href="#DejaVuSans-30"/>
      </g>
     </g>
    </g>
    <g id="xtick_9">
     <g id="line2d_9">
      <path clip-path="url(#pbe805e4f30)" d="M 996.218182 567 
L 996.218182 77.76 
" style="fill:none;stroke:#ffffff;stroke-linecap:round;"/>
     </g>
     <g id="text_9">
      <!-- 80 -->
      <g style="fill:#262626;" transform="translate(989.219432 584.858281)scale(0.11 -0.11)">
       <defs>
        <path d="M 2034 2216 
Q 1584 2216 1326 1975 
Q 1069 1734 1069 1313 
Q 1069 891 1326 650 
Q 1584 409 2034 409 
Q 2484 409 2743 651 
Q 3003 894 3003 1313 
Q 3003 1734 2745 1975 
Q 2488 2216 2034 2216 
z
M 1403 2484 
Q 997 2584 770 2862 
Q 544 3141 544 3541 
Q 544 4100 942 4425 
Q 1341 4750 2034 4750 
Q 2731 4750 3128 4425 
Q 3525 4100 3525 3541 
Q 3525 3141 3298 2862 
Q 3072 2584 2669 2484 
Q 3125 2378 3379 2068 
Q 3634 1759 3634 1313 
Q 3634 634 3220 271 
Q 2806 -91 2034 -91 
Q 1263 -91 848 271 
Q 434 634 434 1313 
Q 434 1759 690 2068 
Q 947 2378 1403 2484 
z
M 1172 3481 
Q 1172 3119 1398 2916 
Q 1625 2713 2034 2713 
Q 2441 2713 2670 2916 
Q 2900 3119 2900 3481 
Q 2900 3844 2670 4047 
Q 2441 4250 2034 4250 
Q 1625 4250 1398 4047 
Q 1172 3844 1172 3481 
z
" id="DejaVuSans-38" transform="scale(0.015625)"/>
       </defs>
       <use xlink:href="#DejaVuSans-38"/>
       <use x="63.623047" xlink:href="#DejaVuSans-30"/>
      </g>
     </g>
    </g>
    <g id="text_10">
     <!-- epoch -->
     <g style="fill:#262626;" transform="translate(572.12625 600.264063)scale(0.12 -0.12)">
      <defs>
       <path d="M 3597 1894 
L 3597 1613 
L 953 1613 
Q 991 1019 1311 708 
Q 1631 397 2203 397 
Q 2534 397 2845 478 
Q 3156 559 3463 722 
L 3463 178 
Q 3153 47 2828 -22 
Q 2503 -91 2169 -91 
Q 1331 -91 842 396 
Q 353 884 353 1716 
Q 353 2575 817 3079 
Q 1281 3584 2069 3584 
Q 2775 3584 3186 3129 
Q 3597 2675 3597 1894 
z
M 3022 2063 
Q 3016 2534 2758 2815 
Q 2500 3097 2075 3097 
Q 1594 3097 1305 2825 
Q 1016 2553 972 2059 
L 3022 2063 
z
" id="DejaVuSans-65" transform="scale(0.015625)"/>
       <path d="M 1159 525 
L 1159 -1331 
L 581 -1331 
L 581 3500 
L 1159 3500 
L 1159 2969 
Q 1341 3281 1617 3432 
Q 1894 3584 2278 3584 
Q 2916 3584 3314 3078 
Q 3713 2572 3713 1747 
Q 3713 922 3314 415 
Q 2916 -91 2278 -91 
Q 1894 -91 1617 61 
Q 1341 213 1159 525 
z
M 3116 1747 
Q 3116 2381 2855 2742 
Q 2594 3103 2138 3103 
Q 1681 3103 1420 2742 
Q 1159 2381 1159 1747 
Q 1159 1113 1420 752 
Q 1681 391 2138 391 
Q 2594 391 2855 752 
Q 3116 1113 3116 1747 
z
" id="DejaVuSans-70" transform="scale(0.015625)"/>
       <path d="M 1959 3097 
Q 1497 3097 1228 2736 
Q 959 2375 959 1747 
Q 959 1119 1226 758 
Q 1494 397 1959 397 
Q 2419 397 2687 759 
Q 2956 1122 2956 1747 
Q 2956 2369 2687 2733 
Q 2419 3097 1959 3097 
z
M 1959 3584 
Q 2709 3584 3137 3096 
Q 3566 2609 3566 1747 
Q 3566 888 3137 398 
Q 2709 -91 1959 -91 
Q 1206 -91 779 398 
Q 353 888 353 1747 
Q 353 2609 779 3096 
Q 1206 3584 1959 3584 
z
" id="DejaVuSans-6f" transform="scale(0.015625)"/>
       <path d="M 3122 3366 
L 3122 2828 
Q 2878 2963 2633 3030 
Q 2388 3097 2138 3097 
Q 1578 3097 1268 2742 
Q 959 2388 959 1747 
Q 959 1106 1268 751 
Q 1578 397 2138 397 
Q 2388 397 2633 464 
Q 2878 531 3122 666 
L 3122 134 
Q 2881 22 2623 -34 
Q 2366 -91 2075 -91 
Q 1284 -91 818 406 
Q 353 903 353 1747 
Q 353 2603 823 3093 
Q 1294 3584 2113 3584 
Q 2378 3584 2631 3529 
Q 2884 3475 3122 3366 
z
" id="DejaVuSans-63" transform="scale(0.015625)"/>
       <path d="M 3513 2113 
L 3513 0 
L 2938 0 
L 2938 2094 
Q 2938 2591 2744 2837 
Q 2550 3084 2163 3084 
Q 1697 3084 1428 2787 
Q 1159 2491 1159 1978 
L 1159 0 
L 581 0 
L 581 4863 
L 1159 4863 
L 1159 2956 
Q 1366 3272 1645 3428 
Q 1925 3584 2291 3584 
Q 2894 3584 3203 3211 
Q 3513 2838 3513 2113 
z
" id="DejaVuSans-68" transform="scale(0.015625)"/>
      </defs>
      <use xlink:href="#DejaVuSans-65"/>
      <use x="61.523438" xlink:href="#DejaVuSans-70"/>
      <use x="125" xlink:href="#DejaVuSans-6f"/>
      <use x="186.181641" xlink:href="#DejaVuSans-63"/>
      <use x="241.162109" xlink:href="#DejaVuSans-68"/>
     </g>
    </g>
   </g>
   <g id="matplotlib.axis_2">
    <g id="ytick_1">
     <g id="line2d_10">
      <path clip-path="url(#pbe805e4f30)" d="M 144 544.761818 
L 1036.8 544.761818 
" style="fill:none;stroke:#ffffff;stroke-linecap:round;"/>
     </g>
     <g id="text_11">
      <!-- 0.0 -->
      <g style="fill:#262626;" transform="translate(117.006563 548.940959)scale(0.11 -0.11)">
       <defs>
        <path d="M 684 794 
L 1344 794 
L 1344 0 
L 684 0 
L 684 794 
z
" id="DejaVuSans-2e" transform="scale(0.015625)"/>
       </defs>
       <use xlink:href="#DejaVuSans-30"/>
       <use x="63.623047" xlink:href="#DejaVuSans-2e"/>
       <use x="95.410156" xlink:href="#DejaVuSans-30"/>
      </g>
     </g>
    </g>
    <g id="ytick_2">
     <g id="line2d_11">
      <path clip-path="url(#pbe805e4f30)" d="M 144 460.860579 
L 1036.8 460.860579 
" style="fill:none;stroke:#ffffff;stroke-linecap:round;"/>
     </g>
     <g id="text_12">
      <!-- 0.5 -->
      <g style="fill:#262626;" transform="translate(117.006563 465.039719)scale(0.11 -0.11)">
       <use xlink:href="#DejaVuSans-30"/>
       <use x="63.623047" xlink:href="#DejaVuSans-2e"/>
       <use x="95.410156" xlink:href="#DejaVuSans-35"/>
      </g>
     </g>
    </g>
    <g id="ytick_3">
     <g id="line2d_12">
      <path clip-path="url(#pbe805e4f30)" d="M 144 376.95934 
L 1036.8 376.95934 
" style="fill:none;stroke:#ffffff;stroke-linecap:round;"/>
     </g>
     <g id="text_13">
      <!-- 1.0 -->
      <g style="fill:#262626;" transform="translate(117.006563 381.13848)scale(0.11 -0.11)">
       <use xlink:href="#DejaVuSans-31"/>
       <use x="63.623047" xlink:href="#DejaVuSans-2e"/>
       <use x="95.410156" xlink:href="#DejaVuSans-30"/>
      </g>
     </g>
    </g>
    <g id="ytick_4">
     <g id="line2d_13">
      <path clip-path="url(#pbe805e4f30)" d="M 144 293.0581 
L 1036.8 293.0581 
" style="fill:none;stroke:#ffffff;stroke-linecap:round;"/>
     </g>
     <g id="text_14">
      <!-- 1.5 -->
      <g style="fill:#262626;" transform="translate(117.006563 297.237241)scale(0.11 -0.11)">
       <use xlink:href="#DejaVuSans-31"/>
       <use x="63.623047" xlink:href="#DejaVuSans-2e"/>
       <use x="95.410156" xlink:href="#DejaVuSans-35"/>
      </g>
     </g>
    </g>
    <g id="ytick_5">
     <g id="line2d_14">
      <path clip-path="url(#pbe805e4f30)" d="M 144 209.156861 
L 1036.8 209.156861 
" style="fill:none;stroke:#ffffff;stroke-linecap:round;"/>
     </g>
     <g id="text_15">
      <!-- 2.0 -->
      <g style="fill:#262626;" transform="translate(117.006563 213.336002)scale(0.11 -0.11)">
       <use xlink:href="#DejaVuSans-32"/>
       <use x="63.623047" xlink:href="#DejaVuSans-2e"/>
       <use x="95.410156" xlink:href="#DejaVuSans-30"/>
      </g>
     </g>
    </g>
    <g id="ytick_6">
     <g id="line2d_15">
      <path clip-path="url(#pbe805e4f30)" d="M 144 125.255622 
L 1036.8 125.255622 
" style="fill:none;stroke:#ffffff;stroke-linecap:round;"/>
     </g>
     <g id="text_16">
      <!-- 2.5 -->
      <g style="fill:#262626;" transform="translate(117.006563 129.434762)scale(0.11 -0.11)">
       <use xlink:href="#DejaVuSans-32"/>
       <use x="63.623047" xlink:href="#DejaVuSans-2e"/>
       <use x="95.410156" xlink:href="#DejaVuSans-35"/>
      </g>
     </g>
    </g>
    <g id="text_17">
     <!-- lowest -->
     <g style="fill:#262626;" transform="translate(110.510937 341.794688)rotate(-90)scale(0.12 -0.12)">
      <defs>
       <path d="M 603 4863 
L 1178 4863 
L 1178 0 
L 603 0 
L 603 4863 
z
" id="DejaVuSans-6c" transform="scale(0.015625)"/>
       <path d="M 269 3500 
L 844 3500 
L 1563 769 
L 2278 3500 
L 2956 3500 
L 3675 769 
L 4391 3500 
L 4966 3500 
L 4050 0 
L 3372 0 
L 2619 2869 
L 1863 0 
L 1184 0 
L 269 3500 
z
" id="DejaVuSans-77" transform="scale(0.015625)"/>
       <path d="M 2834 3397 
L 2834 2853 
Q 2591 2978 2328 3040 
Q 2066 3103 1784 3103 
Q 1356 3103 1142 2972 
Q 928 2841 928 2578 
Q 928 2378 1081 2264 
Q 1234 2150 1697 2047 
L 1894 2003 
Q 2506 1872 2764 1633 
Q 3022 1394 3022 966 
Q 3022 478 2636 193 
Q 2250 -91 1575 -91 
Q 1294 -91 989 -36 
Q 684 19 347 128 
L 347 722 
Q 666 556 975 473 
Q 1284 391 1588 391 
Q 1994 391 2212 530 
Q 2431 669 2431 922 
Q 2431 1156 2273 1281 
Q 2116 1406 1581 1522 
L 1381 1569 
Q 847 1681 609 1914 
Q 372 2147 372 2553 
Q 372 3047 722 3315 
Q 1072 3584 1716 3584 
Q 2034 3584 2315 3537 
Q 2597 3491 2834 3397 
z
" id="DejaVuSans-73" transform="scale(0.015625)"/>
       <path d="M 1172 4494 
L 1172 3500 
L 2356 3500 
L 2356 3053 
L 1172 3053 
L 1172 1153 
Q 1172 725 1289 603 
Q 1406 481 1766 481 
L 2356 481 
L 2356 0 
L 1766 0 
Q 1100 0 847 248 
Q 594 497 594 1153 
L 594 3053 
L 172 3053 
L 172 3500 
L 594 3500 
L 594 4494 
L 1172 4494 
z
" id="DejaVuSans-74" transform="scale(0.015625)"/>
      </defs>
      <use xlink:href="#DejaVuSans-6c"/>
      <use x="27.783203" xlink:href="#DejaVuSans-6f"/>
      <use x="88.964844" xlink:href="#DejaVuSans-77"/>
      <use x="170.751953" xlink:href="#DejaVuSans-65"/>
      <use x="232.275391" xlink:href="#DejaVuSans-73"/>
      <use x="284.375" xlink:href="#DejaVuSans-74"/>
     </g>
    </g>
   </g>
   <g id="PolyCollection_1">
    <defs>
     <path d="M 184.581818 -512.558931 
L 184.581818 -512.558931 
L 194.727273 -512.554932 
L 204.872727 -512.439219 
L 215.018182 -518.130782 
L 225.163636 -518.623208 
L 235.309091 -518.388359 
L 245.454545 -518.57238 
L 255.6 -520.459734 
L 265.745455 -518.343175 
L 275.890909 -515.116881 
L 286.036364 -519.404541 
L 296.181818 -509.652808 
L 306.327273 -518.422751 
L 316.472727 -520.240226 
L 326.618182 -516.350941 
L 336.763636 -517.100813 
L 346.909091 -514.960398 
L 357.054545 -516.162516 
L 367.2 -515.593701 
L 377.345455 -513.702595 
L 387.490909 -516.281207 
L 397.636364 -512.289165 
L 407.781818 -515.677696 
L 417.927273 -511.518725 
L 428.072727 -516.476697 
L 438.218182 -512.606851 
L 448.363636 -516.55495 
L 458.509091 -514.853237 
L 468.654545 -516.408672 
L 478.8 -514.062986 
L 488.945455 -515.474279 
L 499.090909 -514.175389 
L 509.236364 -514.685423 
L 519.381818 -513.808537 
L 529.527273 -514.488727 
L 539.672727 -513.397214 
L 549.818182 -514.37337 
L 559.963636 -512.949377 
L 570.109091 -514.198031 
L 580.254545 -512.892174 
L 590.4 -514.126548 
L 600.545455 -512.822898 
L 610.690909 -514.221706 
L 620.836364 -512.637054 
L 630.981818 -514.155002 
L 641.127273 -512.796513 
L 651.272727 -514.074857 
L 661.418182 -513.1114 
L 671.563636 -513.88105 
L 681.709091 -513.327061 
L 691.854545 -513.766619 
L 702 -513.612376 
L 712.145455 -513.565673 
L 722.290909 -513.753109 
L 732.436364 -513.427866 
L 742.581818 -513.605232 
L 752.727273 -513.963991 
L 762.872727 -513.379456 
L 773.018182 -514.098951 
L 783.163636 -513.095246 
L 793.309091 -514.385666 
L 803.454545 -512.725432 
L 813.6 -514.116527 
L 823.745455 -512.568367 
L 833.890909 -514.027685 
L 844.036364 -512.35901 
L 854.181818 -514.138247 
L 864.327273 -512.807784 
L 874.472727 -513.981165 
L 884.618182 -513.004383 
L 894.763636 -514.055287 
L 904.909091 -513.20462 
L 915.054545 -514.191114 
L 925.2 -513.36798 
L 935.345455 -513.919998 
L 945.490909 -513.427885 
L 955.636364 -513.999905 
L 965.781818 -513.639321 
L 975.927273 -514.122553 
L 986.072727 -513.57025 
L 996.218182 -514.009674 
L 996.218182 -543.630184 
L 996.218182 -543.630184 
L 986.072727 -546.379406 
L 975.927273 -543.393318 
L 965.781818 -546.840324 
L 955.636364 -543.267651 
L 945.490909 -545.64336 
L 935.345455 -543.226603 
L 925.2 -545.034512 
L 915.054545 -543.173107 
L 904.909091 -544.406396 
L 894.763636 -543.367869 
L 884.618182 -542.604746 
L 874.472727 -544.211914 
L 864.327273 -541.934261 
L 854.181818 -545.752214 
L 844.036364 -541.941749 
L 833.890909 -545.33109 
L 823.745455 -544.075229 
L 813.6 -542.934761 
L 803.454545 -544.32708 
L 793.309091 -542.04769 
L 783.163636 -545.039851 
L 773.018182 -542.076278 
L 762.872727 -544.351983 
L 752.727273 -542.742159 
L 742.581818 -543.50151 
L 732.436364 -543.149952 
L 722.290909 -542.361695 
L 712.145455 -544.078622 
L 702 -540.624498 
L 691.854545 -544.637191 
L 681.709091 -541.338727 
L 671.563636 -548.001818 
L 661.418182 -538.473549 
L 651.272727 -545.867376 
L 641.127273 -536.587565 
L 630.981818 -544.734754 
L 620.836364 -538.881203 
L 610.690909 -544.043353 
L 600.545455 -540.695472 
L 590.4 -542.842876 
L 580.254545 -541.035644 
L 570.109091 -542.01793 
L 559.963636 -539.974071 
L 549.818182 -541.588609 
L 539.672727 -537.948641 
L 529.527273 -540.322999 
L 519.381818 -534.479227 
L 509.236364 -540.506651 
L 499.090909 -537.065478 
L 488.945455 -540.808647 
L 478.8 -539.679933 
L 468.654545 -532.725993 
L 458.509091 -542.948383 
L 448.363636 -529.363742 
L 438.218182 -543.496949 
L 428.072727 -533.150965 
L 417.927273 -541.464731 
L 407.781818 -536.982268 
L 397.636364 -540.435584 
L 387.490909 -537.939455 
L 377.345455 -535.562082 
L 367.2 -530.611009 
L 357.054545 -529.320756 
L 346.909091 -528.073806 
L 336.763636 -529.299424 
L 326.618182 -530.998645 
L 316.472727 -521.963861 
L 306.327273 -530.108259 
L 296.181818 -520.920681 
L 286.036364 -532.196175 
L 275.890909 -522.044424 
L 265.745455 -534.882661 
L 255.6 -522.040096 
L 245.454545 -522.348594 
L 235.309091 -528.596511 
L 225.163636 -519.451922 
L 215.018182 -522.719264 
L 204.872727 -515.708008 
L 194.727273 -512.554932 
L 184.581818 -512.558931 
z
" id="m884ece7211" style="stroke:#4c72b0;stroke-opacity:0.2;"/>
    </defs>
    <g clip-path="url(#pbe805e4f30)">
     <use style="fill:#4c72b0;fill-opacity:0.2;stroke:#4c72b0;stroke-opacity:0.2;" x="0" xlink:href="#m884ece7211" y="648"/>
    </g>
   </g>
   <g id="PolyCollection_2">
    <defs>
     <path d="M 184.581818 -394.915643 
L 184.581818 -394.915643 
L 194.727273 -394.929954 
L 204.872727 -391.806827 
L 215.018182 -393.253717 
L 225.163636 -392.843944 
L 235.309091 -394.766861 
L 245.454545 -393.736393 
L 255.6 -396.396561 
L 265.745455 -395.030011 
L 275.890909 -399.958766 
L 286.036364 -396.679377 
L 296.181818 -400.522258 
L 306.327273 -397.747284 
L 316.472727 -401.305918 
L 326.618182 -399.592625 
L 336.763636 -402.314143 
L 346.909091 -399.886128 
L 357.054545 -401.959282 
L 367.2 -399.570663 
L 377.345455 -402.334149 
L 387.490909 -400.97259 
L 397.636364 -401.744333 
L 407.781818 -402.727367 
L 417.927273 -401.84414 
L 428.072727 -403.004371 
L 438.218182 -402.743677 
L 448.363636 -403.878292 
L 458.509091 -404.096625 
L 468.654545 -403.443747 
L 478.8 -405.131537 
L 488.945455 -404.034786 
L 499.090909 -405.689399 
L 509.236364 -404.298454 
L 519.381818 -405.948435 
L 529.527273 -404.675673 
L 539.672727 -407.072811 
L 549.818182 -405.506224 
L 559.963636 -407.623225 
L 570.109091 -405.978194 
L 580.254545 -407.738521 
L 590.4 -406.400018 
L 600.545455 -407.763996 
L 610.690909 -406.47537 
L 620.836364 -407.564661 
L 630.981818 -406.892383 
L 641.127273 -407.850735 
L 651.272727 -407.25635 
L 661.418182 -407.649245 
L 671.563636 -407.842838 
L 681.709091 -407.497011 
L 691.854545 -408.371717 
L 702 -407.500216 
L 712.145455 -408.900688 
L 722.290909 -407.647853 
L 732.436364 -409.099887 
L 742.581818 -407.879246 
L 752.727273 -409.124751 
L 762.872727 -408.275672 
L 773.018182 -409.1036 
L 783.163636 -408.695847 
L 793.309091 -409.103291 
L 803.454545 -409.017493 
L 813.6 -408.652421 
L 823.745455 -409.15023 
L 833.890909 -408.682536 
L 844.036364 -409.376896 
L 854.181818 -408.408633 
L 864.327273 -409.539552 
L 874.472727 -408.053597 
L 884.618182 -409.470935 
L 894.763636 -408.037987 
L 904.909091 -409.567511 
L 915.054545 -408.28087 
L 925.2 -409.602538 
L 935.345455 -408.624896 
L 945.490909 -409.733445 
L 955.636364 -408.913855 
L 965.781818 -409.719867 
L 975.927273 -409.039919 
L 986.072727 -409.297352 
L 996.218182 -409.23375 
L 996.218182 -412.671462 
L 996.218182 -412.671462 
L 986.072727 -413.513379 
L 975.927273 -412.359804 
L 965.781818 -413.852133 
L 955.636364 -412.346005 
L 945.490909 -414.00121 
L 935.345455 -411.972662 
L 925.2 -413.883166 
L 915.054545 -411.962484 
L 904.909091 -414.239797 
L 894.763636 -411.375917 
L 884.618182 -414.824021 
L 874.472727 -410.474532 
L 864.327273 -415.221393 
L 854.181818 -410.824096 
L 844.036364 -415.143418 
L 833.890909 -411.849738 
L 823.745455 -414.734582 
L 813.6 -412.341532 
L 803.454545 -413.823614 
L 793.309091 -412.945868 
L 783.163636 -413.053474 
L 773.018182 -413.555638 
L 762.872727 -412.102777 
L 752.727273 -414.54862 
L 742.581818 -410.799975 
L 732.436364 -414.869333 
L 722.290909 -410.788959 
L 712.145455 -415.470828 
L 702 -409.95034 
L 691.854545 -414.950342 
L 681.709091 -410.103849 
L 671.563636 -415.025397 
L 661.418182 -411.058848 
L 651.272727 -412.011758 
L 641.127273 -411.733843 
L 630.981818 -410.475953 
L 620.836364 -412.836728 
L 610.690909 -410.043919 
L 600.545455 -413.379083 
L 590.4 -409.303469 
L 580.254545 -412.189545 
L 570.109091 -411.521118 
L 559.963636 -409.749411 
L 549.818182 -411.29211 
L 539.672727 -407.60541 
L 529.527273 -412.995266 
L 519.381818 -407.184786 
L 509.236364 -414.190219 
L 499.090909 -406.999051 
L 488.945455 -413.80395 
L 478.8 -408.394048 
L 468.654545 -410.214992 
L 458.509091 -408.051661 
L 448.363636 -409.021914 
L 438.218182 -409.210481 
L 428.072727 -410.128993 
L 417.927273 -411.655473 
L 407.781818 -410.786868 
L 397.636364 -411.668406 
L 387.490909 -411.150705 
L 377.345455 -409.081063 
L 367.2 -410.429785 
L 357.054545 -408.564231 
L 346.909091 -410.384539 
L 336.763636 -410.577471 
L 326.618182 -406.763805 
L 316.472727 -409.93269 
L 306.327273 -404.172974 
L 296.181818 -411.247518 
L 286.036364 -401.929493 
L 275.890909 -411.391698 
L 265.745455 -395.964362 
L 255.6 -414.386784 
L 245.454545 -395.421898 
L 235.309091 -404.078448 
L 225.163636 -395.972309 
L 215.018182 -397.164898 
L 204.872727 -394.585182 
L 194.727273 -394.929954 
L 184.581818 -394.915643 
z
" id="mdcf36dd1bd" style="stroke:#4c72b0;stroke-opacity:0.2;"/>
    </defs>
    <g clip-path="url(#pbe805e4f30)">
     <use style="fill:#4c72b0;fill-opacity:0.2;stroke:#4c72b0;stroke-opacity:0.2;" x="0" xlink:href="#mdcf36dd1bd" y="648"/>
    </g>
   </g>
   <g id="PolyCollection_3">
    <defs>
     <path d="M 184.581818 -236.615465 
L 184.581818 -236.615465 
L 194.727273 -236.618377 
L 204.872727 -236.306438 
L 215.018182 -231.938725 
L 225.163636 -232.731121 
L 235.309091 -231.350636 
L 245.454545 -230.550655 
L 255.6 -229.64862 
L 265.745455 -229.020337 
L 275.890909 -227.853427 
L 286.036364 -228.522073 
L 296.181818 -227.744068 
L 306.327273 -228.859711 
L 316.472727 -227.453484 
L 326.618182 -229.042012 
L 336.763636 -225.232988 
L 346.909091 -228.46171 
L 357.054545 -222.367124 
L 367.2 -227.073199 
L 377.345455 -222.589346 
L 387.490909 -227.120983 
L 397.636364 -222.970374 
L 407.781818 -225.190491 
L 417.927273 -223.427145 
L 428.072727 -223.556908 
L 438.218182 -224.700546 
L 448.363636 -222.265174 
L 458.509091 -225.204769 
L 468.654545 -221.142344 
L 478.8 -224.653685 
L 488.945455 -220.670871 
L 499.090909 -224.17351 
L 509.236364 -220.775216 
L 519.381818 -224.012762 
L 529.527273 -220.446953 
L 539.672727 -223.176393 
L 549.818182 -220.453178 
L 559.963636 -222.140086 
L 570.109091 -219.454172 
L 580.254545 -221.241239 
L 590.4 -219.287923 
L 600.545455 -220.352455 
L 610.690909 -219.453644 
L 620.836364 -220.368078 
L 630.981818 -220.886479 
L 641.127273 -220.600569 
L 651.272727 -221.567909 
L 661.418182 -220.660163 
L 671.563636 -221.884239 
L 681.709091 -220.283449 
L 691.854545 -222.662726 
L 702 -219.717511 
L 712.145455 -223.139767 
L 722.290909 -221.109455 
L 732.436364 -222.486538 
L 742.581818 -218.632278 
L 752.727273 -221.829205 
L 762.872727 -218.878726 
L 773.018182 -220.772515 
L 783.163636 -218.884409 
L 793.309091 -221.656132 
L 803.454545 -219.64094 
L 813.6 -220.136004 
L 823.745455 -219.881618 
L 833.890909 -219.99878 
L 844.036364 -220.529253 
L 854.181818 -219.828864 
L 864.327273 -220.719531 
L 874.472727 -219.717193 
L 884.618182 -220.8375 
L 894.763636 -219.44952 
L 904.909091 -220.981773 
L 915.054545 -219.909101 
L 925.2 -221.675046 
L 935.345455 -220.493879 
L 945.490909 -221.847187 
L 955.636364 -220.927078 
L 965.781818 -222.186845 
L 975.927273 -221.935656 
L 986.072727 -221.920731 
L 996.218182 -221.672071 
L 996.218182 -232.243466 
L 996.218182 -232.243466 
L 986.072727 -229.690605 
L 975.927273 -232.297949 
L 965.781818 -232.261814 
L 955.636364 -232.187033 
L 945.490909 -232.196118 
L 935.345455 -232.108725 
L 925.2 -232.153657 
L 915.054545 -232.043774 
L 904.909091 -232.10346 
L 894.763636 -232.059927 
L 884.618182 -232.092778 
L 874.472727 -232.027326 
L 864.327273 -232.110822 
L 854.181818 -232.111886 
L 844.036364 -232.133106 
L 833.890909 -232.160462 
L 823.745455 -232.109218 
L 813.6 -232.12698 
L 803.454545 -232.075303 
L 793.309091 -232.116612 
L 783.163636 -232.11751 
L 773.018182 -232.144099 
L 762.872727 -232.154311 
L 752.727273 -232.134642 
L 742.581818 -232.193165 
L 732.436364 -232.239605 
L 722.290909 -232.187731 
L 712.145455 -232.185634 
L 702 -232.217027 
L 691.854545 -232.242065 
L 681.709091 -232.157205 
L 671.563636 -232.131351 
L 661.418182 -232.11873 
L 651.272727 -232.080354 
L 641.127273 -232.068359 
L 630.981818 -232.030531 
L 620.836364 -232.020019 
L 610.690909 -231.975264 
L 600.545455 -231.947229 
L 590.4 -231.925563 
L 580.254545 -231.916356 
L 570.109091 -231.967059 
L 559.963636 -231.900362 
L 549.818182 -231.817426 
L 539.672727 -231.7535 
L 529.527273 -231.756393 
L 519.381818 -231.820324 
L 509.236364 -231.934667 
L 499.090909 -231.934821 
L 488.945455 -232.117763 
L 478.8 -230.185462 
L 468.654545 -232.269721 
L 458.509091 -232.335738 
L 448.363636 -232.369743 
L 438.218182 -232.432863 
L 428.072727 -232.525892 
L 417.927273 -232.684572 
L 407.781818 -232.826911 
L 397.636364 -232.988136 
L 387.490909 -233.234472 
L 377.345455 -233.412918 
L 367.2 -233.625803 
L 357.054545 -233.911251 
L 346.909091 -234.145601 
L 336.763636 -234.359646 
L 326.618182 -233.097137 
L 316.472727 -234.591396 
L 306.327273 -234.636063 
L 296.181818 -234.688338 
L 286.036364 -234.782534 
L 275.890909 -234.852641 
L 265.745455 -234.97462 
L 255.6 -235.194856 
L 245.454545 -235.507015 
L 235.309091 -236.03221 
L 225.163636 -236.506669 
L 215.018182 -237.034568 
L 204.872727 -237.995564 
L 194.727273 -236.618377 
L 184.581818 -236.615465 
z
" id="mcdd00d6589" style="stroke:#4c72b0;stroke-opacity:0.2;"/>
    </defs>
    <g clip-path="url(#pbe805e4f30)">
     <use style="fill:#4c72b0;fill-opacity:0.2;stroke:#4c72b0;stroke-opacity:0.2;" x="0" xlink:href="#mcdd00d6589" y="648"/>
    </g>
   </g>
   <g id="PolyCollection_4">
    <defs>
     <path d="M 184.581818 -512.558931 
L 184.581818 -512.558931 
L 194.727273 -512.558931 
L 204.872727 -184.460896 
L 215.018182 -187.873571 
L 225.163636 -175.214434 
L 235.309091 -166.686242 
L 245.454545 -147.845497 
L 255.6 -136.971507 
L 265.745455 -148.145534 
L 275.890909 -108.287142 
L 286.036364 -112.659112 
L 296.181818 -103.238182 
L 306.327273 -103.238182 
L 316.472727 -103.238182 
L 326.618182 -103.238182 
L 336.763636 -103.238182 
L 346.909091 -103.238182 
L 357.054545 -103.238182 
L 367.2 -103.238182 
L 377.345455 -103.238182 
L 387.490909 -103.238182 
L 397.636364 -103.238182 
L 407.781818 -103.238182 
L 417.927273 -103.238182 
L 428.072727 -103.238182 
L 438.218182 -103.238182 
L 448.363636 -103.238182 
L 458.509091 -103.238182 
L 468.654545 -103.238182 
L 478.8 -103.238182 
L 488.945455 -103.238182 
L 499.090909 -103.238182 
L 509.236364 -103.238182 
L 519.381818 -103.238182 
L 529.527273 -103.238182 
L 539.672727 -103.238182 
L 549.818182 -103.238182 
L 559.963636 -103.238182 
L 570.109091 -103.238182 
L 580.254545 -103.238182 
L 590.4 -103.238182 
L 600.545455 -103.238182 
L 610.690909 -103.238182 
L 620.836364 -103.238182 
L 630.981818 -103.238182 
L 641.127273 -103.238182 
L 651.272727 -103.238182 
L 661.418182 -103.238182 
L 671.563636 -103.238182 
L 681.709091 -103.238182 
L 691.854545 -103.238182 
L 702 -103.238182 
L 712.145455 -103.238182 
L 722.290909 -103.238182 
L 732.436364 -103.238182 
L 742.581818 -103.238182 
L 752.727273 -103.238182 
L 762.872727 -103.238182 
L 773.018182 -103.238182 
L 783.163636 -103.238182 
L 793.309091 -103.238182 
L 803.454545 -103.238182 
L 813.6 -103.238182 
L 823.745455 -103.238182 
L 833.890909 -103.238182 
L 844.036364 -103.238182 
L 854.181818 -103.238182 
L 864.327273 -103.238182 
L 874.472727 -103.238182 
L 884.618182 -103.238182 
L 894.763636 -103.238182 
L 904.909091 -103.238182 
L 915.054545 -103.238182 
L 925.2 -103.238182 
L 935.345455 -103.238182 
L 945.490909 -103.238182 
L 955.636364 -103.238182 
L 965.781818 -103.238182 
L 975.927273 -103.238182 
L 986.072727 -103.238182 
L 996.218182 -103.238182 
L 996.218182 -232.28477 
L 996.218182 -232.28477 
L 986.072727 -230.909668 
L 975.927273 -232.461365 
L 965.781818 -231.150521 
L 955.636364 -232.719723 
L 945.490909 -231.256728 
L 935.345455 -233.024566 
L 925.2 -231.194382 
L 915.054545 -233.337377 
L 904.909091 -231.074887 
L 894.763636 -233.933038 
L 884.618182 -230.65555 
L 874.472727 -234.305474 
L 864.327273 -230.446299 
L 854.181818 -234.689163 
L 844.036364 -230.471453 
L 833.890909 -235.11659 
L 823.745455 -230.752245 
L 813.6 -235.236527 
L 803.454545 -231.471521 
L 793.309091 -235.056646 
L 783.163636 -232.226591 
L 773.018182 -235.007515 
L 762.872727 -233.414875 
L 752.727273 -234.534339 
L 742.581818 -233.692724 
L 732.436364 -234.173892 
L 722.290909 -234.4323 
L 712.145455 -234.432692 
L 702 -235.301889 
L 691.854545 -234.745576 
L 681.709091 -236.482621 
L 671.563636 -234.287062 
L 661.418182 -237.820555 
L 651.272727 -232.918972 
L 641.127273 -238.775193 
L 630.981818 -232.366999 
L 620.836364 -239.026883 
L 610.690909 -233.074237 
L 600.545455 -241.430664 
L 590.4 -232.252358 
L 580.254545 -241.471533 
L 570.109091 -233.949195 
L 559.963636 -242.706816 
L 549.818182 -237.378884 
L 539.672727 -242.479765 
L 529.527273 -239.596312 
L 519.381818 -242.231262 
L 509.236364 -241.163013 
L 499.090909 -242.477387 
L 488.945455 -242.50894 
L 478.8 -242.064106 
L 468.654545 -240.350451 
L 458.509091 -243.509449 
L 448.363636 -240.217765 
L 438.218182 -239.894584 
L 428.072727 -244.906371 
L 417.927273 -242.894051 
L 407.781818 -251.469977 
L 397.636364 -248.556932 
L 387.490909 -254.285715 
L 377.345455 -249.33875 
L 367.2 -255.31888 
L 357.054545 -245.844827 
L 346.909091 -258.254431 
L 336.763636 -246.22631 
L 326.618182 -264.995 
L 316.472727 -259.368208 
L 306.327273 -266.403372 
L 296.181818 -272.769421 
L 286.036364 -267.384659 
L 275.890909 -285.581935 
L 265.745455 -269.232642 
L 255.6 -303.61181 
L 245.454545 -296.479755 
L 235.309091 -321.33108 
L 225.163636 -322.454995 
L 215.018182 -336.885511 
L 204.872727 -346.956317 
L 194.727273 -512.558931 
L 184.581818 -512.558931 
z
" id="mb14ca0644e" style="stroke:#dd8452;stroke-opacity:0.2;"/>
    </defs>
    <g clip-path="url(#pbe805e4f30)">
     <use style="fill:#dd8452;fill-opacity:0.2;stroke:#dd8452;stroke-opacity:0.2;" x="0" xlink:href="#mb14ca0644e" y="648"/>
    </g>
   </g>
   <g id="PolyCollection_5">
    <defs>
     <path d="M 184.581818 -394.915643 
L 184.581818 -394.915643 
L 194.727273 -394.915643 
L 204.872727 -103.238182 
L 215.018182 -103.238182 
L 225.163636 -103.238182 
L 235.309091 -103.238182 
L 245.454545 -103.238182 
L 255.6 -103.238182 
L 265.745455 -103.238182 
L 275.890909 -103.238182 
L 286.036364 -103.238182 
L 296.181818 -103.238182 
L 306.327273 -103.238182 
L 316.472727 -103.238182 
L 326.618182 -103.238182 
L 336.763636 -103.238182 
L 346.909091 -103.238182 
L 357.054545 -103.238182 
L 367.2 -103.238182 
L 377.345455 -103.238182 
L 387.490909 -103.238182 
L 397.636364 -103.238182 
L 407.781818 -103.238182 
L 417.927273 -103.238182 
L 428.072727 -103.238182 
L 438.218182 -103.238182 
L 448.363636 -103.238182 
L 458.509091 -103.238182 
L 468.654545 -103.238182 
L 478.8 -103.238182 
L 488.945455 -103.238182 
L 499.090909 -103.238182 
L 509.236364 -103.238182 
L 519.381818 -103.238182 
L 529.527273 -103.238182 
L 539.672727 -103.238182 
L 549.818182 -103.238182 
L 559.963636 -103.238182 
L 570.109091 -103.238182 
L 580.254545 -103.238182 
L 590.4 -103.238182 
L 600.545455 -103.238182 
L 610.690909 -103.238182 
L 620.836364 -103.238182 
L 630.981818 -103.238182 
L 641.127273 -103.238182 
L 651.272727 -103.238182 
L 661.418182 -103.238182 
L 671.563636 -103.238182 
L 681.709091 -103.238182 
L 691.854545 -103.238182 
L 702 -103.238182 
L 712.145455 -103.238182 
L 722.290909 -103.238182 
L 732.436364 -103.238182 
L 742.581818 -103.238182 
L 752.727273 -103.238182 
L 762.872727 -103.238182 
L 773.018182 -103.238182 
L 783.163636 -103.238182 
L 793.309091 -103.238182 
L 803.454545 -103.238182 
L 813.6 -103.238182 
L 823.745455 -103.238182 
L 833.890909 -103.238182 
L 844.036364 -103.238182 
L 854.181818 -103.238182 
L 864.327273 -103.238182 
L 874.472727 -103.238182 
L 884.618182 -103.238182 
L 894.763636 -103.238182 
L 904.909091 -103.238182 
L 915.054545 -103.238182 
L 925.2 -103.238182 
L 935.345455 -103.238182 
L 945.490909 -103.238182 
L 955.636364 -103.238182 
L 965.781818 -103.238182 
L 975.927273 -103.238182 
L 986.072727 -103.238182 
L 996.218182 -103.238182 
L 996.218182 -103.238182 
L 996.218182 -103.238182 
L 986.072727 -103.238182 
L 975.927273 -103.238182 
L 965.781818 -103.238182 
L 955.636364 -103.238182 
L 945.490909 -103.238182 
L 935.345455 -103.238182 
L 925.2 -103.238182 
L 915.054545 -103.238182 
L 904.909091 -103.238182 
L 894.763636 -103.238182 
L 884.618182 -103.238182 
L 874.472727 -103.238182 
L 864.327273 -103.238182 
L 854.181818 -103.238182 
L 844.036364 -103.238182 
L 833.890909 -103.238182 
L 823.745455 -103.238182 
L 813.6 -103.238182 
L 803.454545 -103.238182 
L 793.309091 -103.238182 
L 783.163636 -103.238182 
L 773.018182 -103.238182 
L 762.872727 -103.238182 
L 752.727273 -103.238182 
L 742.581818 -103.238182 
L 732.436364 -103.238182 
L 722.290909 -103.238182 
L 712.145455 -103.238182 
L 702 -103.238182 
L 691.854545 -103.238182 
L 681.709091 -103.238182 
L 671.563636 -103.238182 
L 661.418182 -103.238182 
L 651.272727 -103.238182 
L 641.127273 -103.238182 
L 630.981818 -103.238182 
L 620.836364 -103.238182 
L 610.690909 -103.238182 
L 600.545455 -103.238182 
L 590.4 -103.238182 
L 580.254545 -103.238182 
L 570.109091 -103.238182 
L 559.963636 -103.238182 
L 549.818182 -103.238182 
L 539.672727 -103.238182 
L 529.527273 -103.238182 
L 519.381818 -103.238182 
L 509.236364 -103.238182 
L 499.090909 -103.238182 
L 488.945455 -103.238182 
L 478.8 -103.238182 
L 468.654545 -103.238182 
L 458.509091 -103.238182 
L 448.363636 -103.238182 
L 438.218182 -103.238182 
L 428.072727 -103.238182 
L 417.927273 -103.238182 
L 407.781818 -103.238182 
L 397.636364 -103.238182 
L 387.490909 -103.238182 
L 377.345455 -103.238182 
L 367.2 -103.238182 
L 357.054545 -103.238182 
L 346.909091 -111.018968 
L 336.763636 -103.238182 
L 326.618182 -113.929855 
L 316.472727 -115.879584 
L 306.327273 -116.531708 
L 296.181818 -125.059286 
L 286.036364 -125.023124 
L 275.890909 -133.987765 
L 265.745455 -139.095094 
L 255.6 -153.088022 
L 245.454545 -154.702212 
L 235.309091 -165.405099 
L 225.163636 -178.763113 
L 215.018182 -204.498994 
L 204.872727 -208.567666 
L 194.727273 -394.915643 
L 184.581818 -394.915643 
z
" id="m23ceef722a" style="stroke:#dd8452;stroke-opacity:0.2;"/>
    </defs>
    <g clip-path="url(#pbe805e4f30)">
     <use style="fill:#dd8452;fill-opacity:0.2;stroke:#dd8452;stroke-opacity:0.2;" x="0" xlink:href="#m23ceef722a" y="648"/>
    </g>
   </g>
   <g id="PolyCollection_6">
    <defs>
     <path d="M 184.581818 -236.615465 
L 184.581818 -236.615465 
L 194.727273 -236.615465 
L 204.872727 -103.238182 
L 215.018182 -103.238182 
L 225.163636 -103.238182 
L 235.309091 -103.238182 
L 245.454545 -103.238182 
L 255.6 -103.238182 
L 265.745455 -103.238182 
L 275.890909 -103.238182 
L 286.036364 -103.238182 
L 296.181818 -103.238182 
L 306.327273 -103.238182 
L 316.472727 -103.238182 
L 326.618182 -103.238182 
L 336.763636 -103.238182 
L 346.909091 -103.238182 
L 357.054545 -103.238182 
L 367.2 -103.238182 
L 377.345455 -103.238182 
L 387.490909 -103.238182 
L 397.636364 -103.238182 
L 407.781818 -103.238182 
L 417.927273 -103.238182 
L 428.072727 -103.238182 
L 438.218182 -103.238182 
L 448.363636 -103.238182 
L 458.509091 -103.238182 
L 468.654545 -103.238182 
L 478.8 -103.238182 
L 488.945455 -103.238182 
L 499.090909 -103.238182 
L 509.236364 -103.238182 
L 519.381818 -103.238182 
L 529.527273 -103.238182 
L 539.672727 -103.238182 
L 549.818182 -103.238182 
L 559.963636 -103.238182 
L 570.109091 -103.238182 
L 580.254545 -103.238182 
L 590.4 -103.238182 
L 600.545455 -103.238182 
L 610.690909 -103.238182 
L 620.836364 -103.238182 
L 630.981818 -103.238182 
L 641.127273 -103.238182 
L 651.272727 -103.238182 
L 661.418182 -103.238182 
L 671.563636 -103.238182 
L 681.709091 -103.238182 
L 691.854545 -103.238182 
L 702 -103.238182 
L 712.145455 -103.238182 
L 722.290909 -103.238182 
L 732.436364 -103.238182 
L 742.581818 -103.238182 
L 752.727273 -103.238182 
L 762.872727 -103.238182 
L 773.018182 -103.238182 
L 783.163636 -103.238182 
L 793.309091 -103.238182 
L 803.454545 -103.238182 
L 813.6 -103.238182 
L 823.745455 -103.238182 
L 833.890909 -103.238182 
L 844.036364 -103.238182 
L 854.181818 -103.238182 
L 864.327273 -103.238182 
L 874.472727 -103.238182 
L 884.618182 -103.238182 
L 894.763636 -103.238182 
L 904.909091 -103.238182 
L 915.054545 -103.238182 
L 925.2 -103.238182 
L 935.345455 -103.238182 
L 945.490909 -103.238182 
L 955.636364 -103.238182 
L 965.781818 -103.238182 
L 975.927273 -103.238182 
L 986.072727 -103.238182 
L 996.218182 -103.238182 
L 996.218182 -103.238182 
L 996.218182 -103.238182 
L 986.072727 -103.238182 
L 975.927273 -103.238182 
L 965.781818 -103.238182 
L 955.636364 -103.238182 
L 945.490909 -103.238182 
L 935.345455 -103.238182 
L 925.2 -103.238182 
L 915.054545 -103.238182 
L 904.909091 -103.238182 
L 894.763636 -103.238182 
L 884.618182 -103.238182 
L 874.472727 -103.238182 
L 864.327273 -103.238182 
L 854.181818 -103.238182 
L 844.036364 -103.238182 
L 833.890909 -103.238182 
L 823.745455 -103.238182 
L 813.6 -103.238182 
L 803.454545 -103.238182 
L 793.309091 -103.238182 
L 783.163636 -103.238182 
L 773.018182 -103.238182 
L 762.872727 -103.238182 
L 752.727273 -103.238182 
L 742.581818 -103.238182 
L 732.436364 -103.238182 
L 722.290909 -103.238182 
L 712.145455 -103.238182 
L 702 -103.238182 
L 691.854545 -103.238182 
L 681.709091 -103.238182 
L 671.563636 -103.238182 
L 661.418182 -103.238182 
L 651.272727 -103.238182 
L 641.127273 -103.238182 
L 630.981818 -103.238182 
L 620.836364 -103.238182 
L 610.690909 -103.238182 
L 600.545455 -103.238182 
L 590.4 -103.238182 
L 580.254545 -103.238182 
L 570.109091 -103.238182 
L 559.963636 -103.238182 
L 549.818182 -103.238182 
L 539.672727 -103.238182 
L 529.527273 -103.238182 
L 519.381818 -103.238182 
L 509.236364 -103.238182 
L 499.090909 -103.238182 
L 488.945455 -103.238182 
L 478.8 -103.238182 
L 468.654545 -103.238182 
L 458.509091 -103.238182 
L 448.363636 -103.238182 
L 438.218182 -103.238182 
L 428.072727 -103.238182 
L 417.927273 -103.238182 
L 407.781818 -103.238182 
L 397.636364 -103.238182 
L 387.490909 -103.238182 
L 377.345455 -103.238182 
L 367.2 -103.238182 
L 357.054545 -103.238182 
L 346.909091 -103.238182 
L 336.763636 -103.238182 
L 326.618182 -103.238182 
L 316.472727 -103.238182 
L 306.327273 -103.238182 
L 296.181818 -103.238182 
L 286.036364 -103.238182 
L 275.890909 -103.238182 
L 265.745455 -103.238182 
L 255.6 -103.238182 
L 245.454545 -103.238182 
L 235.309091 -103.238182 
L 225.163636 -103.238182 
L 215.018182 -136.298978 
L 204.872727 -181.038433 
L 194.727273 -236.615465 
L 184.581818 -236.615465 
z
" id="mdb9efb4fb5" style="stroke:#dd8452;stroke-opacity:0.2;"/>
    </defs>
    <g clip-path="url(#pbe805e4f30)">
     <use style="fill:#dd8452;fill-opacity:0.2;stroke:#dd8452;stroke-opacity:0.2;" x="0" xlink:href="#mdb9efb4fb5" y="648"/>
    </g>
   </g>
   <g id="line2d_16">
    <path clip-path="url(#pbe805e4f30)" d="M 184.581818 135.441069 
L 194.727273 135.445068 
L 204.872727 133.926387 
L 215.018182 127.574977 
L 225.163636 128.962435 
L 235.309091 124.507565 
L 245.454545 127.539513 
L 255.6 126.750085 
L 265.745455 121.387082 
L 275.890909 129.419347 
L 286.036364 122.199642 
L 296.181818 132.713256 
L 306.327273 123.734495 
L 316.472727 126.897957 
L 326.618182 124.325207 
L 336.763636 124.799881 
L 346.909091 126.482898 
L 357.054545 125.258364 
L 367.2 124.897645 
L 377.345455 123.367662 
L 387.490909 120.889669 
L 397.636364 121.637626 
L 407.781818 121.670018 
L 417.927273 121.508272 
L 428.072727 123.186169 
L 438.218182 119.9481 
L 448.363636 125.040654 
L 458.509091 119.09919 
L 468.654545 123.432667 
L 478.8 121.128541 
L 488.945455 119.858537 
L 499.090909 122.379567 
L 509.236364 120.403963 
L 519.381818 123.856118 
L 529.527273 120.594137 
L 539.672727 122.327073 
L 549.818182 120.019011 
L 559.963636 121.538276 
L 570.109091 119.89202 
L 580.254545 121.036091 
L 590.4 119.515288 
L 600.545455 121.240815 
L 610.690909 118.867471 
L 620.836364 122.240872 
L 630.981818 118.555122 
L 641.127273 123.307961 
L 651.272727 118.028883 
L 661.418182 122.207526 
L 671.563636 117.058566 
L 681.709091 120.667106 
L 691.854545 118.798095 
L 702 120.881563 
L 712.145455 119.177852 
L 722.290909 119.942598 
L 732.436364 119.711091 
L 742.581818 119.446629 
L 752.727273 119.646925 
L 762.872727 119.13428 
L 773.018182 119.912385 
L 783.163636 118.932451 
L 793.309091 119.783322 
L 803.454545 119.473744 
L 813.6 119.474356 
L 823.745455 119.678202 
L 833.890909 118.320612 
L 844.036364 120.849621 
L 854.181818 118.054769 
L 864.327273 120.628978 
L 874.472727 118.903461 
L 884.618182 120.195436 
L 894.763636 119.288422 
L 904.909091 119.194492 
L 915.054545 119.317889 
L 925.2 118.798754 
L 935.345455 119.4267 
L 945.490909 118.464377 
L 955.636364 119.366222 
L 965.781818 117.760178 
L 975.927273 119.242064 
L 986.072727 118.025172 
L 996.218182 119.180071 
" style="fill:none;stroke:#4c72b0;stroke-linecap:round;stroke-width:1.5;"/>
   </g>
   <g id="line2d_17">
    <path clip-path="url(#pbe805e4f30)" d="M 184.581818 253.084357 
L 194.727273 253.070046 
L 204.872727 254.803996 
L 215.018182 252.790692 
L 225.163636 253.591873 
L 235.309091 248.577345 
L 245.454545 253.420855 
L 255.6 242.608327 
L 265.745455 252.502813 
L 275.890909 242.324768 
L 286.036364 248.695565 
L 296.181818 242.115112 
L 306.327273 247.039871 
L 316.472727 242.380696 
L 326.618182 244.821785 
L 336.763636 241.554193 
L 346.909091 242.864666 
L 357.054545 242.738244 
L 367.2 242.999776 
L 377.345455 242.292394 
L 387.490909 241.938353 
L 397.636364 241.293631 
L 407.781818 241.242883 
L 417.927273 241.250194 
L 428.072727 241.433318 
L 438.218182 242.022921 
L 448.363636 241.549897 
L 458.509091 241.925857 
L 468.654545 241.170631 
L 478.8 241.237207 
L 488.945455 239.080632 
L 499.090909 241.655775 
L 509.236364 238.755664 
L 519.381818 241.43339 
L 529.527273 239.16453 
L 539.672727 240.66089 
L 549.818182 239.600833 
L 559.963636 239.313682 
L 570.109091 239.250344 
L 580.254545 238.035967 
L 590.4 240.148256 
L 600.545455 237.42846 
L 610.690909 239.740356 
L 620.836364 237.799305 
L 630.981818 239.315832 
L 641.127273 238.207711 
L 651.272727 238.365946 
L 661.418182 238.645953 
L 671.563636 236.565882 
L 681.709091 239.19957 
L 691.854545 236.338971 
L 702 239.274722 
L 712.145455 235.814242 
L 722.290909 238.781594 
L 732.436364 236.01539 
L 742.581818 238.66039 
L 752.727273 236.163314 
L 762.872727 237.810775 
L 773.018182 236.670381 
L 783.163636 237.12534 
L 793.309091 236.975421 
L 803.454545 236.579447 
L 813.6 237.503023 
L 823.745455 236.057594 
L 833.890909 237.733863 
L 844.036364 235.739843 
L 854.181818 238.383636 
L 864.327273 235.619528 
L 874.472727 238.735936 
L 884.618182 235.852522 
L 894.763636 238.293048 
L 904.909091 236.096346 
L 915.054545 237.878323 
L 925.2 236.257148 
L 935.345455 237.701221 
L 945.490909 236.132673 
L 955.636364 237.37007 
L 965.781818 236.214 
L 975.927273 237.300138 
L 986.072727 236.594635 
L 996.218182 237.047394 
" style="fill:none;stroke:#4c72b0;stroke-dasharray:6,2.25;stroke-dashoffset:0;stroke-width:1.5;"/>
   </g>
   <g id="line2d_18">
    <path clip-path="url(#pbe805e4f30)" d="M 184.581818 411.384535 
L 194.727273 411.381623 
L 204.872727 410.832416 
L 215.018182 413.641224 
L 225.163636 413.87868 
L 235.309091 414.842688 
L 245.454545 415.785755 
L 255.6 414.745383 
L 265.745455 416.693682 
L 275.890909 415.561417 
L 286.036364 416.873978 
L 296.181818 416.978692 
L 306.327273 417.110124 
L 316.472727 418.106826 
L 326.618182 416.736453 
L 336.763636 419.13767 
L 346.909091 417.442161 
L 357.054545 420.279144 
L 367.2 418.451255 
L 377.345455 420.311367 
L 387.490909 418.718402 
L 397.636364 420.434477 
L 407.781818 419.676271 
L 417.927273 420.243266 
L 428.072727 420.39585 
L 438.218182 419.934282 
L 448.363636 420.821854 
L 458.509091 419.904445 
L 468.654545 421.460159 
L 478.8 420.312354 
L 488.945455 421.674471 
L 499.090909 420.640306 
L 509.236364 421.818612 
L 519.381818 420.771925 
L 529.527273 422.126405 
L 539.672727 421.096713 
L 549.818182 422.171044 
L 559.963636 421.318068 
L 570.109091 422.633847 
L 580.254545 421.627456 
L 590.4 422.629552 
L 600.545455 421.982768 
L 610.690909 422.517203 
L 620.836364 422.110972 
L 630.981818 422.083427 
L 641.127273 422.161764 
L 651.272727 421.861677 
L 661.418182 422.135066 
L 671.563636 421.733006 
L 681.709091 422.241303 
L 691.854545 421.376891 
L 702 422.394945 
L 712.145455 421.143896 
L 722.290909 422.540966 
L 732.436364 421.301668 
L 742.581818 422.766858 
L 752.727273 421.626908 
L 762.872727 422.684274 
L 773.018182 422.047394 
L 783.163636 422.743805 
L 793.309091 422.338252 
L 803.454545 422.568985 
L 813.6 422.446839 
L 823.745455 422.427274 
L 833.890909 422.562114 
L 844.036364 422.238253 
L 854.181818 422.741286 
L 864.327273 422.250129 
L 874.472727 422.747047 
L 884.618182 422.232075 
L 894.763636 422.869445 
L 904.909091 422.187303 
L 915.054545 422.773228 
L 925.2 421.899657 
L 935.345455 422.576147 
L 945.490909 421.877944 
L 955.636364 422.437411 
L 965.781818 421.713317 
L 975.927273 422.117609 
L 986.072727 421.807255 
L 996.218182 422.188549 
" style="fill:none;stroke:#4c72b0;stroke-dasharray:1.5,1.5;stroke-dashoffset:0;stroke-width:1.5;"/>
   </g>
   <g id="line2d_19"/>
   <g id="line2d_20"/>
   <g id="line2d_21"/>
   <g id="line2d_22">
    <path clip-path="url(#pbe805e4f30)" d="M 184.581818 135.441069 
L 194.727273 135.441069 
L 204.872727 382.291394 
L 215.018182 385.620459 
L 225.163636 399.165286 
L 235.309091 403.991339 
L 245.454545 425.837374 
L 255.6 427.708342 
L 265.745455 439.310912 
L 275.890909 451.065462 
L 286.036364 457.978115 
L 296.181818 459.996199 
L 306.327273 463.179223 
L 316.472727 466.696805 
L 326.618182 463.883409 
L 336.763636 473.267754 
L 346.909091 467.253693 
L 357.054545 473.458495 
L 367.2 468.721469 
L 377.345455 471.711534 
L 387.490909 469.238052 
L 397.636364 472.102443 
L 407.781818 470.645921 
L 417.927273 474.933884 
L 428.072727 473.927724 
L 438.218182 476.433617 
L 448.363636 476.272026 
L 458.509091 474.626185 
L 468.654545 476.205684 
L 478.8 475.348856 
L 488.945455 475.126439 
L 499.090909 475.142216 
L 509.236364 475.799403 
L 519.381818 475.265278 
L 529.527273 476.582753 
L 539.672727 475.141027 
L 549.818182 477.691467 
L 559.963636 475.027501 
L 570.109091 479.406312 
L 580.254545 475.645142 
L 590.4 480.25473 
L 600.545455 475.665577 
L 610.690909 479.843791 
L 620.836364 476.867468 
L 630.981818 480.19741 
L 641.127273 476.993313 
L 651.272727 479.921423 
L 661.418182 477.470631 
L 671.563636 479.237378 
L 681.709091 478.139599 
L 691.854545 479.008121 
L 702 478.729965 
L 712.145455 479.164563 
L 722.290909 479.164759 
L 732.436364 479.293963 
L 742.581818 479.534547 
L 752.727273 479.11374 
L 762.872727 479.673472 
L 773.018182 478.877152 
L 783.163636 480.267614 
L 793.309091 478.852586 
L 803.454545 480.645149 
L 813.6 478.762646 
L 823.745455 481.004787 
L 833.890909 478.822614 
L 844.036364 481.145183 
L 854.181818 479.036328 
L 864.327273 481.15776 
L 874.472727 479.228172 
L 884.618182 481.053134 
L 894.763636 479.41439 
L 904.909091 480.843466 
L 915.054545 479.712221 
L 925.2 480.783718 
L 935.345455 479.868626 
L 945.490909 480.752545 
L 955.636364 480.021047 
L 965.781818 480.805648 
L 975.927273 480.150227 
L 986.072727 480.926075 
L 996.218182 480.238524 
" style="fill:none;stroke:#dd8452;stroke-linecap:round;stroke-width:1.5;"/>
   </g>
   <g id="line2d_23">
    <path clip-path="url(#pbe805e4f30)" d="M 184.581818 253.084357 
L 194.727273 253.084357 
L 204.872727 492.097076 
L 215.018182 494.131412 
L 225.163636 506.999353 
L 235.309091 513.67836 
L 245.454545 519.029803 
L 255.6 519.836898 
L 265.745455 526.833362 
L 275.890909 529.387027 
L 286.036364 533.869347 
L 296.181818 533.851266 
L 306.327273 538.115055 
L 316.472727 538.441117 
L 326.618182 539.415981 
L 336.763636 544.761818 
L 346.909091 540.871425 
L 357.054545 544.761818 
L 367.2 544.761818 
L 377.345455 544.761818 
L 387.490909 544.761818 
L 397.636364 544.761818 
L 407.781818 544.761818 
L 417.927273 544.761818 
L 428.072727 544.761818 
L 438.218182 544.761818 
L 448.363636 544.761818 
L 458.509091 544.761818 
L 468.654545 544.761818 
L 478.8 544.761818 
L 488.945455 544.761818 
L 499.090909 544.761818 
L 509.236364 544.761818 
L 519.381818 544.761818 
L 529.527273 544.761818 
L 539.672727 544.761818 
L 549.818182 544.761818 
L 559.963636 544.761818 
L 570.109091 544.761818 
L 580.254545 544.761818 
L 590.4 544.761818 
L 600.545455 544.761818 
L 610.690909 544.761818 
L 620.836364 544.761818 
L 630.981818 544.761818 
L 641.127273 544.761818 
L 651.272727 544.761818 
L 661.418182 544.761818 
L 671.563636 544.761818 
L 681.709091 544.761818 
L 691.854545 544.761818 
L 702 544.761818 
L 712.145455 544.761818 
L 722.290909 544.761818 
L 732.436364 544.761818 
L 742.581818 544.761818 
L 752.727273 544.761818 
L 762.872727 544.761818 
L 773.018182 544.761818 
L 783.163636 544.761818 
L 793.309091 544.761818 
L 803.454545 544.761818 
L 813.6 544.761818 
L 823.745455 544.761818 
L 833.890909 544.761818 
L 844.036364 544.761818 
L 854.181818 544.761818 
L 864.327273 544.761818 
L 874.472727 544.761818 
L 884.618182 544.761818 
L 894.763636 544.761818 
L 904.909091 544.761818 
L 915.054545 544.761818 
L 925.2 544.761818 
L 935.345455 544.761818 
L 945.490909 544.761818 
L 955.636364 544.761818 
L 965.781818 544.761818 
L 975.927273 544.761818 
L 986.072727 544.761818 
L 996.218182 544.761818 
" style="fill:none;stroke:#dd8452;stroke-dasharray:6,2.25;stroke-dashoffset:0;stroke-width:1.5;"/>
   </g>
   <g id="line2d_24">
    <path clip-path="url(#pbe805e4f30)" d="M 184.581818 411.384535 
L 194.727273 411.384535 
L 204.872727 518.828401 
L 215.018182 533.741553 
L 225.163636 544.761818 
L 235.309091 544.761818 
L 245.454545 544.761818 
L 255.6 544.761818 
L 265.745455 544.761818 
L 275.890909 544.761818 
L 286.036364 544.761818 
L 296.181818 544.761818 
L 306.327273 544.761818 
L 316.472727 544.761818 
L 326.618182 544.761818 
L 336.763636 544.761818 
L 346.909091 544.761818 
L 357.054545 544.761818 
L 367.2 544.761818 
L 377.345455 544.761818 
L 387.490909 544.761818 
L 397.636364 544.761818 
L 407.781818 544.761818 
L 417.927273 544.761818 
L 428.072727 544.761818 
L 438.218182 544.761818 
L 448.363636 544.761818 
L 458.509091 544.761818 
L 468.654545 544.761818 
L 478.8 544.761818 
L 488.945455 544.761818 
L 499.090909 544.761818 
L 509.236364 544.761818 
L 519.381818 544.761818 
L 529.527273 544.761818 
L 539.672727 544.761818 
L 549.818182 544.761818 
L 559.963636 544.761818 
L 570.109091 544.761818 
L 580.254545 544.761818 
L 590.4 544.761818 
L 600.545455 544.761818 
L 610.690909 544.761818 
L 620.836364 544.761818 
L 630.981818 544.761818 
L 641.127273 544.761818 
L 651.272727 544.761818 
L 661.418182 544.761818 
L 671.563636 544.761818 
L 681.709091 544.761818 
L 691.854545 544.761818 
L 702 544.761818 
L 712.145455 544.761818 
L 722.290909 544.761818 
L 732.436364 544.761818 
L 742.581818 544.761818 
L 752.727273 544.761818 
L 762.872727 544.761818 
L 773.018182 544.761818 
L 783.163636 544.761818 
L 793.309091 544.761818 
L 803.454545 544.761818 
L 813.6 544.761818 
L 823.745455 544.761818 
L 833.890909 544.761818 
L 844.036364 544.761818 
L 854.181818 544.761818 
L 864.327273 544.761818 
L 874.472727 544.761818 
L 884.618182 544.761818 
L 894.763636 544.761818 
L 904.909091 544.761818 
L 915.054545 544.761818 
L 925.2 544.761818 
L 935.345455 544.761818 
L 945.490909 544.761818 
L 955.636364 544.761818 
L 965.781818 544.761818 
L 975.927273 544.761818 
L 986.072727 544.761818 
L 996.218182 544.761818 
" style="fill:none;stroke:#dd8452;stroke-dasharray:1.5,1.5;stroke-dashoffset:0;stroke-width:1.5;"/>
   </g>
   <g id="patch_3">
    <path d="M 144 567 
L 144 77.76 
" style="fill:none;stroke:#ffffff;stroke-linecap:square;stroke-linejoin:miter;stroke-width:1.25;"/>
   </g>
   <g id="patch_4">
    <path d="M 1036.8 567 
L 1036.8 77.76 
" style="fill:none;stroke:#ffffff;stroke-linecap:square;stroke-linejoin:miter;stroke-width:1.25;"/>
   </g>
   <g id="patch_5">
    <path d="M 144 567 
L 1036.8 567 
" style="fill:none;stroke:#ffffff;stroke-linecap:square;stroke-linejoin:miter;stroke-width:1.25;"/>
   </g>
   <g id="patch_6">
    <path d="M 144 77.76 
L 1036.8 77.76 
" style="fill:none;stroke:#ffffff;stroke-linecap:square;stroke-linejoin:miter;stroke-width:1.25;"/>
   </g>
   <g id="legend_1">
    <g id="patch_7">
     <path d="M 966.794375 356.805781 
L 1029.1 356.805781 
Q 1031.3 356.805781 1031.3 354.605781 
L 1031.3 290.154219 
Q 1031.3 287.954219 1029.1 287.954219 
L 966.794375 287.954219 
Q 964.594375 287.954219 964.594375 290.154219 
L 964.594375 354.605781 
Q 964.594375 356.805781 966.794375 356.805781 
z
" style="fill:#eaeaf2;opacity:0.8;stroke:#cccccc;stroke-linejoin:miter;"/>
    </g>
    <g id="text_18">
     <!-- examples -->
     <g style="fill:#262626;" transform="translate(968.994375 301.472344)scale(0.12 -0.12)">
      <defs>
       <path d="M 3513 3500 
L 2247 1797 
L 3578 0 
L 2900 0 
L 1881 1375 
L 863 0 
L 184 0 
L 1544 1831 
L 300 3500 
L 978 3500 
L 1906 2253 
L 2834 3500 
L 3513 3500 
z
" id="DejaVuSans-78" transform="scale(0.015625)"/>
       <path d="M 2194 1759 
Q 1497 1759 1228 1600 
Q 959 1441 959 1056 
Q 959 750 1161 570 
Q 1363 391 1709 391 
Q 2188 391 2477 730 
Q 2766 1069 2766 1631 
L 2766 1759 
L 2194 1759 
z
M 3341 1997 
L 3341 0 
L 2766 0 
L 2766 531 
Q 2569 213 2275 61 
Q 1981 -91 1556 -91 
Q 1019 -91 701 211 
Q 384 513 384 1019 
Q 384 1609 779 1909 
Q 1175 2209 1959 2209 
L 2766 2209 
L 2766 2266 
Q 2766 2663 2505 2880 
Q 2244 3097 1772 3097 
Q 1472 3097 1187 3025 
Q 903 2953 641 2809 
L 641 3341 
Q 956 3463 1253 3523 
Q 1550 3584 1831 3584 
Q 2591 3584 2966 3190 
Q 3341 2797 3341 1997 
z
" id="DejaVuSans-61" transform="scale(0.015625)"/>
       <path d="M 3328 2828 
Q 3544 3216 3844 3400 
Q 4144 3584 4550 3584 
Q 5097 3584 5394 3201 
Q 5691 2819 5691 2113 
L 5691 0 
L 5113 0 
L 5113 2094 
Q 5113 2597 4934 2840 
Q 4756 3084 4391 3084 
Q 3944 3084 3684 2787 
Q 3425 2491 3425 1978 
L 3425 0 
L 2847 0 
L 2847 2094 
Q 2847 2600 2669 2842 
Q 2491 3084 2119 3084 
Q 1678 3084 1418 2786 
Q 1159 2488 1159 1978 
L 1159 0 
L 581 0 
L 581 3500 
L 1159 3500 
L 1159 2956 
Q 1356 3278 1631 3431 
Q 1906 3584 2284 3584 
Q 2666 3584 2933 3390 
Q 3200 3197 3328 2828 
z
" id="DejaVuSans-6d" transform="scale(0.015625)"/>
      </defs>
      <use xlink:href="#DejaVuSans-65"/>
      <use x="59.773438" xlink:href="#DejaVuSans-78"/>
      <use x="118.953125" xlink:href="#DejaVuSans-61"/>
      <use x="180.232422" xlink:href="#DejaVuSans-6d"/>
      <use x="277.644531" xlink:href="#DejaVuSans-70"/>
      <use x="341.121094" xlink:href="#DejaVuSans-6c"/>
      <use x="368.904297" xlink:href="#DejaVuSans-65"/>
      <use x="430.427734" xlink:href="#DejaVuSans-73"/>
     </g>
    </g>
    <g id="line2d_25">
     <path d="M 972.049062 313.97625 
L 994.049062 313.97625 
" style="fill:none;stroke:#333333;stroke-linecap:round;stroke-width:1.5;"/>
    </g>
    <g id="line2d_26"/>
    <g id="text_19">
     <!-- 50 -->
     <g style="fill:#262626;" transform="translate(1002.849062 317.82625)scale(0.11 -0.11)">
      <use xlink:href="#DejaVuSans-35"/>
      <use x="63.623047" xlink:href="#DejaVuSans-30"/>
     </g>
    </g>
    <g id="line2d_27">
     <path d="M 972.049062 330.122187 
L 994.049062 330.122187 
" style="fill:none;stroke:#333333;stroke-dasharray:6,2.25;stroke-dashoffset:0;stroke-width:1.5;"/>
    </g>
    <g id="line2d_28"/>
    <g id="text_20">
     <!-- 100 -->
     <g style="fill:#262626;" transform="translate(1002.849062 333.972188)scale(0.11 -0.11)">
      <use xlink:href="#DejaVuSans-31"/>
      <use x="63.623047" xlink:href="#DejaVuSans-30"/>
      <use x="127.246094" xlink:href="#DejaVuSans-30"/>
     </g>
    </g>
    <g id="line2d_29">
     <path d="M 972.049062 346.268125 
L 994.049062 346.268125 
" style="fill:none;stroke:#333333;stroke-dasharray:1.5,1.5;stroke-dashoffset:0;stroke-width:1.5;"/>
    </g>
    <g id="line2d_30"/>
    <g id="text_21">
     <!-- 250 -->
     <g style="fill:#262626;" transform="translate(1002.849062 350.118125)scale(0.11 -0.11)">
      <use xlink:href="#DejaVuSans-32"/>
      <use x="63.623047" xlink:href="#DejaVuSans-35"/>
      <use x="127.246094" xlink:href="#DejaVuSans-30"/>
     </g>
    </g>
   </g>
  </g>
 </g>
 <defs>
  <clipPath id="pbe805e4f30">
   <rect height="489.24" width="892.8" x="144" y="77.76"/>
  </clipPath>
 </defs>
</svg>
